959447040 EMBA layer 0 eta 0.05 phi 1.2241167 maxsampind 4.0 maxsamp 61.399 bciddiff 2( = 43-41 (1,45) 0.0
959462400 EMBA layer 1 eta 0.0140625 phi 1.2241167 maxsampind 4.0 maxsamp 734.142 bciddiff 2( = 43-41 (1,45) 0.0
959463424 EMBA layer 1 eta 0.0375 phi 1.2241167 maxsampind 4.0 maxsamp 717.116 bciddiff 2( = 43-41 (2,45) 0.0
959464448 EMBA layer 1 eta 0.0625 phi 1.2241167 maxsampind 4.0 maxsamp 731.211 bciddiff 2( = 43-41 (3,45) 0.0
959465472 EMBA layer 1 eta 0.087500006 phi 1.2241167 maxsampind 4.0 maxsamp 706.123 bciddiff 2( = 43-41 (4,45) 0.0
959522816 EMBA layer 2 eta 0.0125 phi 1.2241167 maxsampind 4.0 maxsamp 797.947 bciddiff 2( = 43-41 (1,45) 0.0
959523840 EMBA layer 2 eta 0.0375 phi 1.2241167 maxsampind 4.0 maxsamp 789.127 bciddiff 2( = 43-41 (2,45) 0.0
959524864 EMBA layer 2 eta 0.0625 phi 1.2241167 maxsampind 4.0 maxsamp 773.634 bciddiff 2( = 43-41 (3,45) 0.0
959525888 EMBA layer 2 eta 0.0875 phi 1.2241167 maxsampind 4.0 maxsamp 797.389 bciddiff 2( = 43-41 (4,45) 0.0
959581184 EMBA layer 3 eta 0.05 phi 1.2241167 maxsampind 4.0 maxsamp 2037.291 bciddiff 2( = 43-41 (1,45) 0.0
959447552 EMBA layer 0 eta 0.05 phi 1.3222915 maxsampind 4.0 maxsamp 65.511 bciddiff 2( = 43-41 (1,46) 0.0
959462912 EMBA layer 1 eta 0.0140625 phi 1.3222915 maxsampind 4.0 maxsamp 736.545 bciddiff 2( = 43-41 (1,46) 0.0
959463936 EMBA layer 1 eta 0.0375 phi 1.3222915 maxsampind 4.0 maxsamp 741.63 bciddiff 2( = 43-41 (2,46) 0.0
959464960 EMBA layer 1 eta 0.0625 phi 1.3222915 maxsampind 4.0 maxsamp 753.293 bciddiff 2( = 43-41 (3,46) 0.0
959465984 EMBA layer 1 eta 0.087500006 phi 1.3222915 maxsampind 4.0 maxsamp 751.255 bciddiff 2( = 43-41 (4,46) 0.0
959523328 EMBA layer 2 eta 0.0125 phi 1.3222914 maxsampind 4.0 maxsamp 789.056 bciddiff 2( = 43-41 (1,46) 0.0
959524352 EMBA layer 2 eta 0.0375 phi 1.3222914 maxsampind 4.0 maxsamp 794.082 bciddiff 2( = 43-41 (2,46) 0.0
959525376 EMBA layer 2 eta 0.0625 phi 1.3222914 maxsampind 4.0 maxsamp 770.922 bciddiff 2( = 43-41 (3,46) 0.0
959526400 EMBA layer 2 eta 0.0875 phi 1.3222914 maxsampind 4.0 maxsamp 788.192 bciddiff 2( = 43-41 (4,46) 0.0
959581696 EMBA layer 3 eta 0.05 phi 1.3222914 maxsampind 3.0 maxsamp 2033.486 bciddiff 1( = 42-41 (1,46) 0.0
959451136 EMBA layer 0 eta 0.45 phi 1.2241167 maxsampind 4.0 maxsamp 63.125 bciddiff 2( = 43-41 (5,45) 0.0
959478784 EMBA layer 1 eta 0.41250002 phi 1.2241167 maxsampind 4.0 maxsamp 752.621 bciddiff 2( = 43-41 (17,45) 0.0
959479808 EMBA layer 1 eta 0.4375 phi 1.2241167 maxsampind 4.0 maxsamp 752.226 bciddiff 2( = 43-41 (18,45) 0.0
959480832 EMBA layer 1 eta 0.46249998 phi 1.2241167 maxsampind 4.0 maxsamp 740.886 bciddiff 2( = 43-41 (19,45) 0.0
959481856 EMBA layer 1 eta 0.4875 phi 1.2241167 maxsampind 4.0 maxsamp 734.684 bciddiff 2( = 43-41 (20,45) 0.0
959539200 EMBA layer 2 eta 0.4125 phi 1.2241167 maxsampind 4.0 maxsamp 748.344 bciddiff 2( = 43-41 (17,45) 0.0
959540224 EMBA layer 2 eta 0.4375 phi 1.2241167 maxsampind 4.0 maxsamp 728.317 bciddiff 2( = 43-41 (18,45) 0.0
959541248 EMBA layer 2 eta 0.4625 phi 1.2241167 maxsampind 4.0 maxsamp 747.202 bciddiff 2( = 43-41 (19,45) 0.0
959542272 EMBA layer 2 eta 0.4875 phi 1.2241167 maxsampind 4.0 maxsamp 697.855 bciddiff 2( = 43-41 (20,45) 0.0
959585280 EMBA layer 3 eta 0.45 phi 1.2241167 maxsampind 4.0 maxsamp 1935.699 bciddiff 2( = 43-41 (5,45) 0.0
959451648 EMBA layer 0 eta 0.45 phi 1.3222915 maxsampind 4.0 maxsamp 65.15 bciddiff 2( = 43-41 (5,46) 0.0
959479296 EMBA layer 1 eta 0.41250002 phi 1.3222915 maxsampind 4.0 maxsamp 729.824 bciddiff 2( = 43-41 (17,46) 0.0
959480320 EMBA layer 1 eta 0.4375 phi 1.3222915 maxsampind 4.0 maxsamp 747.028 bciddiff 2( = 43-41 (18,46) 0.0
959481344 EMBA layer 1 eta 0.46249998 phi 1.3222915 maxsampind 4.0 maxsamp 726.107 bciddiff 2( = 43-41 (19,46) 0.0
959482368 EMBA layer 1 eta 0.4875 phi 1.3222915 maxsampind 4.0 maxsamp 727.025 bciddiff 2( = 43-41 (20,46) 0.0
959539712 EMBA layer 2 eta 0.4125 phi 1.3222914 maxsampind 4.0 maxsamp 760.879 bciddiff 2( = 43-41 (17,46) 0.0
959540736 EMBA layer 2 eta 0.4375 phi 1.3222914 maxsampind 4.0 maxsamp 771.518 bciddiff 2( = 43-41 (18,46) 0.0
959541760 EMBA layer 2 eta 0.4625 phi 1.3222914 maxsampind 4.0 maxsamp 743.181 bciddiff 2( = 43-41 (19,46) 0.0
959542784 EMBA layer 2 eta 0.4875 phi 1.3222914 maxsampind 4.0 maxsamp 722.948 bciddiff 2( = 43-41 (20,46) 0.0
959585792 EMBA layer 3 eta 0.45 phi 1.3222914 maxsampind 4.0 maxsamp 1909.467 bciddiff 2( = 43-41 (5,46) 0.0
959449088 EMBA layer 0 eta 0.25 phi 1.2241167 maxsampind 4.0 maxsamp 65.198 bciddiff 2( = 43-41 (3,45) 0.0
959470592 EMBA layer 1 eta 0.2125 phi 1.2241167 maxsampind 4.0 maxsamp 732.497 bciddiff 2( = 43-41 (9,45) 0.0
959471616 EMBA layer 1 eta 0.2375 phi 1.2241167 maxsampind 4.0 maxsamp 727.457 bciddiff 2( = 43-41 (10,45) 0.0
959472640 EMBA layer 1 eta 0.2625 phi 1.2241167 maxsampind 4.0 maxsamp 713.942 bciddiff 2( = 43-41 (11,45) 0.0
959473664 EMBA layer 1 eta 0.28750002 phi 1.2241167 maxsampind 4.0 maxsamp 703.258 bciddiff 2( = 43-41 (12,45) 0.0
959531008 EMBA layer 2 eta 0.2125 phi 1.2241167 maxsampind 4.0 maxsamp 778.179 bciddiff 2( = 43-41 (9,45) 0.0
959532032 EMBA layer 2 eta 0.2375 phi 1.2241167 maxsampind 4.0 maxsamp 804.617 bciddiff 2( = 43-41 (10,45) 0.0
959533056 EMBA layer 2 eta 0.2625 phi 1.2241167 maxsampind 4.0 maxsamp 790.098 bciddiff 2( = 43-41 (11,45) 0.0
959534080 EMBA layer 2 eta 0.2875 phi 1.2241167 maxsampind 4.0 maxsamp 795.435 bciddiff 2( = 43-41 (12,45) 0.0
959583232 EMBA layer 3 eta 0.25 phi 1.2241167 maxsampind 4.0 maxsamp 2004.576 bciddiff 2( = 43-41 (3,45) 0.0
959449600 EMBA layer 0 eta 0.25 phi 1.3222915 maxsampind 4.0 maxsamp 63.545 bciddiff 2( = 43-41 (3,46) 0.0
959471104 EMBA layer 1 eta 0.2125 phi 1.3222915 maxsampind 4.0 maxsamp 744.576 bciddiff 2( = 43-41 (9,46) 0.0
959472128 EMBA layer 1 eta 0.2375 phi 1.3222915 maxsampind 4.0 maxsamp 733.054 bciddiff 2( = 43-41 (10,46) 0.0
959473152 EMBA layer 1 eta 0.2625 phi 1.3222915 maxsampind 4.0 maxsamp 733.507 bciddiff 2( = 43-41 (11,46) 0.0
959474176 EMBA layer 1 eta 0.28750002 phi 1.3222915 maxsampind 4.0 maxsamp 726.07 bciddiff 2( = 43-41 (12,46) 0.0
959531520 EMBA layer 2 eta 0.2125 phi 1.3222914 maxsampind 4.0 maxsamp 763.421 bciddiff 2( = 43-41 (9,46) 0.0
959532544 EMBA layer 2 eta 0.2375 phi 1.3222914 maxsampind 4.0 maxsamp 787.607 bciddiff 2( = 43-41 (10,46) 0.0
959533568 EMBA layer 2 eta 0.2625 phi 1.3222914 maxsampind 4.0 maxsamp 752.693 bciddiff 2( = 43-41 (11,46) 0.0
959534592 EMBA layer 2 eta 0.2875 phi 1.3222914 maxsampind 4.0 maxsamp 775.802 bciddiff 2( = 43-41 (12,46) 0.0
959583744 EMBA layer 3 eta 0.25 phi 1.3222914 maxsampind 3.0 maxsamp 2018.591 bciddiff 1( = 42-41 (3,46) 0.0
959448064 EMBA layer 0 eta 0.15 phi 1.2241167 maxsampind 4.0 maxsamp 66.544 bciddiff 2( = 43-41 (2,45) 0.0
959466496 EMBA layer 1 eta 0.1125 phi 1.2241167 maxsampind 4.0 maxsamp 731.73 bciddiff 2( = 43-41 (5,45) 0.0
959467520 EMBA layer 1 eta 0.1375 phi 1.2241167 maxsampind 4.0 maxsamp 739.972 bciddiff 2( = 43-41 (6,45) 0.0
959468544 EMBA layer 1 eta 0.1625 phi 1.2241167 maxsampind 4.0 maxsamp 758.244 bciddiff 2( = 43-41 (7,45) 0.0
959469568 EMBA layer 1 eta 0.1875 phi 1.2241167 maxsampind 4.0 maxsamp 749.913 bciddiff 2( = 43-41 (8,45) 0.0
959526912 EMBA layer 2 eta 0.1125 phi 1.2241167 maxsampind 4.0 maxsamp 758.407 bciddiff 2( = 43-41 (5,45) 0.0
959527936 EMBA layer 2 eta 0.1375 phi 1.2241167 maxsampind 4.0 maxsamp 764.211 bciddiff 2( = 43-41 (6,45) 0.0
959528960 EMBA layer 2 eta 0.1625 phi 1.2241167 maxsampind 4.0 maxsamp 757.761 bciddiff 2( = 43-41 (7,45) 0.0
959529984 EMBA layer 2 eta 0.1875 phi 1.2241167 maxsampind 4.0 maxsamp 796.947 bciddiff 2( = 43-41 (8,45) 0.0
959582208 EMBA layer 3 eta 0.15 phi 1.2241167 maxsampind 4.0 maxsamp 1971.644 bciddiff 2( = 43-41 (2,45) 0.0
959448576 EMBA layer 0 eta 0.15 phi 1.3222915 maxsampind 4.0 maxsamp 65.934 bciddiff 2( = 43-41 (2,46) 0.0
959467008 EMBA layer 1 eta 0.1125 phi 1.3222915 maxsampind 4.0 maxsamp 756.549 bciddiff 2( = 43-41 (5,46) 0.0
959468032 EMBA layer 1 eta 0.1375 phi 1.3222915 maxsampind 4.0 maxsamp 748.998 bciddiff 2( = 43-41 (6,46) 0.0
959469056 EMBA layer 1 eta 0.1625 phi 1.3222915 maxsampind 4.0 maxsamp 734.51 bciddiff 2( = 43-41 (7,46) 0.0
959470080 EMBA layer 1 eta 0.1875 phi 1.3222915 maxsampind 4.0 maxsamp 741.456 bciddiff 2( = 43-41 (8,46) 0.0
959527424 EMBA layer 2 eta 0.1125 phi 1.3222914 maxsampind 4.0 maxsamp 782.132 bciddiff 2( = 43-41 (5,46) 0.0
959528448 EMBA layer 2 eta 0.1375 phi 1.3222914 maxsampind 4.0 maxsamp 802.393 bciddiff 2( = 43-41 (6,46) 0.0
959529472 EMBA layer 2 eta 0.1625 phi 1.3222914 maxsampind 4.0 maxsamp 775.07 bciddiff 2( = 43-41 (7,46) 0.0
959530496 EMBA layer 2 eta 0.1875 phi 1.3222914 maxsampind 4.0 maxsamp 772.727 bciddiff 2( = 43-41 (8,46) 0.0
959582720 EMBA layer 3 eta 0.15 phi 1.3222914 maxsampind 3.0 maxsamp 2009.689 bciddiff 1( = 42-41 (2,46) 0.0
959452160 EMBA layer 0 eta 0.54999995 phi 1.2241167 maxsampind 4.0 maxsamp 60.651 bciddiff 2( = 43-41 (6,45) 0.0
959482880 EMBA layer 1 eta 0.5125 phi 1.2241167 maxsampind 4.0 maxsamp 730.44 bciddiff 2( = 43-41 (21,45) 0.0
959483904 EMBA layer 1 eta 0.5375 phi 1.2241167 maxsampind 4.0 maxsamp 751.227 bciddiff 2( = 43-41 (22,45) 0.0
959484928 EMBA layer 1 eta 0.5625 phi 1.2241167 maxsampind 4.0 maxsamp 734.715 bciddiff 2( = 43-41 (23,45) 0.0
959485952 EMBA layer 1 eta 0.5875 phi 1.2241167 maxsampind 4.0 maxsamp 742.304 bciddiff 2( = 43-41 (24,45) 0.0
959543296 EMBA layer 2 eta 0.5125 phi 1.2241167 maxsampind 4.0 maxsamp 738.48 bciddiff 2( = 43-41 (21,45) 0.0
959544320 EMBA layer 2 eta 0.5375 phi 1.2241167 maxsampind 4.0 maxsamp 749.133 bciddiff 2( = 43-41 (22,45) 0.0
959545344 EMBA layer 2 eta 0.5625 phi 1.2241167 maxsampind 4.0 maxsamp 763.918 bciddiff 2( = 43-41 (23,45) 0.0
959546368 EMBA layer 2 eta 0.5875 phi 1.2241167 maxsampind 4.0 maxsamp 755.765 bciddiff 2( = 43-41 (24,45) 0.0
959586304 EMBA layer 3 eta 0.54999995 phi 1.2241167 maxsampind 4.0 maxsamp 1876.824 bciddiff 2( = 43-41 (6,45) 0.0
959452672 EMBA layer 0 eta 0.54999995 phi 1.3222915 maxsampind 4.0 maxsamp 61.411 bciddiff 2( = 43-41 (6,46) 0.0
959483392 EMBA layer 1 eta 0.5125 phi 1.3222915 maxsampind 4.0 maxsamp 724.055 bciddiff 2( = 43-41 (21,46) 0.0
959484416 EMBA layer 1 eta 0.5375 phi 1.3222915 maxsampind 4.0 maxsamp 731.447 bciddiff 2( = 43-41 (22,46) 0.0
959485440 EMBA layer 1 eta 0.5625 phi 1.3222915 maxsampind 4.0 maxsamp 752.591 bciddiff 2( = 43-41 (23,46) 0.0
959486464 EMBA layer 1 eta 0.5875 phi 1.3222915 maxsampind 4.0 maxsamp 742.069 bciddiff 2( = 43-41 (24,46) 0.0
959543808 EMBA layer 2 eta 0.5125 phi 1.3222914 maxsampind 4.0 maxsamp 754.422 bciddiff 2( = 43-41 (21,46) 0.0
959544832 EMBA layer 2 eta 0.5375 phi 1.3222914 maxsampind 4.0 maxsamp 738.344 bciddiff 2( = 43-41 (22,46) 0.0
959545856 EMBA layer 2 eta 0.5625 phi 1.3222914 maxsampind 4.0 maxsamp 725.2 bciddiff 2( = 43-41 (23,46) 0.0
959546880 EMBA layer 2 eta 0.5875 phi 1.3222914 maxsampind 4.0 maxsamp 744.306 bciddiff 2( = 43-41 (24,46) 0.0
959586816 EMBA layer 3 eta 0.54999995 phi 1.3222914 maxsampind 4.0 maxsamp 1797.784 bciddiff 2( = 43-41 (6,46) 0.0
959450112 EMBA layer 0 eta 0.35 phi 1.2241167 maxsampind 4.0 maxsamp 64.632 bciddiff 2( = 43-41 (4,45) 0.0
959474688 EMBA layer 1 eta 0.3125 phi 1.2241167 maxsampind 4.0 maxsamp 758.524 bciddiff 2( = 43-41 (13,45) 0.0
959475712 EMBA layer 1 eta 0.33749998 phi 1.2241167 maxsampind 4.0 maxsamp 741.798 bciddiff 2( = 43-41 (14,45) 0.0
959476736 EMBA layer 1 eta 0.3625 phi 1.2241167 maxsampind 4.0 maxsamp 761.62 bciddiff 2( = 43-41 (15,45) 0.0
959477760 EMBA layer 1 eta 0.3875 phi 1.2241167 maxsampind 4.0 maxsamp 752.994 bciddiff 2( = 43-41 (16,45) 0.0
959535104 EMBA layer 2 eta 0.3125 phi 1.2241167 maxsampind 4.0 maxsamp 761.764 bciddiff 2( = 43-41 (13,45) 0.0
959536128 EMBA layer 2 eta 0.3375 phi 1.2241167 maxsampind 4.0 maxsamp 798.155 bciddiff 2( = 43-41 (14,45) 0.0
959537152 EMBA layer 2 eta 0.3625 phi 1.2241167 maxsampind 4.0 maxsamp 770.264 bciddiff 2( = 43-41 (15,45) 0.0
959538176 EMBA layer 2 eta 0.3875 phi 1.2241167 maxsampind 4.0 maxsamp 794.522 bciddiff 2( = 43-41 (16,45) 0.0
959584256 EMBA layer 3 eta 0.35 phi 1.2241167 maxsampind 4.0 maxsamp 1993.225 bciddiff 2( = 43-41 (4,45) 0.0
959450624 EMBA layer 0 eta 0.35 phi 1.3222915 maxsampind 4.0 maxsamp 65.455 bciddiff 2( = 43-41 (4,46) 0.0
959475200 EMBA layer 1 eta 0.3125 phi 1.3222915 maxsampind 4.0 maxsamp 721.001 bciddiff 2( = 43-41 (13,46) 0.0
959476224 EMBA layer 1 eta 0.33749998 phi 1.3222915 maxsampind 4.0 maxsamp 730.553 bciddiff 2( = 43-41 (14,46) 0.0
959477248 EMBA layer 1 eta 0.3625 phi 1.3222915 maxsampind 4.0 maxsamp 756.152 bciddiff 2( = 43-41 (15,46) 0.0
959478272 EMBA layer 1 eta 0.3875 phi 1.3222915 maxsampind 4.0 maxsamp 748.236 bciddiff 2( = 43-41 (16,46) 0.0
959535616 EMBA layer 2 eta 0.3125 phi 1.3222914 maxsampind 4.0 maxsamp 794.076 bciddiff 2( = 43-41 (13,46) 0.0
959536640 EMBA layer 2 eta 0.3375 phi 1.3222914 maxsampind 4.0 maxsamp 767.42 bciddiff 2( = 43-41 (14,46) 0.0
959537664 EMBA layer 2 eta 0.3625 phi 1.3222914 maxsampind 4.0 maxsamp 817.055 bciddiff 2( = 43-41 (15,46) 0.0
959538688 EMBA layer 2 eta 0.3875 phi 1.3222914 maxsampind 4.0 maxsamp 779.477 bciddiff 2( = 43-41 (16,46) 0.0
959584768 EMBA layer 3 eta 0.35 phi 1.3222914 maxsampind 4.0 maxsamp 1975.811 bciddiff 2( = 43-41 (4,46) 0.0
959971328 EMBA layer 0 eta 0.05 phi 1.4204662 maxsampind 4.0 maxsamp 69.632 bciddiff 2( = 43-41 (1,47) 0.0
959986688 EMBA layer 1 eta 0.0140625 phi 1.4204662 maxsampind 4.0 maxsamp 743.274 bciddiff 2( = 43-41 (1,47) 0.0
959987712 EMBA layer 1 eta 0.0375 phi 1.4204662 maxsampind 4.0 maxsamp 740.458 bciddiff 2( = 43-41 (2,47) 0.0
959988736 EMBA layer 1 eta 0.0625 phi 1.4204662 maxsampind 4.0 maxsamp 740.523 bciddiff 2( = 43-41 (3,47) 0.0
959989760 EMBA layer 1 eta 0.087500006 phi 1.4204662 maxsampind 4.0 maxsamp 747.325 bciddiff 2( = 43-41 (4,47) 0.0
960047104 EMBA layer 2 eta 0.0125 phi 1.4204662 maxsampind 4.0 maxsamp 793.216 bciddiff 2( = 43-41 (1,47) 0.0
960048128 EMBA layer 2 eta 0.0375 phi 1.4204662 maxsampind 4.0 maxsamp 741.907 bciddiff 2( = 43-41 (2,47) 0.0
960049152 EMBA layer 2 eta 0.0625 phi 1.4204662 maxsampind 4.0 maxsamp 778.092 bciddiff 2( = 43-41 (3,47) 0.0
960050176 EMBA layer 2 eta 0.0875 phi 1.4204662 maxsampind 4.0 maxsamp 756.682 bciddiff 2( = 43-41 (4,47) 0.0
960105472 EMBA layer 3 eta 0.05 phi 1.4204662 maxsampind 4.0 maxsamp 2197.362 bciddiff 2( = 43-41 (1,47) 0.0
959971840 EMBA layer 0 eta 0.05 phi 1.518641 maxsampind 4.0 maxsamp 69.379 bciddiff 2( = 43-41 (1,48) 0.0
959987200 EMBA layer 1 eta 0.0140625 phi 1.518641 maxsampind 4.0 maxsamp 751.029 bciddiff 2( = 43-41 (1,48) 0.0
959988224 EMBA layer 1 eta 0.0375 phi 1.518641 maxsampind 4.0 maxsamp 748.383 bciddiff 2( = 43-41 (2,48) 0.0
959989248 EMBA layer 1 eta 0.0625 phi 1.518641 maxsampind 4.0 maxsamp 748.524 bciddiff 2( = 43-41 (3,48) 0.0
959990272 EMBA layer 1 eta 0.087500006 phi 1.518641 maxsampind 4.0 maxsamp 746.569 bciddiff 2( = 43-41 (4,48) 0.0
960047616 EMBA layer 2 eta 0.0125 phi 1.518641 maxsampind 4.0 maxsamp 812.964 bciddiff 2( = 43-41 (1,48) 0.0
960048640 EMBA layer 2 eta 0.0375 phi 1.518641 maxsampind 4.0 maxsamp 778.521 bciddiff 2( = 43-41 (2,48) 0.0
960049664 EMBA layer 2 eta 0.0625 phi 1.518641 maxsampind 4.0 maxsamp 781.113 bciddiff 2( = 43-41 (3,48) 0.0
960050688 EMBA layer 2 eta 0.0875 phi 1.518641 maxsampind 4.0 maxsamp 794.087 bciddiff 2( = 43-41 (4,48) 0.0
960105984 EMBA layer 3 eta 0.05 phi 1.518641 maxsampind 4.0 maxsamp 2204.399 bciddiff 2( = 43-41 (1,48) 0.0
959975424 EMBA layer 0 eta 0.45 phi 1.4204662 maxsampind 4.0 maxsamp 71.014 bciddiff 2( = 43-41 (5,47) 0.0
960003072 EMBA layer 1 eta 0.41250002 phi 1.4204662 maxsampind 4.0 maxsamp 744.494 bciddiff 2( = 43-41 (17,47) 0.0
960004096 EMBA layer 1 eta 0.4375 phi 1.4204662 maxsampind 4.0 maxsamp 730.13 bciddiff 2( = 43-41 (18,47) 0.0
960005120 EMBA layer 1 eta 0.46249998 phi 1.4204662 maxsampind 4.0 maxsamp 735.663 bciddiff 2( = 43-41 (19,47) 0.0
960006144 EMBA layer 1 eta 0.4875 phi 1.4204662 maxsampind 4.0 maxsamp 726.322 bciddiff 2( = 43-41 (20,47) 0.0
960063488 EMBA layer 2 eta 0.4125 phi 1.4204662 maxsampind 4.0 maxsamp 783.797 bciddiff 2( = 43-41 (17,47) 0.0
960064512 EMBA layer 2 eta 0.4375 phi 1.4204662 maxsampind 4.0 maxsamp 785.99 bciddiff 2( = 43-41 (18,47) 0.0
960065536 EMBA layer 2 eta 0.4625 phi 1.4204662 maxsampind 4.0 maxsamp 778.338 bciddiff 2( = 43-41 (19,47) 0.0
960066560 EMBA layer 2 eta 0.4875 phi 1.4204662 maxsampind 4.0 maxsamp 762.481 bciddiff 2( = 43-41 (20,47) 0.0
960109568 EMBA layer 3 eta 0.45 phi 1.4204662 maxsampind 4.0 maxsamp 2129.74 bciddiff 2( = 43-41 (5,47) 0.0
959975936 EMBA layer 0 eta 0.45 phi 1.518641 maxsampind 4.0 maxsamp 70.609 bciddiff 2( = 43-41 (5,48) 0.0
960003584 EMBA layer 1 eta 0.41250002 phi 1.518641 maxsampind 4.0 maxsamp 744.221 bciddiff 2( = 43-41 (17,48) 0.0
960004608 EMBA layer 1 eta 0.4375 phi 1.518641 maxsampind 4.0 maxsamp 739.794 bciddiff 2( = 43-41 (18,48) 0.0
960005632 EMBA layer 1 eta 0.46249998 phi 1.518641 maxsampind 4.0 maxsamp 731.066 bciddiff 2( = 43-41 (19,48) 0.0
960006656 EMBA layer 1 eta 0.4875 phi 1.518641 maxsampind 4.0 maxsamp 740.02 bciddiff 2( = 43-41 (20,48) 0.0
960064000 EMBA layer 2 eta 0.4125 phi 1.518641 maxsampind 4.0 maxsamp 768.654 bciddiff 2( = 43-41 (17,48) 0.0
960065024 EMBA layer 2 eta 0.4375 phi 1.518641 maxsampind 4.0 maxsamp 778.83 bciddiff 2( = 43-41 (18,48) 0.0
960066048 EMBA layer 2 eta 0.4625 phi 1.518641 maxsampind 4.0 maxsamp 773.603 bciddiff 2( = 43-41 (19,48) 0.0
960067072 EMBA layer 2 eta 0.4875 phi 1.518641 maxsampind 4.0 maxsamp 818.098 bciddiff 2( = 43-41 (20,48) 0.0
960110080 EMBA layer 3 eta 0.45 phi 1.518641 maxsampind 4.0 maxsamp 2184.386 bciddiff 2( = 43-41 (5,48) 0.0
959973376 EMBA layer 0 eta 0.25 phi 1.4204662 maxsampind 4.0 maxsamp 71.054 bciddiff 2( = 43-41 (3,47) 0.0
959994880 EMBA layer 1 eta 0.2125 phi 1.4204662 maxsampind 4.0 maxsamp 727.293 bciddiff 2( = 43-41 (9,47) 0.0
959995904 EMBA layer 1 eta 0.2375 phi 1.4204662 maxsampind 4.0 maxsamp 729.161 bciddiff 2( = 43-41 (10,47) 0.0
959996928 EMBA layer 1 eta 0.2625 phi 1.4204662 maxsampind 4.0 maxsamp 727.194 bciddiff 2( = 43-41 (11,47) 0.0
959997952 EMBA layer 1 eta 0.28750002 phi 1.4204662 maxsampind 4.0 maxsamp 731.404 bciddiff 2( = 43-41 (12,47) 0.0
960055296 EMBA layer 2 eta 0.2125 phi 1.4204662 maxsampind 4.0 maxsamp 750.165 bciddiff 2( = 43-41 (9,47) 0.0
960056320 EMBA layer 2 eta 0.2375 phi 1.4204662 maxsampind 4.0 maxsamp 771.84 bciddiff 2( = 43-41 (10,47) 0.0
960057344 EMBA layer 2 eta 0.2625 phi 1.4204662 maxsampind 4.0 maxsamp 757.049 bciddiff 2( = 43-41 (11,47) 0.0
960058368 EMBA layer 2 eta 0.2875 phi 1.4204662 maxsampind 4.0 maxsamp 751.928 bciddiff 2( = 43-41 (12,47) 0.0
960107520 EMBA layer 3 eta 0.25 phi 1.4204662 maxsampind 4.0 maxsamp 2193.112 bciddiff 2( = 43-41 (3,47) 0.0
959973888 EMBA layer 0 eta 0.25 phi 1.518641 maxsampind 4.0 maxsamp 72.8 bciddiff 2( = 43-41 (3,48) 0.0
959995392 EMBA layer 1 eta 0.2125 phi 1.518641 maxsampind 4.0 maxsamp 728.439 bciddiff 2( = 43-41 (9,48) 0.0
959996416 EMBA layer 1 eta 0.2375 phi 1.518641 maxsampind 4.0 maxsamp 727.412 bciddiff 2( = 43-41 (10,48) 0.0
959997440 EMBA layer 1 eta 0.2625 phi 1.518641 maxsampind 4.0 maxsamp 734.408 bciddiff 2( = 43-41 (11,48) 0.0
959998464 EMBA layer 1 eta 0.28750002 phi 1.518641 maxsampind 4.0 maxsamp 724.925 bciddiff 2( = 43-41 (12,48) 0.0
960055808 EMBA layer 2 eta 0.2125 phi 1.518641 maxsampind 4.0 maxsamp 761.296 bciddiff 2( = 43-41 (9,48) 0.0
960056832 EMBA layer 2 eta 0.2375 phi 1.518641 maxsampind 4.0 maxsamp 753.89 bciddiff 2( = 43-41 (10,48) 0.0
960057856 EMBA layer 2 eta 0.2625 phi 1.518641 maxsampind 4.0 maxsamp 741.111 bciddiff 2( = 43-41 (11,48) 0.0
960058880 EMBA layer 2 eta 0.2875 phi 1.518641 maxsampind 4.0 maxsamp 768.379 bciddiff 2( = 43-41 (12,48) 0.0
960108032 EMBA layer 3 eta 0.25 phi 1.518641 maxsampind 4.0 maxsamp 2194.222 bciddiff 2( = 43-41 (3,48) 0.0
959972352 EMBA layer 0 eta 0.15 phi 1.4204662 maxsampind 4.0 maxsamp 70.851 bciddiff 2( = 43-41 (2,47) 0.0
959990784 EMBA layer 1 eta 0.1125 phi 1.4204662 maxsampind 4.0 maxsamp 743.804 bciddiff 2( = 43-41 (5,47) 0.0
959991808 EMBA layer 1 eta 0.1375 phi 1.4204662 maxsampind 4.0 maxsamp 735.641 bciddiff 2( = 43-41 (6,47) 0.0
959992832 EMBA layer 1 eta 0.1625 phi 1.4204662 maxsampind 4.0 maxsamp 763.097 bciddiff 2( = 43-41 (7,47) 0.0
959993856 EMBA layer 1 eta 0.1875 phi 1.4204662 maxsampind 4.0 maxsamp 753.365 bciddiff 2( = 43-41 (8,47) 0.0
960051200 EMBA layer 2 eta 0.1125 phi 1.4204662 maxsampind 4.0 maxsamp 780.259 bciddiff 2( = 43-41 (5,47) 0.0
960052224 EMBA layer 2 eta 0.1375 phi 1.4204662 maxsampind 4.0 maxsamp 765.402 bciddiff 2( = 43-41 (6,47) 0.0
960053248 EMBA layer 2 eta 0.1625 phi 1.4204662 maxsampind 4.0 maxsamp 790.317 bciddiff 2( = 43-41 (7,47) 0.0
960054272 EMBA layer 2 eta 0.1875 phi 1.4204662 maxsampind 4.0 maxsamp 774.673 bciddiff 2( = 43-41 (8,47) 0.0
960106496 EMBA layer 3 eta 0.15 phi 1.4204662 maxsampind 4.0 maxsamp 2145.286 bciddiff 2( = 43-41 (2,47) 0.0
959972864 EMBA layer 0 eta 0.15 phi 1.518641 maxsampind 4.0 maxsamp 71.467 bciddiff 2( = 43-41 (2,48) 0.0
959991296 EMBA layer 1 eta 0.1125 phi 1.518641 maxsampind 4.0 maxsamp 756.587 bciddiff 2( = 43-41 (5,48) 0.0
959992320 EMBA layer 1 eta 0.1375 phi 1.518641 maxsampind 4.0 maxsamp 741.737 bciddiff 2( = 43-41 (6,48) 0.0
959993344 EMBA layer 1 eta 0.1625 phi 1.518641 maxsampind 4.0 maxsamp 736.356 bciddiff 2( = 43-41 (7,48) 0.0
959994368 EMBA layer 1 eta 0.1875 phi 1.518641 maxsampind 4.0 maxsamp 735.348 bciddiff 2( = 43-41 (8,48) 0.0
960051712 EMBA layer 2 eta 0.1125 phi 1.518641 maxsampind 4.0 maxsamp 753.446 bciddiff 2( = 43-41 (5,48) 0.0
960052736 EMBA layer 2 eta 0.1375 phi 1.518641 maxsampind 4.0 maxsamp 801.927 bciddiff 2( = 43-41 (6,48) 0.0
960053760 EMBA layer 2 eta 0.1625 phi 1.518641 maxsampind 4.0 maxsamp 795.059 bciddiff 2( = 43-41 (7,48) 0.0
960054784 EMBA layer 2 eta 0.1875 phi 1.518641 maxsampind 4.0 maxsamp 802.235 bciddiff 2( = 43-41 (8,48) 0.0
960107008 EMBA layer 3 eta 0.15 phi 1.518641 maxsampind 4.0 maxsamp 2255.964 bciddiff 2( = 43-41 (2,48) 0.0
959976448 EMBA layer 0 eta 0.54999995 phi 1.4204662 maxsampind 4.0 maxsamp 67.567 bciddiff 2( = 43-41 (6,47) 0.0
960007168 EMBA layer 1 eta 0.5125 phi 1.4204662 maxsampind 4.0 maxsamp 746.784 bciddiff 2( = 43-41 (21,47) 0.0
960008192 EMBA layer 1 eta 0.5375 phi 1.4204662 maxsampind 4.0 maxsamp 731.652 bciddiff 2( = 43-41 (22,47) 0.0
960009216 EMBA layer 1 eta 0.5625 phi 1.4204662 maxsampind 4.0 maxsamp 807.776 bciddiff 2( = 43-41 (23,47) 0.0
960010240 EMBA layer 1 eta 0.5875 phi 1.4204662 maxsampind 4.0 maxsamp 731.777 bciddiff 2( = 43-41 (24,47) 0.0
960067584 EMBA layer 2 eta 0.5125 phi 1.4204662 maxsampind 4.0 maxsamp 752.893 bciddiff 2( = 43-41 (21,47) 0.0
960068608 EMBA layer 2 eta 0.5375 phi 1.4204662 maxsampind 4.0 maxsamp 774.634 bciddiff 2( = 43-41 (22,47) 0.0
960069632 EMBA layer 2 eta 0.5625 phi 1.4204662 maxsampind 4.0 maxsamp 750.013 bciddiff 2( = 43-41 (23,47) 0.0
960070656 EMBA layer 2 eta 0.5875 phi 1.4204662 maxsampind 4.0 maxsamp 753.023 bciddiff 2( = 43-41 (24,47) 0.0
960110592 EMBA layer 3 eta 0.54999995 phi 1.4204662 maxsampind 4.0 maxsamp 2000.129 bciddiff 2( = 43-41 (6,47) 0.0
959976960 EMBA layer 0 eta 0.54999995 phi 1.518641 maxsampind 4.0 maxsamp 68.245 bciddiff 2( = 43-41 (6,48) 0.0
960007680 EMBA layer 1 eta 0.5125 phi 1.518641 maxsampind 4.0 maxsamp 754.922 bciddiff 2( = 43-41 (21,48) 0.0
960008704 EMBA layer 1 eta 0.5375 phi 1.518641 maxsampind 4.0 maxsamp 753.234 bciddiff 2( = 43-41 (22,48) 0.0
960009728 EMBA layer 1 eta 0.5625 phi 1.518641 maxsampind 4.0 maxsamp 761.602 bciddiff 2( = 43-41 (23,48) 0.0
960010752 EMBA layer 1 eta 0.5875 phi 1.518641 maxsampind 4.0 maxsamp 754.324 bciddiff 2( = 43-41 (24,48) 0.0
960068096 EMBA layer 2 eta 0.5125 phi 1.518641 maxsampind 4.0 maxsamp 721.126 bciddiff 2( = 43-41 (21,48) 0.0
960069120 EMBA layer 2 eta 0.5375 phi 1.518641 maxsampind 4.0 maxsamp 752.692 bciddiff 2( = 43-41 (22,48) 0.0
960070144 EMBA layer 2 eta 0.5625 phi 1.518641 maxsampind 4.0 maxsamp 753.911 bciddiff 2( = 43-41 (23,48) 0.0
960071168 EMBA layer 2 eta 0.5875 phi 1.518641 maxsampind 4.0 maxsamp 738.367 bciddiff 2( = 43-41 (24,48) 0.0
960111104 EMBA layer 3 eta 0.54999995 phi 1.518641 maxsampind 4.0 maxsamp 2026.68 bciddiff 2( = 43-41 (6,48) 0.0
959974400 EMBA layer 0 eta 0.35 phi 1.4204662 maxsampind 4.0 maxsamp 71.799 bciddiff 2( = 43-41 (4,47) 0.0
959998976 EMBA layer 1 eta 0.3125 phi 1.4204662 maxsampind 4.0 maxsamp 758.02 bciddiff 2( = 43-41 (13,47) 0.0
960000000 EMBA layer 1 eta 0.33749998 phi 1.4204662 maxsampind 4.0 maxsamp 765.106 bciddiff 2( = 43-41 (14,47) 0.0
960001024 EMBA layer 1 eta 0.3625 phi 1.4204662 maxsampind 4.0 maxsamp 752.674 bciddiff 2( = 43-41 (15,47) 0.0
960002048 EMBA layer 1 eta 0.3875 phi 1.4204662 maxsampind 4.0 maxsamp 758.274 bciddiff 2( = 43-41 (16,47) 0.0
960059392 EMBA layer 2 eta 0.3125 phi 1.4204662 maxsampind 4.0 maxsamp 731.454 bciddiff 2( = 43-41 (13,47) 0.0
960060416 EMBA layer 2 eta 0.3375 phi 1.4204662 maxsampind 4.0 maxsamp 747.425 bciddiff 2( = 43-41 (14,47) 0.0
960061440 EMBA layer 2 eta 0.3625 phi 1.4204662 maxsampind 4.0 maxsamp 765.236 bciddiff 2( = 43-41 (15,47) 0.0
960062464 EMBA layer 2 eta 0.3875 phi 1.4204662 maxsampind 4.0 maxsamp 728.794 bciddiff 2( = 43-41 (16,47) 0.0
960108544 EMBA layer 3 eta 0.35 phi 1.4204662 maxsampind 4.0 maxsamp 2186.889 bciddiff 2( = 43-41 (4,47) 0.0
959974912 EMBA layer 0 eta 0.35 phi 1.518641 maxsampind 4.0 maxsamp 73.097 bciddiff 2( = 43-41 (4,48) 0.0
959999488 EMBA layer 1 eta 0.3125 phi 1.518641 maxsampind 4.0 maxsamp 764.165 bciddiff 2( = 43-41 (13,48) 0.0
960000512 EMBA layer 1 eta 0.33749998 phi 1.518641 maxsampind 4.0 maxsamp 776.088 bciddiff 2( = 43-41 (14,48) 0.0
960001536 EMBA layer 1 eta 0.3625 phi 1.518641 maxsampind 4.0 maxsamp 765.096 bciddiff 2( = 43-41 (15,48) 0.0
960002560 EMBA layer 1 eta 0.3875 phi 1.518641 maxsampind 4.0 maxsamp 769.561 bciddiff 2( = 43-41 (16,48) 0.0
960059904 EMBA layer 2 eta 0.3125 phi 1.518641 maxsampind 4.0 maxsamp 776.853 bciddiff 2( = 43-41 (13,48) 0.0
960060928 EMBA layer 2 eta 0.3375 phi 1.518641 maxsampind 4.0 maxsamp 779.084 bciddiff 2( = 43-41 (14,48) 0.0
960061952 EMBA layer 2 eta 0.3625 phi 1.518641 maxsampind 4.0 maxsamp 787.264 bciddiff 2( = 43-41 (15,48) 0.0
960062976 EMBA layer 2 eta 0.3875 phi 1.518641 maxsampind 4.0 maxsamp 772.698 bciddiff 2( = 43-41 (16,48) 0.0
960109056 EMBA layer 3 eta 0.35 phi 1.518641 maxsampind 4.0 maxsamp 2201.563 bciddiff 2( = 43-41 (4,48) 0.0
959453184 EMBA layer 0 eta 0.65 phi 1.2241167 maxsampind 4.0 maxsamp 62.024 bciddiff 2( = 43-41 (7,45) 0.0
959486976 EMBA layer 1 eta 0.6125 phi 1.2241167 maxsampind 4.0 maxsamp 734.173 bciddiff 2( = 43-41 (25,45) 0.0
959488000 EMBA layer 1 eta 0.6375 phi 1.2241167 maxsampind 4.0 maxsamp 747.761 bciddiff 2( = 43-41 (26,45) 0.0
959489024 EMBA layer 1 eta 0.6625 phi 1.2241167 maxsampind 4.0 maxsamp 736.256 bciddiff 2( = 43-41 (27,45) 0.0
959490048 EMBA layer 1 eta 0.6875 phi 1.2241167 maxsampind 4.0 maxsamp 734.667 bciddiff 2( = 43-41 (28,45) 0.0
959547392 EMBA layer 2 eta 0.6125 phi 1.2241167 maxsampind 4.0 maxsamp 726.367 bciddiff 2( = 43-41 (25,45) 0.0
959548416 EMBA layer 2 eta 0.6375 phi 1.2241167 maxsampind 4.0 maxsamp 709.085 bciddiff 2( = 43-41 (26,45) 0.0
959549440 EMBA layer 2 eta 0.6625 phi 1.2241167 maxsampind 4.0 maxsamp 762.608 bciddiff 2( = 43-41 (27,45) 0.0
959550464 EMBA layer 2 eta 0.6875 phi 1.2241167 maxsampind 4.0 maxsamp 760.759 bciddiff 2( = 43-41 (28,45) 0.0
959587328 EMBA layer 3 eta 0.65 phi 1.2241167 maxsampind 4.0 maxsamp 1710.372 bciddiff 2( = 43-41 (7,45) 0.0
959453696 EMBA layer 0 eta 0.65 phi 1.3222915 maxsampind 4.0 maxsamp 64.154 bciddiff 2( = 43-41 (7,46) 0.0
959487488 EMBA layer 1 eta 0.6125 phi 1.3222915 maxsampind 4.0 maxsamp 705.089 bciddiff 2( = 43-41 (25,46) 0.0
959488512 EMBA layer 1 eta 0.6375 phi 1.3222915 maxsampind 4.0 maxsamp 703.354 bciddiff 2( = 43-41 (26,46) 0.0
959489536 EMBA layer 1 eta 0.6625 phi 1.3222915 maxsampind 4.0 maxsamp 690.143 bciddiff 2( = 43-41 (27,46) 0.0
959490560 EMBA layer 1 eta 0.6875 phi 1.3222915 maxsampind 4.0 maxsamp 707.196 bciddiff 2( = 43-41 (28,46) 0.0
959547904 EMBA layer 2 eta 0.6125 phi 1.3222914 maxsampind 4.0 maxsamp 745.314 bciddiff 2( = 43-41 (25,46) 0.0
959548928 EMBA layer 2 eta 0.6375 phi 1.3222914 maxsampind 4.0 maxsamp 790.602 bciddiff 2( = 43-41 (26,46) 0.0
959549952 EMBA layer 2 eta 0.6625 phi 1.3222914 maxsampind 4.0 maxsamp 793.015 bciddiff 2( = 43-41 (27,46) 0.0
959550976 EMBA layer 2 eta 0.6875 phi 1.3222914 maxsampind 4.0 maxsamp 792.189 bciddiff 2( = 43-41 (28,46) 0.0
959587840 EMBA layer 3 eta 0.65 phi 1.3222914 maxsampind 4.0 maxsamp 1724.394 bciddiff 2( = 43-41 (7,46) 0.0
959977472 EMBA layer 0 eta 0.65 phi 1.4204662 maxsampind 4.0 maxsamp 69.065 bciddiff 2( = 43-41 (7,47) 0.0
960011264 EMBA layer 1 eta 0.6125 phi 1.4204662 maxsampind 4.0 maxsamp 739.373 bciddiff 2( = 43-41 (25,47) 0.0
960012288 EMBA layer 1 eta 0.6375 phi 1.4204662 maxsampind 4.0 maxsamp 735.268 bciddiff 2( = 43-41 (26,47) 0.0
960013312 EMBA layer 1 eta 0.6625 phi 1.4204662 maxsampind 4.0 maxsamp 740.144 bciddiff 2( = 43-41 (27,47) 0.0
960014336 EMBA layer 1 eta 0.6875 phi 1.4204662 maxsampind 4.0 maxsamp 735.244 bciddiff 2( = 43-41 (28,47) 0.0
960071680 EMBA layer 2 eta 0.6125 phi 1.4204662 maxsampind 4.0 maxsamp 804.806 bciddiff 2( = 43-41 (25,47) 0.0
960072704 EMBA layer 2 eta 0.6375 phi 1.4204662 maxsampind 4.0 maxsamp 787.197 bciddiff 2( = 43-41 (26,47) 0.0
960073728 EMBA layer 2 eta 0.6625 phi 1.4204662 maxsampind 4.0 maxsamp 802.021 bciddiff 2( = 43-41 (27,47) 0.0
960074752 EMBA layer 2 eta 0.6875 phi 1.4204662 maxsampind 4.0 maxsamp 789.068 bciddiff 2( = 43-41 (28,47) 0.0
960111616 EMBA layer 3 eta 0.65 phi 1.4204662 maxsampind 4.0 maxsamp 1821.565 bciddiff 2( = 43-41 (7,47) 0.0
959977984 EMBA layer 0 eta 0.65 phi 1.518641 maxsampind 4.0 maxsamp 67.935 bciddiff 2( = 43-41 (7,48) 0.0
960011776 EMBA layer 1 eta 0.6125 phi 1.518641 maxsampind 4.0 maxsamp 728.84 bciddiff 2( = 43-41 (25,48) 0.0
960012800 EMBA layer 1 eta 0.6375 phi 1.518641 maxsampind 4.0 maxsamp 736.962 bciddiff 2( = 43-41 (26,48) 0.0
960013824 EMBA layer 1 eta 0.6625 phi 1.518641 maxsampind 4.0 maxsamp 728.547 bciddiff 2( = 43-41 (27,48) 0.0
960014848 EMBA layer 1 eta 0.6875 phi 1.518641 maxsampind 4.0 maxsamp 745.625 bciddiff 2( = 43-41 (28,48) 0.0
960072192 EMBA layer 2 eta 0.6125 phi 1.518641 maxsampind 4.0 maxsamp 741.173 bciddiff 2( = 43-41 (25,48) 0.0
960073216 EMBA layer 2 eta 0.6375 phi 1.518641 maxsampind 4.0 maxsamp 773.8 bciddiff 2( = 43-41 (26,48) 0.0
960074240 EMBA layer 2 eta 0.6625 phi 1.518641 maxsampind 4.0 maxsamp 762.13 bciddiff 2( = 43-41 (27,48) 0.0
960075264 EMBA layer 2 eta 0.6875 phi 1.518641 maxsampind 4.0 maxsamp 766.213 bciddiff 2( = 43-41 (28,48) 0.0
960112128 EMBA layer 3 eta 0.65 phi 1.518641 maxsampind 4.0 maxsamp 1900.976 bciddiff 2( = 43-41 (7,48) 0.0
959454208 EMBA layer 0 eta 0.75 phi 1.2241167 maxsampind 4.0 maxsamp 61.06 bciddiff 2( = 43-41 (8,45) 0.0
959491072 EMBA layer 1 eta 0.7125 phi 1.2241167 maxsampind 4.0 maxsamp 731.263 bciddiff 2( = 43-41 (29,45) 0.0
959492096 EMBA layer 1 eta 0.7375 phi 1.2241167 maxsampind 4.0 maxsamp 725.902 bciddiff 2( = 43-41 (30,45) 0.0
959493120 EMBA layer 1 eta 0.7625 phi 1.2241167 maxsampind 4.0 maxsamp 716.474 bciddiff 2( = 43-41 (31,45) 0.0
959494144 EMBA layer 1 eta 0.7875 phi 1.2241167 maxsampind 4.0 maxsamp 717.481 bciddiff 2( = 43-41 (32,45) 0.0
959551488 EMBA layer 2 eta 0.7125 phi 1.2241167 maxsampind 4.0 maxsamp 746.806 bciddiff 2( = 43-41 (29,45) 0.0
959552512 EMBA layer 2 eta 0.7375 phi 1.2241167 maxsampind 4.0 maxsamp 773.062 bciddiff 2( = 43-41 (30,45) 0.0
959553536 EMBA layer 2 eta 0.7625 phi 1.2241167 maxsampind 4.0 maxsamp 731.771 bciddiff 2( = 43-41 (31,45) 0.0
959554560 EMBA layer 2 eta 0.7875 phi 1.2241167 maxsampind 4.0 maxsamp 732.797 bciddiff 2( = 43-41 (32,45) 0.0
959588352 EMBA layer 3 eta 0.75 phi 1.2241167 maxsampind 4.0 maxsamp 1588.131 bciddiff 2( = 43-41 (8,45) 0.0
959454720 EMBA layer 0 eta 0.75 phi 1.3222915 maxsampind 4.0 maxsamp 59.36 bciddiff 2( = 43-41 (8,46) 0.0
959491584 EMBA layer 1 eta 0.7125 phi 1.3222915 maxsampind 4.0 maxsamp 692.864 bciddiff 2( = 43-41 (29,46) 0.0
959492608 EMBA layer 1 eta 0.7375 phi 1.3222915 maxsampind 4.0 maxsamp 687.924 bciddiff 2( = 43-41 (30,46) 0.0
959493632 EMBA layer 1 eta 0.7625 phi 1.3222915 maxsampind 4.0 maxsamp 706.042 bciddiff 2( = 43-41 (31,46) 0.0
959494656 EMBA layer 1 eta 0.7875 phi 1.3222915 maxsampind 4.0 maxsamp 693.384 bciddiff 2( = 43-41 (32,46) 0.0
959552000 EMBA layer 2 eta 0.7125 phi 1.3222914 maxsampind 4.0 maxsamp 738.053 bciddiff 2( = 43-41 (29,46) 0.0
959553024 EMBA layer 2 eta 0.7375 phi 1.3222914 maxsampind 4.0 maxsamp 731.833 bciddiff 2( = 43-41 (30,46) 0.0
959554048 EMBA layer 2 eta 0.7625 phi 1.3222914 maxsampind 4.0 maxsamp 695.48 bciddiff 2( = 43-41 (31,46) 0.0
959555072 EMBA layer 2 eta 0.7875 phi 1.3222914 maxsampind 4.0 maxsamp 680.939 bciddiff 2( = 43-41 (32,46) 0.0
959588864 EMBA layer 3 eta 0.75 phi 1.3222914 maxsampind 4.0 maxsamp 1641.871 bciddiff 2( = 43-41 (8,46) 0.0
959978496 EMBA layer 0 eta 0.75 phi 1.4204662 maxsampind 4.0 maxsamp 68.218 bciddiff 2( = 43-41 (8,47) 0.0
960015360 EMBA layer 1 eta 0.7125 phi 1.4204662 maxsampind 4.0 maxsamp 763.744 bciddiff 2( = 43-41 (29,47) 0.0
960016384 EMBA layer 1 eta 0.7375 phi 1.4204662 maxsampind 4.0 maxsamp 756.382 bciddiff 2( = 43-41 (30,47) 0.0
960017408 EMBA layer 1 eta 0.7625 phi 1.4204662 maxsampind 4.0 maxsamp 749.425 bciddiff 2( = 43-41 (31,47) 0.0
960018432 EMBA layer 1 eta 0.7875 phi 1.4204662 maxsampind 4.0 maxsamp 732.391 bciddiff 2( = 43-41 (32,47) 0.0
960075776 EMBA layer 2 eta 0.7125 phi 1.4204662 maxsampind 4.0 maxsamp 773.93 bciddiff 2( = 43-41 (29,47) 0.0
960076800 EMBA layer 2 eta 0.7375 phi 1.4204662 maxsampind 4.0 maxsamp 786.839 bciddiff 2( = 43-41 (30,47) 0.0
960077824 EMBA layer 2 eta 0.7625 phi 1.4204662 maxsampind 4.0 maxsamp 771.917 bciddiff 2( = 43-41 (31,47) 0.0
960078848 EMBA layer 2 eta 0.7875 phi 1.4204662 maxsampind 4.0 maxsamp 781.516 bciddiff 2( = 43-41 (32,47) 0.0
960112640 EMBA layer 3 eta 0.75 phi 1.4204662 maxsampind 4.0 maxsamp 1732.926 bciddiff 2( = 43-41 (8,47) 0.0
959979008 EMBA layer 0 eta 0.75 phi 1.518641 maxsampind 4.0 maxsamp 66.57 bciddiff 2( = 43-41 (8,48) 0.0
960015872 EMBA layer 1 eta 0.7125 phi 1.518641 maxsampind 4.0 maxsamp 719.154 bciddiff 2( = 43-41 (29,48) 0.0
960016896 EMBA layer 1 eta 0.7375 phi 1.518641 maxsampind 4.0 maxsamp 731.717 bciddiff 2( = 43-41 (30,48) 0.0
960017920 EMBA layer 1 eta 0.7625 phi 1.518641 maxsampind 4.0 maxsamp 731.937 bciddiff 2( = 43-41 (31,48) 0.0
960018944 EMBA layer 1 eta 0.7875 phi 1.518641 maxsampind 4.0 maxsamp 736.847 bciddiff 2( = 43-41 (32,48) 0.0
960076288 EMBA layer 2 eta 0.7125 phi 1.518641 maxsampind 4.0 maxsamp 737.836 bciddiff 2( = 43-41 (29,48) 0.0
960077312 EMBA layer 2 eta 0.7375 phi 1.518641 maxsampind 4.0 maxsamp 748.191 bciddiff 2( = 43-41 (30,48) 0.0
960078336 EMBA layer 2 eta 0.7625 phi 1.518641 maxsampind 4.0 maxsamp 747.526 bciddiff 2( = 43-41 (31,48) 0.0
960079360 EMBA layer 2 eta 0.7875 phi 1.518641 maxsampind 4.0 maxsamp 765.95 bciddiff 2( = 43-41 (32,48) 0.0
960113152 EMBA layer 3 eta 0.75 phi 1.518641 maxsampind 4.0 maxsamp 1767.138 bciddiff 2( = 43-41 (8,48) 0.0
