Discussed in https://its.cern.ch/jira/browse/ATLLARSWDPQ-1153

** Defect LAR_EMBA_NOISEBURST(INTOLERABLE) **
Affecting 4 LBs: 998, 999, 1508, 1509 (0 recoverable) 
** Defect LAR_EMBC_NOISEBURST(INTOLERABLE) **
Affecting 4 LBs: 841, 842, 998, 999 (0 recoverable) 
** Defect LAR_HECA_NOISEBURST(INTOLERABLE) **
Affecting 262 LBs: 559, 560, 640, 641, 648, 649, 651, 652, 653, 666, 667, 668, 669, 685, 686, 697, 698, 716, 717, 718, 719, 745, 746, 759, 760, 762, 763, 776, 777, 783, 784, 790, 791, 800, 801, 809, 810, 811, 813, 814, 815, 816, 820, 821, 822, 831, 832, 841, 842, 843, 855, 856, 857, 862, 863, 876, 877, 878, 879, 882, 883, 884, 887, 888, 897, 898, 901, 902, 911, 912, 917, 918, 926, 927, 933, 934, 937, 938, 939, 1015, 1016, 1019, 1020, 1033, 1034, 1047, 1048, 1065, 1066, 1069, 1070, 1081, 1082, 1092, 1093, 1102, 1103, 1109, 1110, 1114, 1115, 1123, 1124, 1133, 1134, 1141, 1142, 1160, 1161, 1162, 1176, 1177, 1183, 1184, 1187, 1188, 1202, 1203, 1207, 1208, 1216, 1217, 1218, 1223, 1224, 1228, 1229, 1231, 1232, 1233, 1239, 1240, 1242, 1243, 1257, 1258, 1274, 1275, 1276, 1280, 1281, 1282, 1283, 1300, 1301, 1325, 1326, 1331, 1332, 1363, 1364, 1365, 1366, 1374, 1375, 1379, 1380, 1381, 1382, 1385, 1386, 1389, 1390, 1391, 1392, 1393, 1394, 1411, 1412, 1415, 1416, 1439, 1440, 1442, 1443, 1446, 1447, 1448, 1449, 1456, 1457, 1459, 1460, 1462, 1463, 1464, 1465, 1466, 1467, 1472, 1473, 1488, 1489, 1513, 1514, 1531, 1532, 1534, 1535, 1538, 1539, 1548, 1549, 1559, 1560, 1562, 1563, 1564, 1567, 1568, 1579, 1580, 1584, 1585, 1594, 1595, 1606, 1607, 1622, 1623, 1642, 1643, 1644, 1645, 1672, 1673, 1685, 1686, 1693, 1694, 1695, 1699, 1700, 1720, 1721, 1722, 1723, 1730, 1731, 1732, 1739, 1740, 1743, 1744, 1806, 1807, 1815, 1816, 1829, 1830, 1831, 1832, 1833, 1842, 1843, 1846, 1847, 1848, 1881, 1882, 1917, 1918 (0 recoverable) 
** Defect LAR_HECC_NOISEBURST(INTOLERABLE) **
Affecting 145 LBs: 656, 657, 691, 692, 697, 698, 802, 803, 810, 811, 833, 834, 854, 855, 857, 858, 889, 890, 897, 898, 904, 905, 908, 909, 921, 922, 927, 928, 929, 972, 973, 974, 982, 983, 984, 985, 993, 994, 1020, 1021, 1027, 1028, 1038, 1039, 1086, 1087, 1102, 1103, 1112, 1113, 1114, 1115, 1161, 1162, 1188, 1189, 1192, 1193, 1196, 1197, 1200, 1201, 1202, 1203, 1206, 1207, 1216, 1217, 1222, 1223, 1234, 1235, 1236, 1265, 1266, 1267, 1275, 1276, 1278, 1279, 1294, 1295, 1298, 1299, 1300, 1301, 1332, 1333, 1361, 1362, 1363, 1406, 1407, 1436, 1437, 1438, 1440, 1441, 1478, 1479, 1481, 1482, 1499, 1500, 1503, 1504, 1531, 1532, 1563, 1564, 1577, 1578, 1589, 1590, 1606, 1607, 1618, 1619, 1631, 1632, 1633, 1634, 1642, 1643, 1668, 1669, 1686, 1687, 1688, 1689, 1742, 1743, 1744, 1773, 1774, 1786, 1787, 1811, 1812, 1833, 1834, 1835, 1836, 1888, 1889 (0 recoverable) 
** Defect LAR_EMECA_NOISEBURST(INTOLERABLE) **
Affecting 262 LBs: 559, 560, 640, 641, 648, 649, 651, 652, 653, 666, 667, 668, 669, 685, 686, 697, 698, 716, 717, 718, 719, 745, 746, 759, 760, 762, 763, 776, 777, 783, 784, 790, 791, 800, 801, 809, 810, 811, 813, 814, 815, 816, 820, 821, 822, 831, 832, 841, 842, 843, 855, 856, 857, 862, 863, 876, 877, 878, 879, 882, 883, 884, 887, 888, 897, 898, 901, 902, 911, 912, 917, 918, 926, 927, 933, 934, 937, 938, 939, 1015, 1016, 1019, 1020, 1033, 1034, 1047, 1048, 1065, 1066, 1069, 1070, 1081, 1082, 1092, 1093, 1102, 1103, 1109, 1110, 1114, 1115, 1123, 1124, 1133, 1134, 1141, 1142, 1160, 1161, 1162, 1176, 1177, 1183, 1184, 1187, 1188, 1202, 1203, 1207, 1208, 1216, 1217, 1218, 1223, 1224, 1228, 1229, 1231, 1232, 1233, 1239, 1240, 1242, 1243, 1257, 1258, 1274, 1275, 1276, 1280, 1281, 1282, 1283, 1300, 1301, 1325, 1326, 1331, 1332, 1363, 1364, 1365, 1366, 1374, 1375, 1379, 1380, 1381, 1382, 1385, 1386, 1389, 1390, 1391, 1392, 1393, 1394, 1411, 1412, 1415, 1416, 1439, 1440, 1442, 1443, 1446, 1447, 1448, 1449, 1456, 1457, 1459, 1460, 1462, 1463, 1464, 1465, 1466, 1467, 1472, 1473, 1488, 1489, 1513, 1514, 1531, 1532, 1534, 1535, 1538, 1539, 1548, 1549, 1559, 1560, 1562, 1563, 1564, 1567, 1568, 1579, 1580, 1584, 1585, 1594, 1595, 1606, 1607, 1622, 1623, 1642, 1643, 1644, 1645, 1672, 1673, 1685, 1686, 1693, 1694, 1695, 1699, 1700, 1720, 1721, 1722, 1723, 1730, 1731, 1732, 1739, 1740, 1743, 1744, 1806, 1807, 1815, 1816, 1829, 1830, 1831, 1832, 1833, 1842, 1843, 1846, 1847, 1848, 1881, 1882, 1917, 1918 (0 recoverable) 
** Defect LAR_EMECC_NOISEBURST(INTOLERABLE) **
Affecting 145 LBs: 656, 657, 691, 692, 697, 698, 802, 803, 810, 811, 833, 834, 854, 855, 857, 858, 889, 890, 897, 898, 904, 905, 908, 909, 921, 922, 927, 928, 929, 972, 973, 974, 982, 983, 984, 985, 993, 994, 1020, 1021, 1027, 1028, 1038, 1039, 1086, 1087, 1102, 1103, 1112, 1113, 1114, 1115, 1161, 1162, 1188, 1189, 1192, 1193, 1196, 1197, 1200, 1201, 1202, 1203, 1206, 1207, 1216, 1217, 1222, 1223, 1234, 1235, 1236, 1265, 1266, 1267, 1275, 1276, 1278, 1279, 1294, 1295, 1298, 1299, 1300, 1301, 1332, 1333, 1361, 1362, 1363, 1406, 1407, 1436, 1437, 1438, 1440, 1441, 1478, 1479, 1481, 1482, 1499, 1500, 1503, 1504, 1531, 1532, 1563, 1564, 1577, 1578, 1589, 1590, 1606, 1607, 1618, 1619, 1631, 1632, 1633, 1634, 1642, 1643, 1668, 1669, 1686, 1687, 1688, 1689, 1742, 1743, 1744, 1773, 1774, 1786, 1787, 1811, 1812, 1833, 1834, 1835, 1836, 1888, 1889 (0 recoverable) 
** Defect LAR_FCALA_NOISEBURST(INTOLERABLE) **
Affecting 262 LBs: 559, 560, 640, 641, 648, 649, 651, 652, 653, 666, 667, 668, 669, 685, 686, 697, 698, 716, 717, 718, 719, 745, 746, 759, 760, 762, 763, 776, 777, 783, 784, 790, 791, 800, 801, 809, 810, 811, 813, 814, 815, 816, 820, 821, 822, 831, 832, 841, 842, 843, 855, 856, 857, 862, 863, 876, 877, 878, 879, 882, 883, 884, 887, 888, 897, 898, 901, 902, 911, 912, 917, 918, 926, 927, 933, 934, 937, 938, 939, 1015, 1016, 1019, 1020, 1033, 1034, 1047, 1048, 1065, 1066, 1069, 1070, 1081, 1082, 1092, 1093, 1102, 1103, 1109, 1110, 1114, 1115, 1123, 1124, 1133, 1134, 1141, 1142, 1160, 1161, 1162, 1176, 1177, 1183, 1184, 1187, 1188, 1202, 1203, 1207, 1208, 1216, 1217, 1218, 1223, 1224, 1228, 1229, 1231, 1232, 1233, 1239, 1240, 1242, 1243, 1257, 1258, 1274, 1275, 1276, 1280, 1281, 1282, 1283, 1300, 1301, 1325, 1326, 1331, 1332, 1363, 1364, 1365, 1366, 1374, 1375, 1379, 1380, 1381, 1382, 1385, 1386, 1389, 1390, 1391, 1392, 1393, 1394, 1411, 1412, 1415, 1416, 1439, 1440, 1442, 1443, 1446, 1447, 1448, 1449, 1456, 1457, 1459, 1460, 1462, 1463, 1464, 1465, 1466, 1467, 1472, 1473, 1488, 1489, 1513, 1514, 1531, 1532, 1534, 1535, 1538, 1539, 1548, 1549, 1559, 1560, 1562, 1563, 1564, 1567, 1568, 1579, 1580, 1584, 1585, 1594, 1595, 1606, 1607, 1622, 1623, 1642, 1643, 1644, 1645, 1672, 1673, 1685, 1686, 1693, 1694, 1695, 1699, 1700, 1720, 1721, 1722, 1723, 1730, 1731, 1732, 1739, 1740, 1743, 1744, 1806, 1807, 1815, 1816, 1829, 1830, 1831, 1832, 1833, 1842, 1843, 1846, 1847, 1848, 1881, 1882, 1917, 1918 (0 recoverable) 
** Defect LAR_FCALC_NOISEBURST(INTOLERABLE) **
Affecting 145 LBs: 656, 657, 691, 692, 697, 698, 802, 803, 810, 811, 833, 834, 854, 855, 857, 858, 889, 890, 897, 898, 904, 905, 908, 909, 921, 922, 927, 928, 929, 972, 973, 974, 982, 983, 984, 985, 993, 994, 1020, 1021, 1027, 1028, 1038, 1039, 1086, 1087, 1102, 1103, 1112, 1113, 1114, 1115, 1161, 1162, 1188, 1189, 1192, 1193, 1196, 1197, 1200, 1201, 1202, 1203, 1206, 1207, 1216, 1217, 1222, 1223, 1234, 1235, 1236, 1265, 1266, 1267, 1275, 1276, 1278, 1279, 1294, 1295, 1298, 1299, 1300, 1301, 1332, 1333, 1361, 1362, 1363, 1406, 1407, 1436, 1437, 1438, 1440, 1441, 1478, 1479, 1481, 1482, 1499, 1500, 1503, 1504, 1531, 1532, 1563, 1564, 1577, 1578, 1589, 1590, 1606, 1607, 1618, 1619, 1631, 1632, 1633, 1634, 1642, 1643, 1668, 1669, 1686, 1687, 1688, 1689, 1742, 1743, 1744, 1773, 1774, 1786, 1787, 1811, 1812, 1833, 1834, 1835, 1836, 1888, 1889 (0 recoverable) 
** Defect LAR_DATACORRUPT **
Affecting 4 LBs: 916, 917, 1386, 1387 (4 recoverable) 
