Discussed in https://its.cern.ch/jira/browse/ATLLARSWDPQ-1200

** Defect LAR_EMBA_NOISEBURST **
Affecting 2 LBs: 416, 417 (0 recoverable) 
** Defect LAR_EMBC_NOISEBURST **
Affecting 2 LBs: 416, 417 (0 recoverable) 
** Defect LAR_HECA_SEVNOISEBURST(INTOLERABLE) **
Affecting 2 LBs: 812, 813 (2 recoverable) 
** Defect LAR_HECA_NOISEBURST **
Affecting 224 LBs: 273, 274, 305, 306, 309, 310, 313, 314, 322, 323, 345, 346, 364, 365, 376, 377, 390, 391, 392, 398, 399, 405, 406, 408, 409, 413, 414, 438, 439, 440, 441, 446, 447, 448, 449, 457, 458, 468, 469, 487, 488, 489, 490, 491, 492, 501, 502, 504, 505, 512, 513, 527, 528, 532, 533, 536, 537, 550, 551, 553, 554, 561, 562, 568, 569, 570, 571, 572, 577, 578, 579, 580, 591, 592, 593, 594, 595, 596, 597, 599, 600, 609, 610, 611, 612, 630, 631, 639, 640, 646, 647, 651, 652, 667, 668, 677, 678, 693, 694, 696, 697, 699, 700, 701, 713, 714, 717, 718, 719, 720, 722, 723, 738, 739, 742, 743, 761, 762, 767, 768, 778, 779, 780, 781, 792, 793, 801, 802, 816, 817, 819, 820, 822, 823, 829, 830, 841, 842, 843, 859, 860, 862, 863, 864, 865, 885, 886, 897, 898, 905, 906, 909, 910, 929, 930, 935, 936, 937, 966, 967, 971, 972, 973, 978, 979, 985, 986, 993, 994, 996, 997, 999, 1000, 1008, 1009, 1010, 1025, 1026, 1045, 1046, 1063, 1064, 1065, 1093, 1094, 1120, 1121, 1144, 1145, 1146, 1147, 1148, 1149, 1150, 1212, 1213, 1215, 1216, 1230, 1231, 1240, 1241, 1247, 1248, 1257, 1258, 1264, 1265, 1281, 1282, 1291, 1292, 1294, 1295, 1296, 1297, 1303, 1304, 1316, 1317, 1336, 1337, 1402, 1403 (0 recoverable) 
** Defect LAR_HECC_SEVNOISEBURST(INTOLERABLE) **
Affecting 2 LBs: 816, 817 (2 recoverable) 
** Defect LAR_HECC_NOISEBURST **
Affecting 146 LBs: 269, 270, 300, 301, 333, 334, 345, 346, 353, 354, 362, 363, 371, 372, 373, 381, 382, 386, 387, 416, 417, 428, 429, 440, 441, 462, 463, 492, 493, 512, 513, 515, 516, 547, 548, 549, 553, 554, 555, 561, 562, 576, 577, 589, 590, 611, 612, 626, 627, 639, 640, 641, 642, 644, 645, 647, 648, 654, 655, 663, 664, 665, 666, 714, 715, 730, 731, 738, 739, 746, 747, 755, 756, 771, 772, 794, 795, 822, 823, 835, 836, 837, 838, 853, 854, 857, 858, 873, 874, 891, 892, 911, 912, 930, 931, 934, 935, 940, 941, 958, 959, 964, 965, 1025, 1026, 1035, 1036, 1064, 1065, 1080, 1081, 1117, 1118, 1126, 1127, 1130, 1131, 1133, 1134, 1142, 1143, 1145, 1146, 1160, 1161, 1162, 1166, 1167, 1182, 1183, 1219, 1220, 1238, 1239, 1245, 1246, 1249, 1250, 1261, 1262, 1264, 1265, 1319, 1320, 1343, 1344 (0 recoverable) 
** Defect LAR_EMECA_SEVNOISEBURST(INTOLERABLE) **
Affecting 2 LBs: 812, 813 (2 recoverable) 
** Defect LAR_EMECA_NOISEBURST **
Affecting 224 LBs: 273, 274, 305, 306, 309, 310, 313, 314, 322, 323, 345, 346, 364, 365, 376, 377, 390, 391, 392, 398, 399, 405, 406, 408, 409, 413, 414, 438, 439, 440, 441, 446, 447, 448, 449, 457, 458, 468, 469, 487, 488, 489, 490, 491, 492, 501, 502, 504, 505, 512, 513, 527, 528, 532, 533, 536, 537, 550, 551, 553, 554, 561, 562, 568, 569, 570, 571, 572, 577, 578, 579, 580, 591, 592, 593, 594, 595, 596, 597, 599, 600, 609, 610, 611, 612, 630, 631, 639, 640, 646, 647, 651, 652, 667, 668, 677, 678, 693, 694, 696, 697, 699, 700, 701, 713, 714, 717, 718, 719, 720, 722, 723, 738, 739, 742, 743, 761, 762, 767, 768, 778, 779, 780, 781, 792, 793, 801, 802, 816, 817, 819, 820, 822, 823, 829, 830, 841, 842, 843, 859, 860, 862, 863, 864, 865, 885, 886, 897, 898, 905, 906, 909, 910, 929, 930, 935, 936, 937, 966, 967, 971, 972, 973, 978, 979, 985, 986, 993, 994, 996, 997, 999, 1000, 1008, 1009, 1010, 1025, 1026, 1045, 1046, 1063, 1064, 1065, 1093, 1094, 1120, 1121, 1144, 1145, 1146, 1147, 1148, 1149, 1150, 1212, 1213, 1215, 1216, 1230, 1231, 1240, 1241, 1247, 1248, 1257, 1258, 1264, 1265, 1281, 1282, 1291, 1292, 1294, 1295, 1296, 1297, 1303, 1304, 1316, 1317, 1336, 1337, 1402, 1403 (0 recoverable) 
** Defect LAR_EMECC_SEVNOISEBURST(INTOLERABLE) **
Affecting 2 LBs: 816, 817 (2 recoverable) 
** Defect LAR_EMECC_NOISEBURST **
Affecting 146 LBs: 269, 270, 300, 301, 333, 334, 345, 346, 353, 354, 362, 363, 371, 372, 373, 381, 382, 386, 387, 416, 417, 428, 429, 440, 441, 462, 463, 492, 493, 512, 513, 515, 516, 547, 548, 549, 553, 554, 555, 561, 562, 576, 577, 589, 590, 611, 612, 626, 627, 639, 640, 641, 642, 644, 645, 647, 648, 654, 655, 663, 664, 665, 666, 714, 715, 730, 731, 738, 739, 746, 747, 755, 756, 771, 772, 794, 795, 822, 823, 835, 836, 837, 838, 853, 854, 857, 858, 873, 874, 891, 892, 911, 912, 930, 931, 934, 935, 940, 941, 958, 959, 964, 965, 1025, 1026, 1035, 1036, 1064, 1065, 1080, 1081, 1117, 1118, 1126, 1127, 1130, 1131, 1133, 1134, 1142, 1143, 1145, 1146, 1160, 1161, 1162, 1166, 1167, 1182, 1183, 1219, 1220, 1238, 1239, 1245, 1246, 1249, 1250, 1261, 1262, 1264, 1265, 1319, 1320, 1343, 1344 (0 recoverable) 
** Defect LAR_FCALA_SEVNOISEBURST(INTOLERABLE) **
Affecting 2 LBs: 812, 813 (2 recoverable) 
** Defect LAR_FCALA_NOISEBURST **
Affecting 224 LBs: 273, 274, 305, 306, 309, 310, 313, 314, 322, 323, 345, 346, 364, 365, 376, 377, 390, 391, 392, 398, 399, 405, 406, 408, 409, 413, 414, 438, 439, 440, 441, 446, 447, 448, 449, 457, 458, 468, 469, 487, 488, 489, 490, 491, 492, 501, 502, 504, 505, 512, 513, 527, 528, 532, 533, 536, 537, 550, 551, 553, 554, 561, 562, 568, 569, 570, 571, 572, 577, 578, 579, 580, 591, 592, 593, 594, 595, 596, 597, 599, 600, 609, 610, 611, 612, 630, 631, 639, 640, 646, 647, 651, 652, 667, 668, 677, 678, 693, 694, 696, 697, 699, 700, 701, 713, 714, 717, 718, 719, 720, 722, 723, 738, 739, 742, 743, 761, 762, 767, 768, 778, 779, 780, 781, 792, 793, 801, 802, 816, 817, 819, 820, 822, 823, 829, 830, 841, 842, 843, 859, 860, 862, 863, 864, 865, 885, 886, 897, 898, 905, 906, 909, 910, 929, 930, 935, 936, 937, 966, 967, 971, 972, 973, 978, 979, 985, 986, 993, 994, 996, 997, 999, 1000, 1008, 1009, 1010, 1025, 1026, 1045, 1046, 1063, 1064, 1065, 1093, 1094, 1120, 1121, 1144, 1145, 1146, 1147, 1148, 1149, 1150, 1212, 1213, 1215, 1216, 1230, 1231, 1240, 1241, 1247, 1248, 1257, 1258, 1264, 1265, 1281, 1282, 1291, 1292, 1294, 1295, 1296, 1297, 1303, 1304, 1316, 1317, 1336, 1337, 1402, 1403 (0 recoverable) 
** Defect LAR_FCALC_SEVNOISEBURST(INTOLERABLE) **
Affecting 2 LBs: 816, 817 (2 recoverable) 
** Defect LAR_FCALC_NOISEBURST **
Affecting 146 LBs: 269, 270, 300, 301, 333, 334, 345, 346, 353, 354, 362, 363, 371, 372, 373, 381, 382, 386, 387, 416, 417, 428, 429, 440, 441, 462, 463, 492, 493, 512, 513, 515, 516, 547, 548, 549, 553, 554, 555, 561, 562, 576, 577, 589, 590, 611, 612, 626, 627, 639, 640, 641, 642, 644, 645, 647, 648, 654, 655, 663, 664, 665, 666, 714, 715, 730, 731, 738, 739, 746, 747, 755, 756, 771, 772, 794, 795, 822, 823, 835, 836, 837, 838, 853, 854, 857, 858, 873, 874, 891, 892, 911, 912, 930, 931, 934, 935, 940, 941, 958, 959, 964, 965, 1025, 1026, 1035, 1036, 1064, 1065, 1080, 1081, 1117, 1118, 1126, 1127, 1130, 1131, 1133, 1134, 1142, 1143, 1145, 1146, 1160, 1161, 1162, 1166, 1167, 1182, 1183, 1219, 1220, 1238, 1239, 1245, 1246, 1249, 1250, 1261, 1262, 1264, 1265, 1319, 1320, 1343, 1344 (0 recoverable) 
** Defect LAR_DATACORRUPT(INTOLERABLE) **
Affecting 4 LBs: 717, 718, 890, 891 (4 recoverable) 
