Discussed in https://its.cern.ch/jira/browse/ATLLARSWDPQ-1178

== Noisy cells update for run 453353 (Thu, 1 Jun 2023 19:44:08 +0200) ==
Cluster matching: based on Et > 4/10GeV plots requiring at least 100 events
Flagged cells:174
Flagged in PS:45
Unflagged by DQ shifters:2
Changed to SBN:41
Changed to HNHG:1
SBN:150
SBN in PS:34
HNHG:24
HNHG in PS:11

*****************
The treated cells were:
0 0 0 7 69 0 sporadicBurstNoise  # 0x38034500 -> 0x2d228a3c
0 0 0 7 70 0 sporadicBurstNoise  # 0x38034600 -> 0x2d228c3c
0 0 0 14 38 0 sporadicBurstNoise  # 0x3806a600 -> 0x2d406afa
0 0 0 14 43 0 sporadicBurstNoise  # 0x3806ab00 -> 0x2d406cf8
0 0 5 1 0 0 highNoiseHG  # 0x38280000 -> 0x2d00002a
0 0 5 1 1 0 sporadicBurstNoise  # 0x38280100 -> 0x2d00022a
0 0 5 1 6 0 highNoiseHG  # 0x38280600 -> 0x2d000428
0 0 5 1 60 0 highNoiseHG  # 0x38283c00 -> 0x2d003828
0 0 5 10 102 0 sporadicBurstNoise  # 0x382ce600 -> 0x2d6032a2
0 0 6 1 13 0 sporadicBurstNoise  # 0x38300d00 -> 0x2d000a24
0 0 7 10 41 0 sporadicBurstNoise  # 0x383ca900 -> 0x2d60348c
0 0 7 11 53 0 sporadicBurstNoise  # 0x383d3500 -> 0x2d401a8c
0 0 7 14 36 0 sporadicBurstNoise  # 0x383ea400 -> 0x2d406a8e
0 0 7 14 40 0 highNoiseHG  # 0x383ea800 -> 0x2d406c8e
0 0 7 14 44 0 sporadicBurstNoise  # 0x383eac00 -> 0x2d406e8e
0 0 9 1 4 0 highNoiseHG  # 0x38480400 -> 0x2d000018
0 0 9 1 5 0 sporadicBurstNoise  # 0x38480500 -> 0x2d000218
0 0 9 1 64 0 sporadicBurstNoise  # 0x38484000 -> 0x2d00401a
0 0 9 10 80 0 sporadicBurstNoise  # 0x384cd000 -> 0x2d602866
0 0 9 11 64 0 sporadicBurstNoise  # 0x384d4000 -> 0x2d400066
0 0 9 13 96 0 highNoiseHG  # 0x384e6000 -> 0x2d405066
0 0 9 13 100 0 sporadicBurstNoise  # 0x384e6400 -> 0x2d405266
0 0 11 1 6 0 unflaggedByLADIeS  # 0x38580600 -> 0x2d000410
0 0 11 1 15 0 sporadicBurstNoise  # 0x38580f00 -> 0x2d000e10
0 0 11 1 21 0 sporadicBurstNoise  # 0x38581500 -> 0x2d001210
0 0 11 1 23 0 highNoiseHG  # 0x38581700 -> 0x2d001610
0 0 11 1 28 0 sporadicBurstNoise  # 0x38581c00 -> 0x2d001810
0 0 12 11 75 0 sporadicBurstNoise  # 0x38654b00 -> 0x2d400430
0 0 13 1 23 0 sporadicBurstNoise  # 0x38681700 -> 0x2d001608
0 0 13 1 24 0 sporadicBurstNoise  # 0x38681800 -> 0x2d00180a
0 0 13 1 25 0 sporadicBurstNoise  # 0x38681900 -> 0x2d001a0a
0 0 13 1 28 0 sporadicBurstNoise  # 0x38681c00 -> 0x2d001808
0 0 13 1 29 0 sporadicBurstNoise  # 0x38681d00 -> 0x2d001a08
0 0 13 11 4 0 deadReadout highNoiseHG  # 0x386d0400 -> 0x2d40022e
0 0 14 2 28 0 sporadicBurstNoise  # 0x38709c00 -> 0x2d203806
0 0 14 11 91 0 sporadicBurstNoise  # 0x38755b00 -> 0x2d400c10
0 0 14 12 75 0 sporadicBurstNoise  # 0x3875cb00 -> 0x2d402410
0 0 15 4 93 0 unflaggedByLADIeS  # 0x3879dd00 -> 0x2d213a00
0 0 15 4 94 0 sporadicBurstNoise  # 0x3879de00 -> 0x2d213c00
0 0 15 5 57 0 sporadicBurstNoise  # 0x387a3900 -> 0x2d21f202
0 0 15 5 58 0 sporadicBurstNoise  # 0x387a3a00 -> 0x2d21f402
0 0 15 5 59 0 sporadicBurstNoise  # 0x387a3b00 -> 0x2d21f602
0 0 15 5 60 0 sporadicBurstNoise  # 0x387a3c00 -> 0x2d21f802
0 0 15 5 61 0 sporadicBurstNoise  # 0x387a3d00 -> 0x2d21fa02
0 0 15 5 62 0 sporadicBurstNoise  # 0x387a3e00 -> 0x2d21fc02
0 0 15 5 63 0 sporadicBurstNoise  # 0x387a3f00 -> 0x2d21fe02
0 0 15 12 72 0 sporadicBurstNoise  # 0x387dc800 -> 0x2d402406
0 0 15 13 13 0 sporadicBurstNoise  # 0x387e0d00 -> 0x2d40460c
0 0 15 14 18 0 sporadicBurstNoise  # 0x387e9200 -> 0x2d406002
0 0 15 14 36 0 sporadicBurstNoise  # 0x387ea400 -> 0x2d406a0e
0 0 15 14 40 0 sporadicBurstNoise  # 0x387ea800 -> 0x2d406c0e
0 0 15 14 44 0 sporadicBurstNoise  # 0x387eac00 -> 0x2d406e0e
0 0 16 8 40 0 sporadicBurstNoise  # 0x3883a800 -> 0x2d23507e
0 0 16 8 41 0 sporadicBurstNoise  # 0x3883a900 -> 0x2d23527e
0 0 17 7 54 0 sporadicBurstNoise  # 0x388b3600 -> 0x2d22ec7a
0 0 17 7 55 0 sporadicBurstNoise  # 0x388b3700 -> 0x2d22ee7a
0 0 18 1 5 0 sporadicBurstNoise  # 0x38900500 -> 0x2d000274
0 0 21 11 65 0 sporadicBurstNoise  # 0x38ad4100 -> 0x2d4001a4
0 0 22 1 1 0 sporadicBurstNoise  # 0x38b00100 -> 0x2d000266
0 0 22 1 19 0 sporadicBurstNoise  # 0x38b01300 -> 0x2d001666
0 0 23 1 5 0 highNoiseHG  # 0x38b80500 -> 0x2d000260
0 0 23 1 6 0 sporadicBurstNoise  # 0x38b80600 -> 0x2d000460
0 0 23 2 5 0 sporadicBurstNoise  # 0x38b88500 -> 0x2d200a62
0 0 23 2 6 0 sporadicBurstNoise  # 0x38b88600 -> 0x2d200c62
0 0 23 14 35 0 sporadicBurstNoise  # 0x38bea300 -> 0x2d406988
0 0 24 14 10 0 sporadicBurstNoise  # 0x38c68a00 -> 0x2d40657a
0 0 25 1 22 0 sporadicBurstNoise  # 0x38c81600 -> 0x2d001458
0 0 25 1 24 0 sporadicBurstNoise  # 0x38c81800 -> 0x2d00185a
0 0 25 1 29 0 sporadicBurstNoise  # 0x38c81d00 -> 0x2d001a58
0 0 25 1 31 0 sporadicBurstNoise  # 0x38c81f00 -> 0x2d001e58
0 0 25 1 64 0 highNoiseHG  # 0x38c84000 -> 0x2d00405a
0 0 25 2 5 0 sporadicBurstNoise  # 0x38c88500 -> 0x2d200a5a
0 0 25 2 6 0 sporadicBurstNoise  # 0x38c88600 -> 0x2d200c5a
0 0 25 4 16 0 sporadicBurstNoise  # 0x38c99000 -> 0x2d21205a
0 0 25 12 15 0 sporadicBurstNoise  # 0x38cd8f00 -> 0x2d402768
0 0 25 14 14 0 sporadicBurstNoise  # 0x38ce8e00 -> 0x2d40676a
0 0 26 14 52 0 highNoiseHG  # 0x38d6b400 -> 0x2d406b56
0 0 26 14 55 0 sporadicBurstNoise  # 0x38d6b700 -> 0x2d406b50
0 0 26 14 56 0 sporadicBurstNoise  # 0x38d6b800 -> 0x2d406d56
0 0 26 14 59 0 sporadicBurstNoise  # 0x38d6bb00 -> 0x2d406d50
0 0 26 14 60 0 sporadicBurstNoise  # 0x38d6bc00 -> 0x2d406f56
0 0 26 14 61 0 highNoiseHG  # 0x38d6bd00 -> 0x2d406f54
0 0 26 14 62 0 sporadicBurstNoise  # 0x38d6be00 -> 0x2d406f52
0 0 26 14 63 0 sporadicBurstNoise  # 0x38d6bf00 -> 0x2d406f50
0 0 27 12 50 0 sporadicBurstNoise  # 0x38ddb200 -> 0x2d40394a
0 0 28 1 14 0 highNoiseHG  # 0x38e00e00 -> 0x2d000c4c
0 0 28 1 15 0 sporadicBurstNoise  # 0x38e00f00 -> 0x2d000e4c
0 0 29 14 18 0 sporadicBurstNoise  # 0x38ee9200 -> 0x2d406122
0 0 30 1 5 0 sporadicBurstNoise  # 0x38f00500 -> 0x2d000244
0 0 30 1 6 0 highNoiseHG  # 0x38f00600 -> 0x2d000444
0 0 30 1 15 0 sporadicBurstNoise  # 0x38f00f00 -> 0x2d000e44
0 1 0 11 27 0 sporadicBurstNoise  # 0x39051b00 -> 0x2dc00c06
0 1 3 1 65 0 sporadicBurstNoise  # 0x39184100 -> 0x2d80420c
0 1 5 1 65 0 sporadicBurstNoise  # 0x39284100 -> 0x2d804214
0 1 5 1 66 0 sporadicBurstNoise  # 0x39284200 -> 0x2d804414
0 1 5 14 27 0 sporadicBurstNoise  # 0x392e9b00 -> 0x2dc0645e
0 1 6 12 64 0 sporadicBurstNoise  # 0x3935c000 -> 0x2dc02068
0 1 8 1 70 0 highNoiseHG  # 0x39404600 -> 0x2d804422
0 1 8 1 71 0 sporadicBurstNoise  # 0x39404700 -> 0x2d804622
0 1 8 11 89 0 sporadicBurstNoise  # 0x39455900 -> 0x2dc00c8a
0 1 11 1 2 0 sporadicBurstNoise  # 0x39580200 -> 0x2d80042c
0 1 11 1 15 0 sporadicBurstNoise  # 0x39580f00 -> 0x2d800e2e
0 1 13 12 65 0 sporadicBurstNoise  # 0x396dc100 -> 0x2dc020da
0 1 13 12 69 0 sporadicBurstNoise  # 0x396dc500 -> 0x2dc022da
0 1 13 13 102 0 sporadicBurstNoise  # 0x396e6600 -> 0x2dc052dc
0 1 14 13 22 0 sporadicBurstNoise  # 0x39761600 -> 0x2dc04ae4
0 1 16 1 43 0 sporadicBurstNoise  # 0x39802b00 -> 0x2d802e40
0 1 16 1 48 0 highNoiseHG  # 0x39803000 -> 0x2d803040
0 1 16 6 96 0 sporadicBurstNoise  # 0x3982e000 -> 0x2da24042
0 1 16 6 97 0 sporadicBurstNoise  # 0x3982e100 -> 0x2da24242
0 1 16 6 98 0 sporadicBurstNoise  # 0x3982e200 -> 0x2da24442
0 1 16 6 99 0 sporadicBurstNoise  # 0x3982e300 -> 0x2da24642
0 1 16 6 101 0 sporadicBurstNoise  # 0x3982e500 -> 0x2da24a42
0 1 16 11 93 0 sporadicBurstNoise  # 0x39855d00 -> 0x2dc00f0a
0 1 16 11 125 0 sporadicBurstNoise  # 0x39857d00 -> 0x2dc01f0a
0 1 17 1 36 0 sporadicBurstNoise  # 0x39882400 -> 0x2d802046
0 1 17 1 40 0 sporadicBurstNoise  # 0x39882800 -> 0x2d802844
0 1 18 12 76 0 sporadicBurstNoise  # 0x3995cc00 -> 0x2dc02728
0 1 21 1 3 0 sporadicBurstNoise  # 0x39a80300 -> 0x2d800654
0 1 21 3 9 0 sporadicBurstNoise  # 0x39a90900 -> 0x2da09254
0 1 21 3 10 0 sporadicBurstNoise  # 0x39a90a00 -> 0x2da09454
0 1 21 3 11 0 sporadicBurstNoise  # 0x39a90b00 -> 0x2da09654
0 1 21 3 12 0 sporadicBurstNoise  # 0x39a90c00 -> 0x2da09854
0 1 21 11 10 0 sporadicBurstNoise  # 0x39ad0a00 -> 0x2dc00554
0 1 24 11 55 0 sporadicBurstNoise  # 0x39c53700 -> 0x2dc01b86
0 1 25 13 55 0 sporadicBurstNoise  # 0x39ce3700 -> 0x2dc05b96
0 1 26 11 36 0 sporadicBurstNoise  # 0x39d52400 -> 0x2dc013a0
0 1 26 11 65 0 sporadicBurstNoise  # 0x39d54100 -> 0x2dc001aa
0 1 27 1 14 0 sporadicBurstNoise  # 0x39d80e00 -> 0x2d800c6e
0 1 28 3 68 0 sporadicBurstNoise  # 0x39e14400 -> 0x2da08872
0 1 28 3 69 0 sporadicBurstNoise  # 0x39e14500 -> 0x2da08a72
0 1 28 3 70 0 sporadicBurstNoise  # 0x39e14600 -> 0x2da08c72
0 1 28 3 71 0 sporadicBurstNoise  # 0x39e14700 -> 0x2da08e72
0 1 28 12 6 0 sporadicBurstNoise  # 0x39e58600 -> 0x2dc023c4
0 1 28 12 10 0 sporadicBurstNoise  # 0x39e58a00 -> 0x2dc025c4
1 0 2 2 84 0 highNoiseHG  # 0x3a10d400 -> 0x2ca00024
1 0 5 2 33 0 sporadicBurstNoise  # 0x3a28a100 -> 0x2ca84224
1 0 5 2 34 0 sporadicBurstNoise  # 0x3a28a200 -> 0x2ca84424
1 0 5 2 35 0 sporadicBurstNoise  # 0x3a28a300 -> 0x2ca84624
1 0 10 8 78 0 highNoiseHG  # 0x3a53ce00 -> 0x31100000
1 0 10 8 122 0 highNoiseHG  # 0x3a53fa00 -> 0x311c1000
1 0 11 8 12 0 sporadicBurstNoise  # 0x3a5b8c00 -> 0x2ce00636
1 0 13 11 63 0 sporadicBurstNoise  # 0x3a6d3f00 -> 0x2cc425e0
1 0 13 11 115 0 sporadicBurstNoise  # 0x3a6d7300 -> 0x2cc427e0
1 0 19 10 105 0 sporadicBurstNoise  # 0x3a9ce900 -> 0x2cc41b6c
1 0 21 3 41 0 sporadicBurstNoise  # 0x3aa92900 -> 0x2cc4036c
1 0 21 13 123 0 sporadicBurstNoise  # 0x3aae7b00 -> 0x2ce02500
1 0 21 13 127 0 sporadicBurstNoise  # 0x3aae7f00 -> 0x2ce02700
1 0 21 15 115 0 sporadicBurstNoise  # 0x3aaf7300 -> 0x2cc44f00
1 0 21 15 119 0 sporadicBurstNoise  # 0x3aaf7700 -> 0x2cc45100
1 0 21 15 123 0 sporadicBurstNoise  # 0x3aaf7b00 -> 0x2cc45300
1 1 5 10 33 0 sporadicBurstNoise  # 0x3b2ca100 -> 0x2e440e72
1 1 5 10 35 0 sporadicBurstNoise  # 0x3b2ca300 -> 0x2e440e76
1 1 5 10 40 0 sporadicBurstNoise  # 0x3b2ca800 -> 0x2e441270
1 1 5 10 42 0 sporadicBurstNoise  # 0x3b2caa00 -> 0x2e441274
1 1 5 10 49 0 sporadicBurstNoise  # 0x3b2cb100 -> 0x2e440e7a
1 1 5 10 51 0 sporadicBurstNoise  # 0x3b2cb300 -> 0x2e440e7e
1 1 5 10 56 0 sporadicBurstNoise  # 0x3b2cb800 -> 0x2e441278
1 1 5 10 58 0 sporadicBurstNoise  # 0x3b2cba00 -> 0x2e44127c
1 1 9 4 76 0 sporadicBurstNoise  # 0x3b49cc00 -> 0x2e4404e0
1 1 10 6 42 0 highNoiseHG  # 0x3b52aa00 -> 0x3309a000
1 1 12 4 15 0 sporadicBurstNoise  # 0x3b618f00 -> 0x2e2c1e38
1 1 13 9 17 0 sporadicBurstNoise  # 0x3b6c1100 -> 0x2e601512
1 1 13 11 109 0 sporadicBurstNoise  # 0x3b6d6d00 -> 0x2e442d12
1 1 13 12 31 0 sporadicBurstNoise  # 0x3b6d9f00 -> 0x2e44350e
1 1 13 12 32 0 highNoiseHG  # 0x3b6da000 -> 0x2e442f10
1 1 13 12 33 0 sporadicBurstNoise  # 0x3b6da100 -> 0x2e442f12
1 1 13 12 34 0 sporadicBurstNoise  # 0x3b6da200 -> 0x2e442f14
1 1 13 12 35 0 highNoiseHG  # 0x3b6da300 -> 0x2e442f16
1 1 13 12 37 0 sporadicBurstNoise  # 0x3b6da500 -> 0x2e443112
1 1 13 12 41 0 highNoiseHG  # 0x3b6da900 -> 0x2e443312
1 1 21 2 80 0 sporadicBurstNoise  # 0x3ba8d000 -> 0x2e200078
1 1 21 4 65 0 sporadicBurstNoise  # 0x3ba9c100 -> 0x2e4001e2
1 1 21 4 66 0 sporadicBurstNoise  # 0x3ba9c200 -> 0x2e4001e4
1 1 21 4 69 0 sporadicBurstNoise  # 0x3ba9c500 -> 0x2e4401e2
1 1 22 2 88 0 highNoiseHG  # 0x3bb0d800 -> 0x2ec00c70

