Discussed in https://its.cern.ch/jira/browse/ATLLARSWDPQ-1107

== Noisy cells update for run 451140 (Thu, 11 May 2023 21:11:19 +0200) ==
Tool version:WebDisplayExtractor-07-01-02 / Stream:physics_CosmicCalo / Source:tier0 / Processing version:3 (x739_h418)
Cluster matching: based on Et &gt; 4/10GeV plots requiring at least 400 events</p>
Flagged cells:194
Flagged in PS:46
Unflagged by DQ shifters:1
SBN:149
SBN in PS:29
HNHG:45
HNHG in PS:17

*****************
The treated cells were:
1 0 10 8 94 0 highNoiseHG # 0x3a53de00
1 0 10 8 78 0 highNoiseHG # 0x3a53ce00
0 0 17 10 20 0 sporadicBurstNoise # 0x388c9400
0 0 17 10 21 0 highNoiseHG # 0x388c9500
1 0 5 7 103 0 sporadicBurstNoise # 0x3a2b6700
1 0 5 7 102 0 sporadicBurstNoise # 0x3a2b6600
1 0 5 7 104 0 sporadicBurstNoise # 0x3a2b6800
0 1 16 12 44 0 sporadicBurstNoise # 0x3985ac00
0 1 16 1 48 0 highNoiseHG # 0x39803000
0 1 16 1 43 0 sporadicBurstNoise reflaggedByLADIeS # 0x39802b00
0 1 21 5 102 0 sporadicBurstNoise # 0x39aa6600
0 1 21 5 101 0 sporadicBurstNoise # 0x39aa6500
0 1 21 5 103 0 sporadicBurstNoise # 0x39aa6700
0 0 25 2 5 0 sporadicBurstNoise # 0x38c88500
0 0 25 2 6 0 sporadicBurstNoise # 0x38c88600
0 1 23 2 1 0 sporadicBurstNoise # 0x39b88100
0 1 23 2 2 0 sporadicBurstNoise # 0x39b88200
0 1 23 2 3 0 sporadicBurstNoise # 0x39b88300
0 0 24 8 11 0 sporadicBurstNoise # 0x38c38b00
0 0 24 8 12 0 sporadicBurstNoise # 0x38c38c00
0 0 24 8 13 0 sporadicBurstNoise # 0x38c38d00
0 0 30 1 13 0 highNoiseHG # 0x38f00d00
1 1 12 4 15 0 sporadicBurstNoise # 0x3b618f00
1 1 12 4 14 0 sporadicBurstNoise # 0x3b618e00
1 1 12 4 16 0 sporadicBurstNoise # 0x3b619000
0 1 3 8 28 0 sporadicBurstNoise # 0x391b9c00
0 1 3 8 29 0 sporadicBurstNoise # 0x391b9d00
0 1 3 8 27 0 sporadicBurstNoise # 0x391b9b00
0 1 3 8 30 0 sporadicBurstNoise # 0x391b9e00
0 0 9 1 4 0 highNoiseHG # 0x38480400
0 0 9 1 5 0 sporadicBurstNoise # 0x38480500
0 0 15 14 40 0 sporadicBurstNoise # 0x387ea800
0 0 15 14 36 0 sporadicBurstNoise # 0x387ea400
0 0 11 11 69 0 sporadicBurstNoise # 0x385d4500
0 1 20 11 73 0 sporadicBurstNoise # 0x39a54900
0 1 8 10 48 0 sporadicBurstNoise # 0x3944b000
1 1 9 4 16 0 sporadicBurstNoise # 0x3b499000
1 0 21 13 123 0 sporadicBurstNoise # 0x3aae7b00
1 0 21 15 115 0 sporadicBurstNoise # 0x3aaf7300
0 0 23 2 6 0 sporadicBurstNoise # 0x38b88600
0 1 24 1 91 0 sporadicBurstNoise # 0x39c05b00
0 1 24 1 90 0 sporadicBurstNoise # 0x39c05a00
0 0 17 2 12 0 highNoiseHG # 0x38888c00
0 1 21 3 10 0 sporadicBurstNoise # 0x39a90a00
0 1 21 3 11 0 sporadicBurstNoise # 0x39a90b00
0 1 21 3 12 0 sporadicBurstNoise # 0x39a90c00
1 1 13 12 33 0 sporadicBurstNoise # 0x3b6da100
0 0 18 1 5 0 sporadicBurstNoise # 0x38900500
0 0 25 12 15 0 sporadicBurstNoise # 0x38cd8f00
0 0 25 1 24 0 sporadicBurstNoise # 0x38c81800
0 0 23 14 35 0 sporadicBurstNoise # 0x38bea300
0 0 5 1 6 0 sporadicBurstNoise # 0x38280600
0 0 5 1 0 0 highNoiseHG # 0x38280000
0 1 21 13 59 0 sporadicBurstNoise # 0x39ae3b00
0 1 8 1 70 0 highNoiseHG # 0x39404600
0 1 24 11 55 0 sporadicBurstNoise # 0x39c53700
0 1 5 14 27 0 sporadicBurstNoise # 0x392e9b00
0 0 1 2 41 0 sporadicBurstNoise # 0x3808a900
1 0 19 10 105 0 sporadicBurstNoise # 0x3a9ce900
0 0 15 5 62 0 sporadicBurstNoise # 0x387a3e00
0 0 15 5 63 0 sporadicBurstNoise # 0x387a3f00
1 0 6 1 65 0 highNoiseHG # 0x3a304100
1 0 6 1 69 0 highNoiseHG # 0x3a304500
1 0 6 1 72 0 highNoiseHG # 0x3a304800
0 0 13 1 35 0 sporadicBurstNoise # 0x38682300
0 0 13 1 28 0 sporadicBurstNoise # 0x38681c00
0 1 7 2 4 0 sporadicBurstNoise # 0x39388400
0 1 7 2 5 0 sporadicBurstNoise # 0x39388500
0 1 7 2 3 0 sporadicBurstNoise # 0x39388300
1 1 9 2 68 0 sporadicBurstNoise # 0x3b48c400
1 1 9 4 17 0 sporadicBurstNoise # 0x3b499100
1 1 9 4 20 0 sporadicBurstNoise # 0x3b499400
1 1 9 4 24 0 sporadicBurstNoise # 0x3b499800
1 1 9 4 21 0 sporadicBurstNoise # 0x3b499500
0 0 22 7 2 0 sporadicBurstNoise # 0x38b30200
0 0 22 7 1 0 sporadicBurstNoise # 0x38b30100
0 0 22 7 3 0 sporadicBurstNoise # 0x38b30300
1 1 10 6 42 0 highNoiseHG # 0x3b52aa00
1 0 20 1 11 0 highNoiseHG # 0x3aa00b00
0 0 1 13 121 0 sporadicBurstNoise # 0x380e7900
0 1 18 12 76 0 sporadicBurstNoise # 0x3995cc00
0 0 17 7 54 0 sporadicBurstNoise # 0x388b3600
0 0 17 7 55 0 sporadicBurstNoise # 0x388b3700
0 1 16 6 98 0 sporadicBurstNoise # 0x3982e200
0 1 16 6 99 0 sporadicBurstNoise # 0x3982e300
0 1 16 6 97 0 sporadicBurstNoise # 0x3982e100
0 1 16 13 83 0 sporadicBurstNoise # 0x39865300
0 1 16 6 101 0 sporadicBurstNoise # 0x3982e500
1 1 9 13 31 0 sporadicBurstNoise # 0x3b4e1f00
1 1 9 14 63 0 sporadicBurstNoise # 0x3b4ebf00
1 1 9 13 30 0 sporadicBurstNoise # 0x3b4e1e00
1 1 9 14 59 0 sporadicBurstNoise # 0x3b4ebb00
1 0 11 8 12 0 sporadicBurstNoise # 0x3a5b8c00
1 0 6 1 1 0 highNoiseHG # 0x3a300100
0 0 12 11 75 0 sporadicBurstNoise # 0x38654b00
0 0 13 11 4 0 highNoiseHG # 0x386d0400
1 0 6 1 67 0 highNoiseHG # 0x3a304300
1 0 6 1 71 0 highNoiseHG # 0x3a304700
1 0 6 1 73 0 highNoiseHG # 0x3a304900
1 0 6 1 64 0 highNoiseHG # 0x3a304000
1 0 6 1 91 0 highNoiseHG # 0x3a305b00
1 0 6 1 75 0 highNoiseHG # 0x3a304b00
1 0 6 1 78 0 highNoiseHG # 0x3a304e00
0 0 10 13 67 0 sporadicBurstNoise # 0x38564300
1 0 3 6 111 0 highNoiseHG # 0x3a1aef00
0 1 5 1 72 0 sporadicBurstNoise # 0x39284800
0 1 16 6 96 0 sporadicBurstNoise # 0x3982e000
0 0 11 1 23 0 sporadicBurstNoise # 0x38581700
1 0 6 1 89 0 highNoiseHG # 0x3a305900
1 0 6 1 95 0 highNoiseHG # 0x3a305f00
1 0 6 1 87 0 highNoiseHG # 0x3a305700
1 0 6 1 93 0 highNoiseHG # 0x3a305d00
0 0 30 1 6 0 highNoiseHG # 0x38f00600
0 0 30 1 5 0 sporadicBurstNoise # 0x38f00500
0 1 13 13 102 0 sporadicBurstNoise # 0x396e6600
0 0 14 2 28 0 sporadicBurstNoise # 0x38709c00
0 1 3 10 95 0 sporadicBurstNoise # 0x391cdf00
0 1 3 10 94 0 sporadicBurstNoise # 0x391cde00
0 1 3 10 97 0 sporadicBurstNoise # 0x391ce100
0 1 3 10 93 0 sporadicBurstNoise # 0x391cdd00
0 1 3 13 127 0 sporadicBurstNoise # 0x391e7f00
1 0 3 6 17 0 highNoiseHG # 0x3a1a9100
0 0 7 14 8 0 sporadicBurstNoise # 0x383e8800
0 0 5 10 102 0 sporadicBurstNoise # 0x382ce600
0 0 5 10 103 0 highNoiseHG # 0x382ce700
0 0 7 14 4 0 sporadicBurstNoise # 0x383e8400
0 1 8 11 89 0 sporadicBurstNoise # 0x39455900
1 1 21 4 116 0 sporadicBurstNoise # 0x3ba9f400
0 0 26 1 59 0 sporadicBurstNoise # 0x38d03b00
0 0 23 1 63 0 sporadicBurstNoise # 0x38b83f00
0 0 5 1 5 0 highNoiseHG # 0x38280500
0 0 5 1 1 0 sporadicBurstNoise # 0x38280100
0 1 1 8 64 0 sporadicBurstNoise # 0x390bc000
0 1 1 8 65 0 sporadicBurstNoise # 0x390bc100
0 1 9 1 21 0 sporadicBurstNoise # 0x39481500
0 0 14 12 86 0 sporadicBurstNoise # 0x3875d600
0 1 28 12 6 0 sporadicBurstNoise # 0x39e58600
0 0 15 12 72 0 sporadicBurstNoise # 0x387dc800
0 0 23 2 5 0 sporadicBurstNoise # 0x38b88500
0 0 22 1 1 0 sporadicBurstNoise # 0x38b00100
0 1 25 1 7 0 sporadicBurstNoise # 0x39c80700
0 0 21 11 65 0 sporadicBurstNoise # 0x38ad4100
1 0 21 2 16 0 highNoiseHG # 0x3aa89000
1 0 21 2 4 0 highNoiseHG # 0x3aa88400
1 0 21 1 16 0 highNoiseHG # 0x3aa81000
0 1 14 13 22 0 sporadicBurstNoise # 0x39761600
0 1 0 11 27 0 sporadicBurstNoise # 0x39051b00
0 1 7 1 43 0 sporadicBurstNoise # 0x39382b00
0 1 6 12 64 0 sporadicBurstNoise # 0x3935c000
1 1 21 4 65 0 sporadicBurstNoise # 0x3ba9c100
0 1 11 1 15 0 sporadicBurstNoise # 0x39580f00
0 0 25 1 22 0 sporadicBurstNoise # 0x38c81600
0 0 25 1 31 0 sporadicBurstNoise # 0x38c81f00
0 0 26 1 19 0 sporadicBurstNoise # 0x38d01300
1 0 5 1 19 0 highNoiseHG # 0x3a281300
1 0 5 1 11 0 highNoiseHG # 0x3a280b00
1 0 5 1 27 0 highNoiseHG # 0x3a281b00
1 0 5 1 25 0 highNoiseHG # 0x3a281900
1 0 5 1 1 0 highNoiseHG # 0x3a280100
1 0 5 1 17 0 highNoiseHG # 0x3a281100
1 0 5 2 34 0 sporadicBurstNoise # 0x3a28a200
1 0 5 2 33 0 sporadicBurstNoise # 0x3a28a100
0 0 15 13 88 0 sporadicBurstNoise # 0x387e5800
0 1 8 1 71 0 sporadicBurstNoise # 0x39404700
0 0 15 14 44 0 sporadicBurstNoise # 0x387eac00
1 1 24 10 51 0 highNoiseHG reflaggedByLADIeS # 0x3bc4b300
1 0 21 2 8 0 &nbsp;unflaggedByLADIeS # 0x3aa88800
1 0 21 3 41 0 sporadicBurstNoise # 0x3aa92900
0 0 15 4 94 0 sporadicBurstNoise # 0x3879de00
0 0 15 4 93 0 sporadicBurstNoise # 0x3879dd00
0 0 15 13 84 0 sporadicBurstNoise # 0x387e5400
0 1 3 1 65 0 sporadicBurstNoise # 0x39184100
0 0 16 8 41 0 sporadicBurstNoise # 0x3883a900
0 0 15 5 61 0 sporadicBurstNoise # 0x387a3d00
0 0 15 5 60 0 sporadicBurstNoise # 0x387a3c00
0 0 15 5 57 0 sporadicBurstNoise # 0x387a3900
0 0 15 5 59 0 sporadicBurstNoise # 0x387a3b00
1 1 15 2 28 0 sporadicBurstNoise # 0x3b789c00
0 0 17 2 13 0 sporadicBurstNoise # 0x38888d00
0 0 17 2 11 0 sporadicBurstNoise # 0x38888b00
0 1 30 1 2 0 sporadicBurstNoise # 0x39f00200
0 1 12 14 52 0 sporadicBurstNoise # 0x3966b400
0 1 12 1 116 0 sporadicBurstNoise # 0x39607400
0 0 25 1 64 0 highNoiseHG # 0x38c84000
1 1 9 14 62 0 sporadicBurstNoise # 0x3b4ebe00
1 1 9 13 27 0 sporadicBurstNoise # 0x3b4e1b00
1 1 9 14 55 0 sporadicBurstNoise # 0x3b4eb700
1 1 9 14 58 0 sporadicBurstNoise # 0x3b4eba00
1 1 9 14 54 0 sporadicBurstNoise # 0x3b4eb600
1 1 9 13 26 0 sporadicBurstNoise # 0x3b4e1a00
0 1 17 1 40 0 sporadicBurstNoise # 0x39882800
0 0 28 1 14 0 highNoiseHG # 0x38e00e00
0 0 28 1 15 0 sporadicBurstNoise # 0x38e00f00
0 0 31 14 47 0 sporadicBurstNoise # 0x38feaf00
0 1 23 5 82 0 highNoiseHG # 0x39ba5200

