Discussed in https://its.cern.ch/jira/browse/ATLLARSWDPQ-1104

** Defect LAR_HECC_NOISEBURST(INTOLERABLE) **
Affecting 2 LBs: 323, 324 (0 recoverable) 
** Defect LAR_EMECC_SEVNOISYCHANNEL **
Affecting 4 LBs: 223, 224, 275, 276 (0 recoverable) 
** Defect LAR_EMECC_NOISEBURST(INTOLERABLE) **
Affecting 2 LBs: 323, 324 (0 recoverable) 
** Defect LAR_FCALC_NOISEBURST(INTOLERABLE) **
Affecting 2 LBs: 323, 324 (0 recoverable) 
** Defect LAR_DATACORRUPT **
Affecting 151 LBs: 217, 218, 219, 220, 221, 222, 223, 224, 225, 226, 227, 228, 229, 230, 231, 232, 233, 234, 235, 236, 237, 238, 239, 240, 241, 242, 243, 244, 245, 246, 247, 248, 249, 250, 251, 252, 253, 254, 255, 256, 257, 258, 259, 260, 261, 262, 263, 264, 265, 266, 267, 268, 269, 270, 271, 272, 273, 274, 275, 276, 277, 278, 279, 280, 281, 282, 283, 284, 285, 286, 287, 288, 289, 290, 291, 292, 293, 294, 295, 296, 297, 298, 299, 300, 301, 302, 303, 304, 305, 306, 307, 308, 309, 310, 311, 312, 313, 314, 315, 316, 317, 318, 319, 320, 321, 322, 323, 324, 325, 326, 327, 328, 329, 330, 331, 332, 333, 334, 335, 336, 337, 338, 339, 340, 341, 342, 343, 344, 345, 346, 347, 348, 349, 350, 351, 352, 353, 354, 355, 356, 357, 358, 359, 360, 361, 362, 363, 364, 365, 366, 367 (0 recoverable) 
