0 0 0 1 187 0 problematicForUnknownReason  # 0x38017600 -> 0x2d40263f
0 0 0 1 190 0 problematicForUnknownReason  # 0x38017c00 -> 0x2d402a3d
0 0 0 1 282 0 maskedOSUM problematicForUnknownReason  # 0x38023400 -> 0x2d60143d
0 0 2 1 246 0 problematicForUnknownReason  # 0x3811ec00 -> 0x2d406235
0 0 4 1 210 0 problematicForUnknownReason  # 0x3821a400 -> 0x2d403e2d
0 0 4 1 245 0 deadReadout problematicForUnknownReason  # 0x3821ea00 -> 0x2d40602f
0 0 5 1 244 0 problematicForUnknownReason  # 0x3829e800 -> 0x2d406029
0 0 5 1 253 0 problematicForUnknownReason  # 0x3829fa00 -> 0x2d40682b
0 0 7 1 222 0 NonLinearRamp  # 0x3839bc00 -> 0x2d404a21
0 0 8 1 209 0 problematicForUnknownReason  # 0x3841a200 -> 0x2d403c1f
0 0 8 1 252 0 problematicForUnknownReason  # 0x3841f800 -> 0x2d40681d
0 0 8 1 266 0 maskedOSUM  # 0x38421400 -> 0x2d60041d
0 0 8 1 267 0 maskedOSUM  # 0x38421600 -> 0x2d60041f
0 0 9 1 181 0 highNoise problematicForUnknownReason  # 0x38496a00 -> 0x2d40201b
0 0 9 1 184 0 problematicForUnknownReason  # 0x38497000 -> 0x2d402419
0 0 10 1 206 0 maskedOSUM problematicForUnknownReason  # 0x38519c00 -> 0x2d403a15
0 0 10 1 260 0 problematicForUnknownReason  # 0x38520800 -> 0x2d440015
0 0 10 1 261 0 maskedOSUM OffAmplitude  # 0x38520a00 -> 0x2d440017
0 0 11 1 245 0 problematicForUnknownReason  # 0x3859ea00 -> 0x2d406013
0 0 13 1 201 0 problematicForUnknownReason  # 0x38699200 -> 0x2d40340b
0 0 14 1 286 0 problematicForUnknownReason  # 0x38723c00 -> 0x2d601805
0 0 15 1 176 0 problematicForUnknownReason  # 0x38796000 -> 0x2d401c01
0 0 16 1 182 0 maskedOSUM OffAmplitude  # 0x38816c00 -> 0x2d40227d
0 0 16 1 186 0 maskedOSUM OffAmplitude  # 0x38817400 -> 0x2d40267d
0 0 16 1 188 0 problematicForUnknownReason  # 0x38817800 -> 0x2d40287d
0 0 16 1 190 0 maskedOSUM OffAmplitude  # 0x38817c00 -> 0x2d402a7d
0 0 16 1 194 0 maskedOSUM OffAmplitude  # 0x38818400 -> 0x2d402e7d
0 0 16 1 196 0 problematicForUnknownReason  # 0x38818800 -> 0x2d40307d
0 0 16 1 198 0 problematicForUnknownReason  # 0x38818c00 -> 0x2d40327d
0 0 16 1 217 0 problematicForUnknownReason  # 0x3881b200 -> 0x2d40447f
0 0 17 1 33 0 problematicForUnknownReason  # 0x38884200 -> 0x2d20027b
0 0 17 1 221 0 problematicForUnknownReason  # 0x3889ba00 -> 0x2d40487b
0 0 17 1 230 0 problematicForUnknownReason  # 0x3889cc00 -> 0x2d405279
0 0 17 1 244 0 problematicForUnknownReason  # 0x3889e800 -> 0x2d406079
0 0 18 1 169 0 problematicForUnknownReason  # 0x38915200 -> 0x2d401477
0 0 18 1 171 0 problematicForUnknownReason  # 0x38915600 -> 0x2d401677
0 0 18 1 175 0 problematicForUnknownReason  # 0x38915e00 -> 0x2d401a77
0 0 18 1 177 0 problematicForUnknownReason  # 0x38916200 -> 0x2d401c77
0 0 18 1 190 0 problematicForUnknownReason  # 0x38917c00 -> 0x2d402a75
0 0 18 1 253 0 problematicForUnknownReason  # 0x3891fa00 -> 0x2d406877
0 0 19 1 165 0 NonLinearRamp  # 0x38994a00 -> 0x2d401073
0 0 19 1 167 0 maskedOSUM NonLinearRamp  # 0x38994e00 -> 0x2d401273
0 0 19 1 182 0 problematicForUnknownReason  # 0x38996c00 -> 0x2d402271
0 0 19 1 286 0 problematicForUnknownReason  # 0x389a3c00 -> 0x2d601871
0 0 22 1 50 0 problematicForUnknownReason  # 0x38b06400 -> 0x2d201465
0 0 22 1 168 0 OffAmplitude  # 0x38b15000 -> 0x2d401465
0 0 22 1 228 0 OffAmplitude  # 0x38b1c800 -> 0x2d405065
0 0 22 1 257 0 problematicForUnknownReason  # 0x38b20200 -> 0x2d406c67
0 0 23 1 96 0 maskedOSUM  # 0x38b8c000 -> 0x2d204261
0 0 23 1 176 0 problematicForUnknownReason  # 0x38b96000 -> 0x2d401c61
0 0 23 1 184 0 lowNoise problematicForUnknownReason DeformedPulse  # 0x38b97000 -> 0x2d402461
0 0 24 1 165 0 problematicForUnknownReason  # 0x38c14a00 -> 0x2d40105f
0 0 24 1 214 0 problematicForUnknownReason  # 0x38c1ac00 -> 0x2d40425d
0 0 24 1 287 0 problematicForUnknownReason  # 0x38c23e00 -> 0x2d60185f
0 0 25 1 191 0 problematicForUnknownReason  # 0x38c97e00 -> 0x2d402a5b
0 0 25 1 221 0 problematicForUnknownReason  # 0x38c9ba00 -> 0x2d40485b
0 0 25 1 250 0 problematicForUnknownReason  # 0x38c9f400 -> 0x2d406659
0 0 26 1 148 0 problematicForUnknownReason  # 0x38d12800 -> 0x2d400055
0 0 26 1 221 0 problematicForUnknownReason  # 0x38d1ba00 -> 0x2d404857
0 0 28 1 211 0 OffOFCs  # 0x38e1a600 -> 0x2d403e4f
0 0 28 1 248 0 OffAmplitude  # 0x38e1f000 -> 0x2d40644d
0 0 28 1 282 0 problematicForUnknownReason  # 0x38e23400 -> 0x2d60144d
0 0 29 1 152 0 problematicForUnknownReason  # 0x38e93000 -> 0x2d400449
0 0 30 1 12 0 problematicForUnknownReason  # 0x38f01800 -> 0x2d000c45
0 0 30 1 14 0 problematicForUnknownReason  # 0x38f01c00 -> 0x2d000e45
0 0 30 1 16 0 problematicForUnknownReason  # 0x38f02000 -> 0x2d001045
0 0 30 1 18 0 problematicForUnknownReason  # 0x38f02400 -> 0x2d001245
0 0 30 1 186 0 problematicForUnknownReason  # 0x38f17400 -> 0x2d402645
0 0 30 1 190 0 problematicForUnknownReason  # 0x38f17c00 -> 0x2d402a45
0 0 30 1 200 0 problematicForUnknownReason  # 0x38f19000 -> 0x2d403445
0 0 30 1 241 0 problematicForUnknownReason  # 0x38f1e200 -> 0x2d405c47
0 0 31 1 5 0 problematicForUnknownReason  # 0x38f80a00 -> 0x2d000443
0 0 31 1 12 0 problematicForUnknownReason  # 0x38f81800 -> 0x2d000c41
0 0 31 1 13 0 problematicForUnknownReason  # 0x38f81a00 -> 0x2d000c43
0 0 31 1 14 0 problematicForUnknownReason  # 0x38f81c00 -> 0x2d000e41
0 0 31 1 88 0 problematicForUnknownReason  # 0x38f8b000 -> 0x2d203a41
0 0 31 1 90 0 problematicForUnknownReason  # 0x38f8b400 -> 0x2d203c41
0 0 31 1 92 0 problematicForUnknownReason  # 0x38f8b800 -> 0x2d203e41
0 0 31 1 244 0 OffAmplitude  # 0x38f9e800 -> 0x2d406041
0 0 31 1 245 0 OffAmplitude  # 0x38f9ea00 -> 0x2d406043
0 0 31 1 248 0 problematicForUnknownReason  # 0x38f9f000 -> 0x2d406441
0 0 31 1 249 0 OffAmplitude  # 0x38f9f200 -> 0x2d406443
0 1 0 1 90 0 problematicForUnknownReason  # 0x3900b400 -> 0x2da03c01
0 1 0 1 208 0 lowNoise problematicForUnknownReason  # 0x3901a000 -> 0x2dc03c01
0 1 0 1 238 0 problematicForUnknownReason  # 0x3901dc00 -> 0x2dc05a01
0 1 0 1 246 0 problematicForUnknownReason  # 0x3901ec00 -> 0x2dc06201
0 1 1 1 249 0 problematicForUnknownReason  # 0x3909f200 -> 0x2dc06407
0 1 2 1 52 0 maskedOSUM  # 0x39106800 -> 0x2da01609
0 1 2 1 224 0 problematicForUnknownReason  # 0x3911c000 -> 0x2dc04c09
0 1 4 1 84 0 problematicForUnknownReason  # 0x3920a800 -> 0x2da03611
0 1 5 1 258 0 problematicForUnknownReason  # 0x392a0400 -> 0x2dc06e15
0 1 6 1 4 0 maskedOSUM  # 0x39300800 -> 0x2d800419
0 1 6 1 31 0 problematicForUnknownReason  # 0x39303e00 -> 0x2da0001b
0 1 6 1 52 0 maskedOSUM  # 0x39306800 -> 0x2da01619
0 1 6 1 149 0 problematicForUnknownReason  # 0x39312a00 -> 0x2dc0001b
0 1 7 1 165 0 problematicForUnknownReason  # 0x39394a00 -> 0x2dc0101f
0 1 8 1 175 0 problematicForUnknownReason  # 0x39415e00 -> 0x2dc01a23
0 1 11 1 196 0 problematicForUnknownReason  # 0x39598800 -> 0x2dc0302d
0 1 11 1 217 0 problematicForUnknownReason  # 0x3959b200 -> 0x2dc0442f
0 1 11 1 246 0 OffAmplitude  # 0x3959ec00 -> 0x2dc0622d
0 1 12 1 3 0 maskedOSUM OffAmplitude  # 0x39600600 -> 0x2d800233
0 1 12 1 18 0 maskedOSUM OffAmplitude  # 0x39602400 -> 0x2d801231
0 1 13 1 148 0 problematicForUnknownReason  # 0x39692800 -> 0x2dc00035
0 1 13 1 183 0 problematicForUnknownReason  # 0x39696e00 -> 0x2dc02237
0 1 13 1 248 0 problematicForUnknownReason  # 0x3969f000 -> 0x2dc06435
0 1 14 1 52 0 maskedOSUM  # 0x39706800 -> 0x2da01639
0 1 15 1 251 0 problematicForUnknownReason  # 0x3979f600 -> 0x2dc0663f
0 1 15 1 270 0 problematicForUnknownReason  # 0x397a1c00 -> 0x2de0083d
0 1 15 1 271 0 maskedOSUM problematicForUnknownReason  # 0x397a1e00 -> 0x2de0083f
0 1 15 1 272 0 problematicForUnknownReason  # 0x397a2000 -> 0x2de00a3d
0 1 15 1 273 0 problematicForUnknownReason  # 0x397a2200 -> 0x2de00a3f
0 1 15 1 274 0 problematicForUnknownReason  # 0x397a2400 -> 0x2de00c3d
0 1 15 1 275 0 problematicForUnknownReason  # 0x397a2600 -> 0x2de00c3f
0 1 16 1 221 0 lowNoise problematicForUnknownReason  # 0x3981ba00 -> 0x2dc04843
0 1 17 1 181 0 problematicForUnknownReason  # 0x39896a00 -> 0x2dc02047
0 1 18 1 212 0 problematicForUnknownReason  # 0x3991a800 -> 0x2dc04049
0 1 18 1 233 0 problematicForUnknownReason  # 0x3991d200 -> 0x2dc0544b
0 1 19 1 158 0 problematicForUnknownReason  # 0x39993c00 -> 0x2dc00a4d
0 1 19 1 211 0 problematicForUnknownReason  # 0x3999a600 -> 0x2dc03e4f
0 1 21 1 145 0 maskedOSUM OffAmplitude  # 0x39a92200 -> 0x2da40257
0 1 21 1 147 0 maskedOSUM OffAmplitude  # 0x39a92600 -> 0x2da40457
0 1 21 1 179 0 problematicForUnknownReason  # 0x39a96600 -> 0x2dc01e57
0 1 21 1 261 0 maskedOSUM OffAmplitude  # 0x39aa0a00 -> 0x2dc40057
0 1 22 1 89 0 problematicForUnknownReason  # 0x39b0b200 -> 0x2da03a5b
0 1 22 1 91 0 problematicForUnknownReason  # 0x39b0b600 -> 0x2da03c5b
0 1 22 1 236 0 problematicForUnknownReason  # 0x39b1d800 -> 0x2dc05859
0 1 22 1 243 0 problematicForUnknownReason  # 0x39b1e600 -> 0x2dc05e5b
0 1 22 1 249 0 problematicForUnknownReason  # 0x39b1f200 -> 0x2dc0645b
0 1 22 1 258 0 maskedOSUM OffAmplitude  # 0x39b20400 -> 0x2dc06e59
0 1 23 1 203 0 problematicForUnknownReason  # 0x39b99600 -> 0x2dc0365f
0 1 23 1 247 0 problematicForUnknownReason  # 0x39b9ee00 -> 0x2dc0625f
0 1 24 1 4 0 maskedOSUM  # 0x39c00800 -> 0x2d800461
0 1 24 1 52 0 maskedOSUM  # 0x39c06800 -> 0x2da01661
0 1 24 1 210 0 problematicForUnknownReason  # 0x39c1a400 -> 0x2dc03e61
0 1 25 1 142 0 maskedOSUM OffAmplitude  # 0x39c91c00 -> 0x2da40065
0 1 25 1 260 0 maskedOSUM OffAmplitude  # 0x39ca0800 -> 0x2dc40065
0 1 26 1 68 0 maskedOSUM  # 0x39d08800 -> 0x2da02669
0 1 27 1 75 0 problematicForUnknownReason  # 0x39d89600 -> 0x2da02c6f
0 1 27 1 255 0 problematicForUnknownReason  # 0x39d9fe00 -> 0x2dc06a6f
0 1 28 1 52 0 maskedOSUM  # 0x39e06800 -> 0x2da01671
0 1 28 1 203 0 problematicForUnknownReason  # 0x39e19600 -> 0x2dc03673
0 1 29 1 249 0 problematicForUnknownReason  # 0x39e9f200 -> 0x2dc06477
0 1 30 1 125 0 problematicForUnknownReason  # 0x39f0fa00 -> 0x2da05e7b
0 1 31 1 88 0 problematicForUnknownReason  # 0x39f8b000 -> 0x2da03a7d
0 1 31 1 90 0 problematicForUnknownReason DeformedPulse  # 0x39f8b400 -> 0x2da03c7d
0 1 31 1 257 0 problematicForUnknownReason  # 0x39fa0200 -> 0x2dc06c7f
1 0 0 1 183 0 problematicForUnknownReason  # 0x3a016e00 -> 0x2cc41c3f
1 0 0 1 196 0 problematicForUnknownReason  # 0x3a018800 -> 0x2cc42439
1 0 1 1 160 0 problematicForUnknownReason  # 0x3a094000 -> 0x2cc41231
1 0 1 1 276 0 problematicForUnknownReason  # 0x3a0a2800 -> 0x2cc44c31
1 0 2 1 6 0 OffAmplitude  # 0x3a100c00 -> 0x2c80002d
1 0 2 1 18 0 OffAmplitude  # 0x3a102400 -> 0x2ca00025
1 0 2 1 99 0 maskedOSUM  # 0x3a10c600 -> 0x2cc00027
1 0 2 1 214 0 problematicForUnknownReason  # 0x3a11ac00 -> 0x2cc40c2d
1 0 2 2 0 0 OffAmplitude  # 0x3a140000 -> 0x2c200011
1 0 2 2 1 0 OffAmplitude  # 0x3a140200 -> 0x2c200013
1 0 2 2 4 0 OffAmplitude  # 0x3a140800 -> 0x2c200019
1 0 2 2 6 0 OffAmplitude  # 0x3a140c00 -> 0x2c20001d
1 0 2 2 7 0 OffAmplitude  # 0x3a140e00 -> 0x2c20001f
1 0 2 2 9 0 OffAmplitude  # 0x3a141200 -> 0x2c200213
1 0 2 2 14 0 OffAmplitude  # 0x3a141c00 -> 0x2c20021d
1 0 2 2 19 0 problematicForUnknownReason DeformedPulse  # 0x3a142600 -> 0x2c200417
1 0 2 2 82 0 problematicForUnknownReason  # 0x3a14a400 -> 0x2cc44e25
1 0 2 2 84 0 problematicForUnknownReason  # 0x3a14a800 -> 0x2cc44e29
1 0 2 2 99 0 problematicForUnknownReason  # 0x3a14c600 -> 0x2cc45027
1 0 2 2 100 0 problematicForUnknownReason  # 0x3a14c800 -> 0x2cc45029
1 0 2 2 102 0 problematicForUnknownReason  # 0x3a14cc00 -> 0x2cc4502d
1 0 2 2 107 0 problematicForUnknownReason  # 0x3a14d600 -> 0x2cc45037
1 0 2 2 115 0 problematicForUnknownReason  # 0x3a14e600 -> 0x2cc45227
1 0 2 2 116 0 problematicForUnknownReason  # 0x3a14e800 -> 0x2cc45229
1 0 2 2 117 0 problematicForUnknownReason  # 0x3a14ea00 -> 0x2cc4522b
1 0 2 2 126 0 problematicForUnknownReason  # 0x3a14fc00 -> 0x2cc4523d
1 0 2 2 127 0 problematicForUnknownReason  # 0x3a14fe00 -> 0x2cc4523f
1 0 2 2 130 0 maskedOSUM problematicForUnknownReason  # 0x3a150400 -> 0x2cc45425
1 0 2 2 131 0 problematicForUnknownReason  # 0x3a150600 -> 0x2cc45427
1 0 2 2 142 0 problematicForUnknownReason  # 0x3a151c00 -> 0x2cc4543d
1 0 2 2 143 0 problematicForUnknownReason  # 0x3a151e00 -> 0x2cc4543f
1 0 2 2 148 0 problematicForUnknownReason  # 0x3a152800 -> 0x2ce01229
1 0 3 1 18 0 maskedOSUM problematicForUnknownReason  # 0x3a182400 -> 0x30052800
1 0 3 1 19 0 maskedOSUM problematicForUnknownReason  # 0x3a182600 -> 0x30053800
1 0 3 1 20 0 maskedOSUM problematicForUnknownReason  # 0x3a182800 -> 0x30054800
1 0 3 1 21 0 maskedOSUM problematicForUnknownReason  # 0x3a182a00 -> 0x30055800
1 0 3 1 23 0 maskedOSUM  # 0x3a182e00 -> 0x30057800
1 0 3 1 34 0 problematicForUnknownReason  # 0x3a184400 -> 0x30092800
1 0 3 1 35 0 problematicForUnknownReason  # 0x3a184600 -> 0x30093800
1 0 3 1 36 0 problematicForUnknownReason  # 0x3a184800 -> 0x30094800
1 0 3 1 37 0 maskedOSUM problematicForUnknownReason  # 0x3a184a00 -> 0x30095800
1 0 3 1 51 0 problematicForUnknownReason  # 0x3a186600 -> 0x300d3800
1 0 3 1 61 0 maskedOSUM OffAmplitude  # 0x3a187a00 -> 0x300dd800
1 0 3 1 96 0 problematicForUnknownReason  # 0x3a18c000 -> 0x30190800
1 0 3 1 163 0 problematicForUnknownReason  # 0x3a194600 -> 0x3040b800
1 0 3 1 175 0 problematicForUnknownReason  # 0x3a195e00 -> 0x3044f800
1 0 3 1 181 0 problematicForUnknownReason  # 0x3a196a00 -> 0x3048d800
1 0 3 1 187 0 problematicForUnknownReason  # 0x3a197600 -> 0x304cb800
1 0 3 1 188 0 problematicForUnknownReason  # 0x3a197800 -> 0x304cc800
1 0 4 1 115 0 maskedOSUM OffAmplitude  # 0x3a20e600 -> 0x2cb00c2f
1 0 5 1 218 0 problematicForUnknownReason  # 0x3a29b400 -> 0x2cc42e25
1 0 6 1 31 0 problematicForUnknownReason  # 0x3a303e00 -> 0x3403f000
1 0 6 1 39 0 lowNoise problematicForUnknownReason  # 0x3a304e00 -> 0x3404f000
1 0 6 1 75 0 problematicForUnknownReason  # 0x3a309600 -> 0x34097000
1 0 6 1 84 0 problematicForUnknownReason  # 0x3a30a800 -> 0x340a9000
1 0 6 1 101 0 problematicForUnknownReason  # 0x3a30ca00 -> 0x340cb000
1 0 6 1 107 0 problematicForUnknownReason  # 0x3a30d600 -> 0x340d7000
1 0 6 1 115 0 problematicForUnknownReason  # 0x3a30e600 -> 0x340e7000
1 0 6 1 123 0 problematicForUnknownReason  # 0x3a30f600 -> 0x340f7000
1 0 6 1 128 0 problematicForUnknownReason  # 0x3a310000 -> 0x34101000
1 0 6 1 129 0 problematicForUnknownReason DeformedPulse  # 0x3a310200 -> 0x34103000
1 0 6 1 133 0 problematicForUnknownReason DeformedPulse  # 0x3a310a00 -> 0x3410b000
1 0 6 1 134 0 problematicForUnknownReason  # 0x3a310c00 -> 0x3410d000
1 0 6 1 136 0 problematicForUnknownReason DeformedPulse  # 0x3a311000 -> 0x34111000
1 0 6 1 137 0 problematicForUnknownReason  # 0x3a311200 -> 0x34113000
1 0 6 1 138 0 problematicForUnknownReason DeformedPulse  # 0x3a311400 -> 0x34115000
1 0 6 1 140 0 problematicForUnknownReason  # 0x3a311800 -> 0x34119000
1 0 6 1 141 0 problematicForUnknownReason  # 0x3a311a00 -> 0x3411b000
1 0 6 1 142 0 problematicForUnknownReason  # 0x3a311c00 -> 0x3411d000
1 0 6 1 143 0 problematicForUnknownReason  # 0x3a311e00 -> 0x3411f000
1 0 6 1 145 0 problematicForUnknownReason  # 0x3a312200 -> 0x34123000
1 0 6 1 151 0 problematicForUnknownReason  # 0x3a312e00 -> 0x3412f000
1 0 6 1 155 0 maskedOSUM problematicForUnknownReason  # 0x3a313600 -> 0x34137000
1 0 6 1 156 0 problematicForUnknownReason  # 0x3a313800 -> 0x34139000
1 0 6 1 158 0 problematicForUnknownReason  # 0x3a313c00 -> 0x3413d000
1 0 6 1 159 0 problematicForUnknownReason  # 0x3a313e00 -> 0x3413f000
1 0 6 1 160 0 problematicForUnknownReason  # 0x3a314000 -> 0x34141000
1 0 6 1 161 0 problematicForUnknownReason  # 0x3a314200 -> 0x34143000
1 0 6 1 167 0 problematicForUnknownReason  # 0x3a314e00 -> 0x3414f000
1 0 6 1 168 0 problematicForUnknownReason  # 0x3a315000 -> 0x34151000
1 0 6 1 169 0 problematicForUnknownReason  # 0x3a315200 -> 0x34153000
1 0 6 1 172 0 problematicForUnknownReason  # 0x3a315800 -> 0x34159000
1 0 6 1 174 0 problematicForUnknownReason  # 0x3a315c00 -> 0x3415d000
1 0 6 1 183 0 problematicForUnknownReason  # 0x3a316e00 -> 0x3416f000
1 0 6 1 184 0 problematicForUnknownReason  # 0x3a317000 -> 0x34171000
1 0 6 1 185 0 problematicForUnknownReason  # 0x3a317200 -> 0x34173000
1 0 6 1 186 0 problematicForUnknownReason  # 0x3a317400 -> 0x34175000
1 0 6 1 187 0 problematicForUnknownReason  # 0x3a317600 -> 0x34177000
1 0 6 1 188 0 maskedOSUM problematicForUnknownReason  # 0x3a317800 -> 0x34179000
1 0 6 2 22 0 problematicForUnknownReason  # 0x3a342c00 -> 0x3482d000
1 0 6 2 38 0 problematicForUnknownReason  # 0x3a344c00 -> 0x3484d000
1 0 6 2 41 0 problematicForUnknownReason  # 0x3a345200 -> 0x34853000
1 0 6 2 55 0 problematicForUnknownReason  # 0x3a346e00 -> 0x3486f000
1 0 6 2 59 0 problematicForUnknownReason  # 0x3a347600 -> 0x34877000
1 0 6 2 69 0 problematicForUnknownReason  # 0x3a348a00 -> 0x3488b000
1 0 6 2 76 0 problematicForUnknownReason  # 0x3a349800 -> 0x34899000
1 0 6 2 77 0 problematicForUnknownReason DeformedPulse  # 0x3a349a00 -> 0x3489b000
1 0 6 2 88 0 problematicForUnknownReason  # 0x3a34b000 -> 0x348b1000
1 0 6 2 90 0 problematicForUnknownReason  # 0x3a34b400 -> 0x348b5000
1 0 6 2 92 0 problematicForUnknownReason  # 0x3a34b800 -> 0x348b9000
1 0 6 2 94 0 problematicForUnknownReason  # 0x3a34bc00 -> 0x348bd000
1 0 6 2 95 0 problematicForUnknownReason  # 0x3a34be00 -> 0x348bf000
1 0 6 2 96 0 problematicForUnknownReason  # 0x3a34c000 -> 0x348c1000
1 0 6 2 98 0 problematicForUnknownReason  # 0x3a34c400 -> 0x348c5000
1 0 6 2 100 0 problematicForUnknownReason  # 0x3a34c800 -> 0x348c9000
1 0 6 2 103 0 problematicForUnknownReason  # 0x3a34ce00 -> 0x348cf000
1 0 6 2 104 0 problematicForUnknownReason DeformedPulse  # 0x3a34d000 -> 0x348d1000
1 0 6 2 105 0 problematicForUnknownReason  # 0x3a34d200 -> 0x348d3000
1 0 6 2 106 0 problematicForUnknownReason  # 0x3a34d400 -> 0x348d5000
1 0 6 2 108 0 problematicForUnknownReason  # 0x3a34d800 -> 0x348d9000
1 0 6 2 109 0 problematicForUnknownReason  # 0x3a34da00 -> 0x348db000
1 0 6 2 111 0 problematicForUnknownReason DeformedPulse  # 0x3a34de00 -> 0x348df000
1 0 6 2 113 0 problematicForUnknownReason  # 0x3a34e200 -> 0x348e3000
1 0 6 2 114 0 problematicForUnknownReason  # 0x3a34e400 -> 0x348e5000
1 0 6 2 117 0 problematicForUnknownReason  # 0x3a34ea00 -> 0x348eb000
1 0 6 2 122 0 problematicForUnknownReason  # 0x3a34f400 -> 0x348f5000
1 0 6 2 125 0 problematicForUnknownReason  # 0x3a34fa00 -> 0x348fb000
1 0 6 2 126 0 problematicForUnknownReason  # 0x3a34fc00 -> 0x348fd000
1 0 6 2 130 0 maskedOSUM problematicForUnknownReason  # 0x3a350400 -> 0x35005000
1 0 6 2 143 0 maskedOSUM problematicForUnknownReason  # 0x3a351e00 -> 0x3501f000
1 0 6 2 177 0 problematicForUnknownReason  # 0x3a356200 -> 0x35063000
1 0 6 2 178 0 maskedOSUM problematicForUnknownReason  # 0x3a356400 -> 0x35065000
1 0 6 2 179 0 problematicForUnknownReason  # 0x3a356600 -> 0x35067000
1 0 6 2 184 0 maskedOSUM problematicForUnknownReason  # 0x3a357000 -> 0x35071000
1 0 6 2 186 0 maskedOSUM problematicForUnknownReason  # 0x3a357400 -> 0x35075000
1 0 7 1 229 0 problematicForUnknownReason  # 0x3a39ca00 -> 0x2cc4341b
1 0 7 1 284 0 maskedOSUM OffAmplitude  # 0x3a3a3800 -> 0x2ce00419
1 0 7 1 285 0 OffAmplitude  # 0x3a3a3a00 -> 0x2ce0041b
1 0 8 1 180 0 problematicForUnknownReason  # 0x3a416800 -> 0x2cc41c11
1 0 8 1 266 0 problematicForUnknownReason  # 0x3a421400 -> 0x2cc44615
1 0 8 1 310 0 problematicForUnknownReason  # 0x3a426c00 -> 0x2ce01015
1 0 9 1 164 0 problematicForUnknownReason  # 0x3a494800 -> 0x2cc40609
1 0 9 2 0 0 OffAmplitude  # 0x3a4c0000 -> 0x2c200001
1 0 9 2 1 0 OffAmplitude  # 0x3a4c0200 -> 0x2c200003
1 0 9 2 6 0 OffAmplitude  # 0x3a4c0c00 -> 0x2c20000d
1 0 9 2 11 0 OffAmplitude  # 0x3a4c1600 -> 0x2c200207
1 0 9 2 31 0 OffAmplitude  # 0x3a4c3e00 -> 0x2c24000f
1 0 9 2 81 0 problematicForUnknownReason  # 0x3a4ca200 -> 0x2cc44e03
1 0 9 2 83 0 problematicForUnknownReason  # 0x3a4ca600 -> 0x2cc44e07
1 0 9 2 96 0 problematicForUnknownReason  # 0x3a4cc000 -> 0x2cc45001
1 0 9 2 124 0 problematicForUnknownReason  # 0x3a4cf800 -> 0x2cc45219
1 0 9 2 129 0 problematicForUnknownReason  # 0x3a4d0200 -> 0x2cc45403
1 0 9 2 130 0 problematicForUnknownReason  # 0x3a4d0400 -> 0x2cc45405
1 0 9 2 133 0 problematicForUnknownReason  # 0x3a4d0a00 -> 0x2cc4540b
1 0 9 2 140 0 problematicForUnknownReason  # 0x3a4d1800 -> 0x2cc45419
1 0 10 1 24 0 maskedOSUM problematicForUnknownReason  # 0x3a503000 -> 0x30048800
1 0 10 1 29 0 problematicForUnknownReason  # 0x3a503a00 -> 0x3004d800
1 0 10 1 30 0 deadCalib problematicForUnknownReason  # 0x3a503c00 -> 0x3004e800
1 0 10 1 40 0 problematicForUnknownReason  # 0x3a505000 -> 0x30088800
1 0 10 1 51 0 problematicForUnknownReason  # 0x3a506600 -> 0x300c3800
1 0 10 1 53 0 problematicForUnknownReason  # 0x3a506a00 -> 0x300c5800
1 0 10 1 64 0 OffOFCs  # 0x3a508000 -> 0x30100800
1 0 10 1 65 0 problematicForUnknownReason  # 0x3a508200 -> 0x30101800
1 0 10 1 80 0 OffOFCs  # 0x3a50a000 -> 0x30140800
1 0 10 1 85 0 problematicForUnknownReason  # 0x3a50aa00 -> 0x30145800
1 0 10 1 86 0 OffAmplitude  # 0x3a50ac00 -> 0x30146800
1 0 10 1 93 0 problematicForUnknownReason  # 0x3a50ba00 -> 0x3014d800
1 0 10 1 106 0 problematicForUnknownReason  # 0x3a50d400 -> 0x3018a800
1 0 10 1 118 0 problematicForUnknownReason  # 0x3a50ec00 -> 0x301c6800
1 0 10 1 132 0 problematicForUnknownReason  # 0x3a510800 -> 0x30204800
1 0 10 1 146 0 problematicForUnknownReason  # 0x3a512400 -> 0x30242800
1 0 10 1 152 0 problematicForUnknownReason  # 0x3a513000 -> 0x30248800
1 0 10 1 173 0 problematicForUnknownReason  # 0x3a515a00 -> 0x30445800
1 0 10 1 174 0 problematicForUnknownReason  # 0x3a515c00 -> 0x30446800
1 0 10 1 179 0 problematicForUnknownReason  # 0x3a516600 -> 0x30483800
1 0 11 1 189 0 problematicForUnknownReason  # 0x3a597a00 -> 0x2cc4200b
1 0 11 1 277 0 problematicForUnknownReason  # 0x3a5a2a00 -> 0x2cc44c0b
1 0 12 1 0 0 maskedOSUM OffAmplitude  # 0x3a600000 -> 0x2c800201
1 0 12 1 1 0 maskedOSUM  # 0x3a600200 -> 0x2c800203
1 0 12 1 4 0 maskedOSUM  # 0x3a600800 -> 0x2c800401
1 0 12 1 5 0 maskedOSUM  # 0x3a600a00 -> 0x2c800403
1 0 12 1 172 0 problematicForUnknownReason  # 0x3a615800 -> 0x2cc41801
1 0 12 1 176 0 problematicForUnknownReason  # 0x3a616000 -> 0x2cc41a01
1 0 13 1 169 0 problematicForUnknownReason  # 0x3a695200 -> 0x2cc4167b
1 0 13 1 209 0 problematicForUnknownReason  # 0x3a69a200 -> 0x2cc42a7b
1 0 14 1 192 0 problematicForUnknownReason  # 0x3a718000 -> 0x2cc42271
1 0 14 1 270 0 problematicForUnknownReason  # 0x3a721c00 -> 0x2cc44875
1 0 15 1 1 0 maskedOSUM problematicForUnknownReason  # 0x3a780200 -> 0x2c800063
1 0 15 1 3 0 maskedOSUM problematicForUnknownReason  # 0x3a780600 -> 0x2c800067
1 0 15 1 35 0 maskedOSUM problematicForUnknownReason  # 0x3a784600 -> 0x2ca80067
1 0 15 1 64 0 maskedOSUM problematicForUnknownReason  # 0x3a788000 -> 0x2ca80461
1 0 15 1 160 0 maskedOSUM problematicForUnknownReason  # 0x3a794000 -> 0x2cc40661
1 0 15 1 161 0 maskedOSUM OffAmplitude  # 0x3a794200 -> 0x2cc40663
1 0 15 1 163 0 maskedOSUM OffAmplitude  # 0x3a794600 -> 0x2cc40667
1 0 15 1 176 0 maskedOSUM OffAmplitude  # 0x3a796000 -> 0x2cc40861
1 0 15 1 195 0 problematicForUnknownReason  # 0x3a798600 -> 0x2cc40a67
1 0 15 1 197 0 problematicForUnknownReason  # 0x3a798a00 -> 0x2cc40a6b
1 0 15 1 209 0 maskedOSUM OffAmplitude  # 0x3a79a200 -> 0x2cc40c63
1 0 15 1 211 0 maskedOSUM OffAmplitude  # 0x3a79a600 -> 0x2cc40c67
1 0 15 1 213 0 maskedOSUM OffAmplitude  # 0x3a79aa00 -> 0x2cc40c6b
1 0 15 1 224 0 problematicForUnknownReason  # 0x3a79c000 -> 0x2ce00061
1 0 15 1 227 0 maskedOSUM problematicForUnknownReason  # 0x3a79c600 -> 0x2ce00067
1 0 15 2 0 0 OffAmplitude  # 0x3a7c0000 -> 0x2c200031
1 0 15 2 1 0 OffAmplitude  # 0x3a7c0200 -> 0x2c200033
1 0 15 2 2 0 OffAmplitude  # 0x3a7c0400 -> 0x2c200035
1 0 15 2 3 0 OffAmplitude  # 0x3a7c0600 -> 0x2c200037
1 0 15 2 4 0 OffAmplitude  # 0x3a7c0800 -> 0x2c200039
1 0 15 2 5 0 OffAmplitude  # 0x3a7c0a00 -> 0x2c20003b
1 0 15 2 6 0 OffAmplitude  # 0x3a7c0c00 -> 0x2c20003d
1 0 15 2 7 0 OffAmplitude  # 0x3a7c0e00 -> 0x2c20003f
1 0 15 2 8 0 OffAmplitude  # 0x3a7c1000 -> 0x2c200231
1 0 15 2 9 0 OffAmplitude  # 0x3a7c1200 -> 0x2c200233
1 0 15 2 10 0 OffAmplitude  # 0x3a7c1400 -> 0x2c200235
1 0 15 2 11 0 OffAmplitude  # 0x3a7c1600 -> 0x2c200237
1 0 15 2 13 0 OffAmplitude  # 0x3a7c1a00 -> 0x2c20023b
1 0 15 2 15 0 OffAmplitude  # 0x3a7c1e00 -> 0x2c20023f
1 0 15 2 20 0 OffAmplitude  # 0x3a7c2800 -> 0x2c200439
1 0 15 2 21 0 OffAmplitude  # 0x3a7c2a00 -> 0x2c20043b
1 0 15 2 81 0 problematicForUnknownReason  # 0x3a7ca200 -> 0x2cc44e63
1 0 15 2 85 0 problematicForUnknownReason  # 0x3a7caa00 -> 0x2cc44e6b
1 0 15 2 91 0 problematicForUnknownReason  # 0x3a7cb600 -> 0x2cc44e77
1 0 15 2 95 0 problematicForUnknownReason  # 0x3a7cbe00 -> 0x2cc44e7f
1 0 15 2 98 0 problematicForUnknownReason  # 0x3a7cc400 -> 0x2cc45065
1 0 15 2 103 0 problematicForUnknownReason  # 0x3a7cce00 -> 0x2cc4506f
1 0 15 2 111 0 problematicForUnknownReason  # 0x3a7cde00 -> 0x2cc4507f
1 0 15 2 113 0 problematicForUnknownReason  # 0x3a7ce200 -> 0x2cc45263
1 0 15 2 115 0 problematicForUnknownReason  # 0x3a7ce600 -> 0x2cc45267
1 0 15 2 127 0 problematicForUnknownReason  # 0x3a7cfe00 -> 0x2cc4527f
1 0 15 2 129 0 problematicForUnknownReason  # 0x3a7d0200 -> 0x2cc45463
1 0 15 2 130 0 problematicForUnknownReason  # 0x3a7d0400 -> 0x2cc45465
1 0 15 2 134 0 problematicForUnknownReason  # 0x3a7d0c00 -> 0x2cc4546d
1 0 15 2 138 0 problematicForUnknownReason DeformedPulse  # 0x3a7d1400 -> 0x2cc45475
1 0 15 2 139 0 problematicForUnknownReason  # 0x3a7d1600 -> 0x2cc45477
1 0 15 2 145 0 problematicForUnknownReason  # 0x3a7d2200 -> 0x2ce01263
1 0 15 2 149 0 problematicForUnknownReason  # 0x3a7d2a00 -> 0x2ce0126b
1 0 15 2 150 0 problematicForUnknownReason  # 0x3a7d2c00 -> 0x2ce0126d
1 0 15 2 159 0 problematicForUnknownReason  # 0x3a7d3e00 -> 0x2ce0127f
1 0 16 1 29 0 problematicForUnknownReason  # 0x3a803a00 -> 0x3007d800
1 0 16 1 31 0 problematicForUnknownReason  # 0x3a803e00 -> 0x3007f800
1 0 16 1 42 0 problematicForUnknownReason  # 0x3a805400 -> 0x300ba800
1 0 16 1 49 0 problematicForUnknownReason  # 0x3a806200 -> 0x300f1800
1 0 16 1 54 0 problematicForUnknownReason  # 0x3a806c00 -> 0x300f6800
1 0 16 1 60 0 problematicForUnknownReason  # 0x3a807800 -> 0x300fc800
1 0 16 1 62 0 problematicForUnknownReason  # 0x3a807c00 -> 0x300fe800
1 0 16 1 73 0 OffAmplitude  # 0x3a809200 -> 0x30139800
1 0 16 1 113 0 OffAmplitude  # 0x3a80e200 -> 0x301f1800
1 0 16 1 134 0 problematicForUnknownReason  # 0x3a810c00 -> 0x30236800
1 0 16 1 140 0 maskedOSUM OffOFCs  # 0x3a811800 -> 0x3023c800
1 0 16 1 156 0 maskedOSUM OffOFCs  # 0x3a813800 -> 0x3027c800
1 0 16 1 164 0 problematicForUnknownReason  # 0x3a814800 -> 0x3041c800
1 0 16 1 166 0 problematicForUnknownReason  # 0x3a814c00 -> 0x3041e800
1 0 16 1 168 0 problematicForUnknownReason  # 0x3a815000 -> 0x30458800
1 0 16 1 186 0 problematicForUnknownReason  # 0x3a817400 -> 0x304da800
1 0 18 1 2 0 maskedOSUM OffAmplitude  # 0x3a900400 -> 0x2c800265
1 0 18 1 3 0 maskedOSUM OffAmplitude  # 0x3a900600 -> 0x2c800267
1 0 18 1 88 0 maskedOSUM problematicForUnknownReason  # 0x3a90b000 -> 0x2cb00061
1 0 18 1 92 0 maskedOSUM problematicForUnknownReason  # 0x3a90b800 -> 0x2cb00261
1 0 18 1 96 0 problematicForUnknownReason  # 0x3a90c000 -> 0x2cb00461
1 0 18 1 100 0 maskedOSUM problematicForUnknownReason  # 0x3a90c800 -> 0x2cb00661
1 0 18 1 105 0 problematicForUnknownReason  # 0x3a90d200 -> 0x2cb00863
1 0 18 1 109 0 problematicForUnknownReason  # 0x3a90da00 -> 0x2cb00a63
1 0 18 1 117 0 maskedOSUM problematicForUnknownReason  # 0x3a90ea00 -> 0x2cb00e63
1 0 18 1 120 0 problematicForUnknownReason  # 0x3a90f000 -> 0x2cb01061
1 0 18 1 124 0 problematicForUnknownReason  # 0x3a90f800 -> 0x2cb01261
1 0 18 1 128 0 problematicForUnknownReason  # 0x3a910000 -> 0x2cb01461
1 0 18 1 132 0 problematicForUnknownReason  # 0x3a910800 -> 0x2cb01661
1 0 18 1 137 0 maskedOSUM problematicForUnknownReason  # 0x3a911200 -> 0x2cb01863
1 0 18 1 141 0 maskedOSUM problematicForUnknownReason  # 0x3a911a00 -> 0x2cb01a63
1 0 18 1 149 0 maskedOSUM problematicForUnknownReason  # 0x3a912a00 -> 0x2cb01e63
1 0 18 1 198 0 problematicForUnknownReason  # 0x3a918c00 -> 0x2cc42465
1 0 18 1 279 0 problematicForUnknownReason  # 0x3a922e00 -> 0x2cc44c67
1 0 19 1 181 0 problematicForUnknownReason  # 0x3a996a00 -> 0x2cc41c5b
1 0 19 1 273 0 problematicForUnknownReason  # 0x3a9a2200 -> 0x2cc44a5b
1 0 20 1 171 0 problematicForUnknownReason  # 0x3aa15600 -> 0x2cc41657
1 0 20 1 226 0 lowNoise problematicForUnknownReason  # 0x3aa1c400 -> 0x2cc43255
1 0 20 1 277 0 problematicForUnknownReason  # 0x3aa22a00 -> 0x2cc44c53
1 0 21 1 17 0 maskedOSUM  # 0x3aa82200 -> 0x2ca00043
1 0 21 1 96 0 maskedOSUM  # 0x3aa8c000 -> 0x2cc00041
1 0 21 1 97 0 maskedOSUM  # 0x3aa8c200 -> 0x2cc00043
1 0 21 1 208 0 problematicForUnknownReason  # 0x3aa9a000 -> 0x2cc40c41
1 0 21 2 1 0 OffAmplitude  # 0x3aac0200 -> 0x2c200023
1 0 21 2 3 0 OffAmplitude  # 0x3aac0600 -> 0x2c200027
1 0 21 2 4 0 OffAmplitude  # 0x3aac0800 -> 0x2c200029
1 0 21 2 8 0 OffAmplitude  # 0x3aac1000 -> 0x2c200221
1 0 21 2 14 0 OffAmplitude  # 0x3aac1c00 -> 0x2c20022d
1 0 21 2 15 0 OffAmplitude  # 0x3aac1e00 -> 0x2c20022f
1 0 21 2 83 0 problematicForUnknownReason  # 0x3aaca600 -> 0x2cc44e47
1 0 21 2 88 0 problematicForUnknownReason  # 0x3aacb000 -> 0x2cc44e51
1 0 21 2 102 0 problematicForUnknownReason  # 0x3aaccc00 -> 0x2cc4504d
1 0 21 2 105 0 problematicForUnknownReason  # 0x3aacd200 -> 0x2cc45053
1 0 21 2 113 0 problematicForUnknownReason  # 0x3aace200 -> 0x2cc45243
1 0 21 2 114 0 problematicForUnknownReason  # 0x3aace400 -> 0x2cc45245
1 0 21 2 115 0 problematicForUnknownReason  # 0x3aace600 -> 0x2cc45247
1 0 21 2 121 0 problematicForUnknownReason  # 0x3aacf200 -> 0x2cc45253
1 0 21 2 122 0 problematicForUnknownReason  # 0x3aacf400 -> 0x2cc45255
1 0 21 2 126 0 problematicForUnknownReason  # 0x3aacfc00 -> 0x2cc4525d
1 0 21 2 130 0 maskedOSUM problematicForUnknownReason  # 0x3aad0400 -> 0x2cc45445
1 0 21 2 131 0 maskedOSUM problematicForUnknownReason  # 0x3aad0600 -> 0x2cc45447
1 0 21 2 132 0 problematicForUnknownReason  # 0x3aad0800 -> 0x2cc45449
1 0 21 2 136 0 maskedOSUM problematicForUnknownReason  # 0x3aad1000 -> 0x2cc45451
1 0 21 2 153 0 problematicForUnknownReason  # 0x3aad3200 -> 0x2ce01253
1 0 22 1 17 0 deadCalib problematicForUnknownReason  # 0x3ab02200 -> 0x30061800
1 0 22 1 30 0 problematicForUnknownReason  # 0x3ab03c00 -> 0x3006e800
1 0 22 1 31 0 problematicForUnknownReason  # 0x3ab03e00 -> 0x3006f800
1 0 22 1 97 0 problematicForUnknownReason  # 0x3ab0c200 -> 0x301a1800
1 0 22 1 121 0 problematicForUnknownReason  # 0x3ab0f200 -> 0x301e9800
1 0 22 1 137 0 problematicForUnknownReason  # 0x3ab11200 -> 0x30229800
1 0 22 1 139 0 problematicForUnknownReason  # 0x3ab11600 -> 0x3022b800
1 0 22 1 154 0 problematicForUnknownReason  # 0x3ab13400 -> 0x3026a800
1 0 22 1 161 0 problematicForUnknownReason  # 0x3ab14200 -> 0x30411800
1 0 22 1 166 0 maskedOSUM problematicForUnknownReason  # 0x3ab14c00 -> 0x30416800
1 0 22 1 167 0 maskedOSUM problematicForUnknownReason  # 0x3ab14e00 -> 0x30417800
1 0 23 1 164 0 problematicForUnknownReason  # 0x3ab94800 -> 0x2cc41449
1 0 23 1 172 0 problematicForUnknownReason  # 0x3ab95800 -> 0x2cc41849
1 0 23 1 173 0 problematicForUnknownReason  # 0x3ab95a00 -> 0x2cc4184b
1 0 23 1 216 0 problematicForUnknownReason  # 0x3ab9b000 -> 0x2cc42e49
1 0 23 1 217 0 problematicForUnknownReason  # 0x3ab9b200 -> 0x2cc42e4b
1 0 24 1 174 0 problematicForUnknownReason  # 0x3ac15c00 -> 0x2cc41845
1 0 24 1 213 0 problematicForUnknownReason  # 0x3ac1aa00 -> 0x2cc42c43
1 0 24 1 216 0 problematicForUnknownReason  # 0x3ac1b000 -> 0x2cc42e41
1 1 0 1 177 0 problematicForUnknownReason  # 0x3b016200 -> 0x2e441a03
1 1 1 1 173 0 problematicForUnknownReason  # 0x3b095a00 -> 0x2e44180b
1 1 2 1 24 0 maskedOSUM OffAmplitude  # 0x3b103000 -> 0x2e200011
1 1 2 1 25 0 maskedOSUM OffAmplitude  # 0x3b103200 -> 0x2e200013
1 1 2 1 26 0 maskedOSUM  # 0x3b103400 -> 0x2e200015
1 1 2 1 27 0 maskedOSUM  # 0x3b103600 -> 0x2e200017
1 1 2 1 107 0 problematicForUnknownReason  # 0x3b10d600 -> 0x2e400017
1 1 2 1 118 0 problematicForUnknownReason  # 0x3b10ec00 -> 0x2e44000d
1 1 2 1 125 0 problematicForUnknownReason  # 0x3b10fa00 -> 0x2e44001b
1 1 2 1 134 0 problematicForUnknownReason  # 0x3b110c00 -> 0x2e44020d
1 1 2 1 155 0 problematicForUnknownReason  # 0x3b113600 -> 0x2e440417
1 1 2 1 158 0 problematicForUnknownReason  # 0x3b113c00 -> 0x2e44041d
1 1 2 2 52 0 problematicForUnknownReason  # 0x3b146800 -> 0x2e445209
1 1 2 2 72 0 problematicForUnknownReason  # 0x3b149000 -> 0x2e445411
1 1 2 2 75 0 problematicForUnknownReason  # 0x3b149600 -> 0x2e445417
1 1 2 2 80 0 maskedOSUM problematicForUnknownReason  # 0x3b14a000 -> 0x2e601201
1 1 2 2 85 0 problematicForUnknownReason  # 0x3b14aa00 -> 0x2e60120b
1 1 2 2 89 0 problematicForUnknownReason  # 0x3b14b200 -> 0x2e601213
1 1 2 2 96 0 OffAmplitude  # 0x3b14c000 -> 0x2ea00001
1 1 2 2 99 0 OffAmplitude  # 0x3b14c600 -> 0x2ea00007
1 1 2 2 102 0 OffAmplitude  # 0x3b14cc00 -> 0x2ea0000d
1 1 2 2 103 0 OffAmplitude  # 0x3b14ce00 -> 0x2ea0000f
1 1 2 2 106 0 OffAmplitude  # 0x3b14d400 -> 0x2ea00205
1 1 2 2 113 0 OffAmplitude  # 0x3b14e200 -> 0x2ea00403
1 1 3 1 17 0 problematicForUnknownReason  # 0x3b182200 -> 0x32041800
1 1 3 1 26 0 maskedOSUM OffAmplitude  # 0x3b183400 -> 0x3204a800
1 1 3 1 48 0 problematicForUnknownReason  # 0x3b186000 -> 0x320c0800
1 1 3 1 87 0 problematicForUnknownReason  # 0x3b18ae00 -> 0x32147800
1 1 3 1 109 0 problematicForUnknownReason  # 0x3b18da00 -> 0x3218d800
1 1 3 1 125 0 problematicForUnknownReason  # 0x3b18fa00 -> 0x321cd800
1 1 3 1 150 0 problematicForUnknownReason DeformedPulse  # 0x3b192c00 -> 0x32246800
1 1 3 1 158 0 OffAmplitude  # 0x3b193c00 -> 0x3224e800
1 1 3 1 160 0 problematicForUnknownReason  # 0x3b194000 -> 0x32400800
1 1 3 1 171 0 problematicForUnknownReason DeformedPulse  # 0x3b195600 -> 0x32443800
1 1 3 1 173 0 problematicForUnknownReason  # 0x3b195a00 -> 0x32445800
1 1 3 1 178 0 problematicForUnknownReason  # 0x3b196400 -> 0x32482800
1 1 4 1 152 0 problematicForUnknownReason DeformedPulse  # 0x3b213000 -> 0x2e440e11
1 1 4 1 187 0 problematicForUnknownReason  # 0x3b217600 -> 0x2e441e17
1 1 5 1 191 0 maskedOSUM OffAmplitude  # 0x3b297e00 -> 0x2e44201f
1 1 6 1 23 0 problematicForUnknownReason  # 0x3b302e00 -> 0x3602f000
1 1 6 1 28 0 problematicForUnknownReason  # 0x3b303800 -> 0x36039000
1 1 6 1 56 0 problematicForUnknownReason DeformedPulse  # 0x3b307000 -> 0x36071000
1 1 6 1 101 0 problematicForUnknownReason  # 0x3b30ca00 -> 0x360cb000
1 1 6 1 114 0 problematicForUnknownReason DeformedPulse  # 0x3b30e400 -> 0x360e5000
1 1 6 1 116 0 problematicForUnknownReason  # 0x3b30e800 -> 0x360e9000
1 1 6 1 117 0 problematicForUnknownReason  # 0x3b30ea00 -> 0x360eb000
1 1 6 1 124 0 problematicForUnknownReason  # 0x3b30f800 -> 0x360f9000
1 1 6 1 125 0 problematicForUnknownReason DeformedPulse  # 0x3b30fa00 -> 0x360fb000
1 1 6 1 129 0 problematicForUnknownReason  # 0x3b310200 -> 0x36103000
1 1 6 1 130 0 problematicForUnknownReason  # 0x3b310400 -> 0x36105000
1 1 6 1 131 0 problematicForUnknownReason  # 0x3b310600 -> 0x36107000
1 1 6 1 133 0 problematicForUnknownReason  # 0x3b310a00 -> 0x3610b000
1 1 6 1 134 0 deadCalib problematicForUnknownReason  # 0x3b310c00 -> 0x3610d000
1 1 6 1 135 0 problematicForUnknownReason  # 0x3b310e00 -> 0x3610f000
1 1 6 1 136 0 problematicForUnknownReason DeformedPulse  # 0x3b311000 -> 0x36111000
1 1 6 1 137 0 problematicForUnknownReason  # 0x3b311200 -> 0x36113000
1 1 6 1 138 0 problematicForUnknownReason  # 0x3b311400 -> 0x36115000
1 1 6 1 140 0 problematicForUnknownReason  # 0x3b311800 -> 0x36119000
1 1 6 1 141 0 problematicForUnknownReason DeformedPulse  # 0x3b311a00 -> 0x3611b000
1 1 6 1 142 0 problematicForUnknownReason  # 0x3b311c00 -> 0x3611d000
1 1 6 1 143 0 problematicForUnknownReason  # 0x3b311e00 -> 0x3611f000
1 1 6 1 150 0 problematicForUnknownReason  # 0x3b312c00 -> 0x3612d000
1 1 6 1 151 0 problematicForUnknownReason  # 0x3b312e00 -> 0x3612f000
1 1 6 1 159 0 problematicForUnknownReason  # 0x3b313e00 -> 0x3613f000
1 1 6 1 162 0 problematicForUnknownReason  # 0x3b314400 -> 0x36145000
1 1 6 1 164 0 problematicForUnknownReason  # 0x3b314800 -> 0x36149000
1 1 6 1 165 0 problematicForUnknownReason  # 0x3b314a00 -> 0x3614b000
1 1 6 1 169 0 problematicForUnknownReason  # 0x3b315200 -> 0x36153000
1 1 6 1 180 0 maskedOSUM problematicForUnknownReason  # 0x3b316800 -> 0x36169000
1 1 6 1 183 0 problematicForUnknownReason  # 0x3b316e00 -> 0x3616f000
1 1 6 1 188 0 maskedOSUM problematicForUnknownReason  # 0x3b317800 -> 0x36179000
1 1 6 2 4 0 problematicForUnknownReason  # 0x3b340800 -> 0x36809000
1 1 6 2 9 0 maskedOSUM problematicForUnknownReason  # 0x3b341200 -> 0x36813000
1 1 6 2 25 0 problematicForUnknownReason  # 0x3b343200 -> 0x36833000
1 1 6 2 48 0 problematicForUnknownReason  # 0x3b346000 -> 0x36861000
1 1 6 2 55 0 problematicForUnknownReason  # 0x3b346e00 -> 0x3686f000
1 1 6 2 58 0 problematicForUnknownReason  # 0x3b347400 -> 0x36875000
1 1 6 2 59 0 problematicForUnknownReason  # 0x3b347600 -> 0x36877000
1 1 6 2 64 0 problematicForUnknownReason  # 0x3b348000 -> 0x36881000
1 1 6 2 65 0 problematicForUnknownReason  # 0x3b348200 -> 0x36883000
1 1 6 2 67 0 problematicForUnknownReason  # 0x3b348600 -> 0x36887000
1 1 6 2 69 0 problematicForUnknownReason  # 0x3b348a00 -> 0x3688b000
1 1 6 2 72 0 problematicForUnknownReason  # 0x3b349000 -> 0x36891000
1 1 6 2 73 0 problematicForUnknownReason  # 0x3b349200 -> 0x36893000
1 1 6 2 81 0 problematicForUnknownReason  # 0x3b34a200 -> 0x368a3000
1 1 6 2 82 0 problematicForUnknownReason  # 0x3b34a400 -> 0x368a5000
1 1 6 2 83 0 problematicForUnknownReason  # 0x3b34a600 -> 0x368a7000
1 1 6 2 85 0 problematicForUnknownReason  # 0x3b34aa00 -> 0x368ab000
1 1 6 2 90 0 problematicForUnknownReason  # 0x3b34b400 -> 0x368b5000
1 1 6 2 92 0 problematicForUnknownReason  # 0x3b34b800 -> 0x368b9000
1 1 6 2 93 0 deadPhys problematicForUnknownReason  # 0x3b34ba00 -> 0x368bb000
1 1 6 2 94 0 problematicForUnknownReason DeformedPulse  # 0x3b34bc00 -> 0x368bd000
1 1 6 2 96 0 problematicForUnknownReason  # 0x3b34c000 -> 0x368c1000
1 1 6 2 98 0 problematicForUnknownReason  # 0x3b34c400 -> 0x368c5000
1 1 6 2 99 0 problematicForUnknownReason DeformedPulse  # 0x3b34c600 -> 0x368c7000
1 1 6 2 100 0 problematicForUnknownReason  # 0x3b34c800 -> 0x368c9000
1 1 6 2 101 0 problematicForUnknownReason  # 0x3b34ca00 -> 0x368cb000
1 1 6 2 103 0 problematicForUnknownReason  # 0x3b34ce00 -> 0x368cf000
1 1 6 2 104 0 problematicForUnknownReason  # 0x3b34d000 -> 0x368d1000
1 1 6 2 105 0 problematicForUnknownReason  # 0x3b34d200 -> 0x368d3000
1 1 6 2 106 0 problematicForUnknownReason  # 0x3b34d400 -> 0x368d5000
1 1 6 2 109 0 problematicForUnknownReason  # 0x3b34da00 -> 0x368db000
1 1 6 2 110 0 problematicForUnknownReason  # 0x3b34dc00 -> 0x368dd000
1 1 6 2 112 0 problematicForUnknownReason  # 0x3b34e000 -> 0x368e1000
1 1 6 2 113 0 problematicForUnknownReason  # 0x3b34e200 -> 0x368e3000
1 1 6 2 114 0 problematicForUnknownReason  # 0x3b34e400 -> 0x368e5000
1 1 6 2 115 0 maskedOSUM problematicForUnknownReason  # 0x3b34e600 -> 0x368e7000
1 1 6 2 118 0 problematicForUnknownReason  # 0x3b34ec00 -> 0x368ed000
1 1 6 2 121 0 problematicForUnknownReason  # 0x3b34f200 -> 0x368f3000
1 1 6 2 122 0 problematicForUnknownReason  # 0x3b34f400 -> 0x368f5000
1 1 6 2 124 0 problematicForUnknownReason  # 0x3b34f800 -> 0x368f9000
1 1 6 2 125 0 problematicForUnknownReason  # 0x3b34fa00 -> 0x368fb000
1 1 6 2 145 0 maskedOSUM problematicForUnknownReason  # 0x3b352200 -> 0x37023000
1 1 6 2 149 0 maskedOSUM problematicForUnknownReason  # 0x3b352a00 -> 0x3702b000
1 1 6 2 151 0 maskedOSUM problematicForUnknownReason  # 0x3b352e00 -> 0x3702f000
1 1 6 2 158 0 maskedOSUM problematicForUnknownReason  # 0x3b353c00 -> 0x3703d000
1 1 6 2 176 0 problematicForUnknownReason  # 0x3b356000 -> 0x37061000
1 1 6 2 180 0 problematicForUnknownReason  # 0x3b356800 -> 0x37069000
1 1 6 2 188 0 maskedOSUM problematicForUnknownReason  # 0x3b357800 -> 0x37079000
1 1 7 1 170 0 problematicForUnknownReason  # 0x3b395400 -> 0x2e441625
1 1 7 1 193 0 problematicForUnknownReason  # 0x3b398200 -> 0x2e442223
1 1 8 1 178 0 problematicForUnknownReason  # 0x3b416400 -> 0x2e441a2d
1 1 9 1 19 0 problematicForUnknownReason  # 0x3b482600 -> 0x2e200027
1 1 9 1 154 0 problematicForUnknownReason  # 0x3b493400 -> 0x2e440435
1 1 9 1 165 0 problematicForUnknownReason  # 0x3b494a00 -> 0x2e44062b
1 1 9 1 194 0 problematicForUnknownReason  # 0x3b498400 -> 0x2e440a25
1 1 9 2 20 0 problematicForUnknownReason  # 0x3b4c2800 -> 0x2e444e29
1 1 9 2 37 0 problematicForUnknownReason  # 0x3b4c4a00 -> 0x2e44502b
1 1 9 2 77 0 problematicForUnknownReason  # 0x3b4c9a00 -> 0x2e44543b
1 1 9 2 85 0 problematicForUnknownReason  # 0x3b4caa00 -> 0x2e60122b
1 1 9 2 96 0 OffAmplitude  # 0x3b4cc000 -> 0x2ea00011
1 1 9 2 97 0 OffAmplitude  # 0x3b4cc200 -> 0x2ea00013
1 1 9 2 99 0 OffAmplitude  # 0x3b4cc600 -> 0x2ea00017
1 1 9 2 102 0 OffAmplitude  # 0x3b4ccc00 -> 0x2ea0001d
1 1 9 2 103 0 OffAmplitude  # 0x3b4cce00 -> 0x2ea0001f
1 1 9 2 104 0 OffAmplitude  # 0x3b4cd000 -> 0x2ea00211
1 1 9 2 108 0 OffAmplitude  # 0x3b4cd800 -> 0x2ea00219
1 1 9 2 109 0 OffAmplitude  # 0x3b4cda00 -> 0x2ea0021b
1 1 9 2 110 0 OffAmplitude  # 0x3b4cdc00 -> 0x2ea0021d
1 1 9 2 112 0 OffAmplitude  # 0x3b4ce000 -> 0x2ea00411
1 1 10 1 5 0 maskedOSUM OffAmplitude  # 0x3b500a00 -> 0x32015800
1 1 10 1 18 0 problematicForUnknownReason  # 0x3b502400 -> 0x32052800
1 1 10 1 24 0 problematicForUnknownReason  # 0x3b503000 -> 0x32058800
1 1 10 1 31 0 problematicForUnknownReason  # 0x3b503e00 -> 0x3205f800
1 1 10 1 33 0 problematicForUnknownReason  # 0x3b504200 -> 0x32091800
1 1 10 1 58 0 problematicForUnknownReason  # 0x3b507400 -> 0x320da800
1 1 10 1 62 0 problematicForUnknownReason  # 0x3b507c00 -> 0x320de800
1 1 10 1 63 0 problematicForUnknownReason  # 0x3b507e00 -> 0x320df800
1 1 10 1 88 0 problematicForUnknownReason  # 0x3b50b000 -> 0x32158800
1 1 10 1 177 0 problematicForUnknownReason  # 0x3b516200 -> 0x32489800
1 1 10 1 178 0 problematicForUnknownReason  # 0x3b516400 -> 0x3248a800
1 1 10 1 182 0 problematicForUnknownReason  # 0x3b516c00 -> 0x3248e800
1 1 10 1 187 0 maskedOSUM problematicForUnknownReason  # 0x3b517600 -> 0x324cb800
1 1 11 1 152 0 problematicForUnknownReason  # 0x3b593000 -> 0x2e440e31
1 1 11 1 186 0 problematicForUnknownReason  # 0x3b597400 -> 0x2e441e35
1 1 11 1 190 0 problematicForUnknownReason  # 0x3b597c00 -> 0x2e442035
1 1 11 1 218 0 problematicForUnknownReason  # 0x3b59b400 -> 0x2e442e35
1 1 12 1 217 0 problematicForUnknownReason  # 0x3b61b200 -> 0x2e442e3b
1 1 13 1 163 0 problematicForUnknownReason  # 0x3b694600 -> 0x2e441247
1 1 13 1 266 0 problematicForUnknownReason  # 0x3b6a1400 -> 0x2e444645
1 1 13 1 270 0 problematicForUnknownReason  # 0x3b6a1c00 -> 0x2e444845
1 1 13 1 274 0 problematicForUnknownReason  # 0x3b6a2400 -> 0x2e444a45
1 1 13 1 278 0 problematicForUnknownReason  # 0x3b6a2c00 -> 0x2e444c45
1 1 13 1 310 0 problematicForUnknownReason  # 0x3b6a6c00 -> 0x2e601045
1 1 14 1 167 0 problematicForUnknownReason  # 0x3b714e00 -> 0x2e44144f
1 1 14 1 251 0 maskedOSUM NonLinearRamp  # 0x3b71f600 -> 0x2e443e4f
1 1 14 1 255 0 maskedOSUM NonLinearRamp  # 0x3b71fe00 -> 0x2e44404f
1 1 14 1 259 0 maskedOSUM NonLinearRamp  # 0x3b720600 -> 0x2e44424f
1 1 14 1 263 0 NonLinearRamp  # 0x3b720e00 -> 0x2e44444f
1 1 15 1 18 0 problematicForUnknownReason  # 0x3b782400 -> 0x2e200045
1 1 15 1 117 0 problematicForUnknownReason  # 0x3b78ea00 -> 0x2e44004b
1 1 15 1 130 0 problematicForUnknownReason  # 0x3b790400 -> 0x2e440245
1 1 15 1 146 0 problematicForUnknownReason  # 0x3b792400 -> 0x2e440445
1 1 15 2 25 0 problematicForUnknownReason  # 0x3b7c3200 -> 0x2e444e53
1 1 15 2 27 0 problematicForUnknownReason  # 0x3b7c3600 -> 0x2e444e57
1 1 15 2 33 0 problematicForUnknownReason  # 0x3b7c4200 -> 0x2e445043
1 1 15 2 57 0 maskedOSUM  # 0x3b7c7200 -> 0x2e445253
1 1 15 2 64 0 maskedOSUM problematicForUnknownReason  # 0x3b7c8000 -> 0x2e445441
1 1 15 2 65 0 problematicForUnknownReason  # 0x3b7c8200 -> 0x2e445443
1 1 15 2 73 0 maskedOSUM problematicForUnknownReason  # 0x3b7c9200 -> 0x2e445453
1 1 15 2 78 0 maskedOSUM problematicForUnknownReason  # 0x3b7c9c00 -> 0x2e44545d
1 1 15 2 81 0 problematicForUnknownReason  # 0x3b7ca200 -> 0x2e601243
1 1 15 2 87 0 problematicForUnknownReason  # 0x3b7cae00 -> 0x2e60124f
1 1 15 2 89 0 problematicForUnknownReason  # 0x3b7cb200 -> 0x2e601253
1 1 15 2 93 0 problematicForUnknownReason  # 0x3b7cba00 -> 0x2e60125b
1 1 15 2 96 0 OffAmplitude  # 0x3b7cc000 -> 0x2ea00021
1 1 15 2 99 0 OffAmplitude  # 0x3b7cc600 -> 0x2ea00027
1 1 15 2 100 0 OffAmplitude  # 0x3b7cc800 -> 0x2ea00029
1 1 15 2 101 0 OffAmplitude  # 0x3b7cca00 -> 0x2ea0002b
1 1 15 2 102 0 OffAmplitude  # 0x3b7ccc00 -> 0x2ea0002d
1 1 15 2 105 0 OffAmplitude  # 0x3b7cd200 -> 0x2ea00223
1 1 15 2 106 0 OffAmplitude  # 0x3b7cd400 -> 0x2ea00225
1 1 15 2 107 0 OffAmplitude  # 0x3b7cd600 -> 0x2ea00227
1 1 15 2 111 0 OffAmplitude  # 0x3b7cde00 -> 0x2ea0022f
1 1 15 2 115 0 problematicForUnknownReason DeformedPulse  # 0x3b7ce600 -> 0x2ea00427
1 1 15 2 116 0 OffAmplitude  # 0x3b7ce800 -> 0x2ea00429
1 1 15 2 118 0 OffAmplitude  # 0x3b7cec00 -> 0x2ea0042d
1 1 15 2 122 0 problematicForUnknownReason  # 0x3b7cf400 -> 0x2ea40025
1 1 16 1 6 0 problematicForUnknownReason  # 0x3b800c00 -> 0x32026800
1 1 16 1 21 0 deadCalib problematicForUnknownReason  # 0x3b802a00 -> 0x32065800
1 1 16 1 39 0 problematicForUnknownReason  # 0x3b804e00 -> 0x320a7800
1 1 16 1 50 0 problematicForUnknownReason  # 0x3b806400 -> 0x320e2800
1 1 16 1 88 0 OffAmplitude  # 0x3b80b000 -> 0x32168800
1 1 16 1 100 0 NonLinearRamp  # 0x3b80c800 -> 0x321a4800
1 1 16 1 101 0 maskedOSUM NonLinearRamp  # 0x3b80ca00 -> 0x321a5800
1 1 16 1 115 0 problematicForUnknownReason  # 0x3b80e600 -> 0x321e3800
1 1 16 1 145 0 deadCalib problematicForUnknownReason  # 0x3b812200 -> 0x32261800
1 1 16 1 161 0 problematicForUnknownReason  # 0x3b814200 -> 0x32411800
1 1 16 1 167 0 problematicForUnknownReason DeformedPulse  # 0x3b814e00 -> 0x32417800
1 1 16 1 169 0 problematicForUnknownReason  # 0x3b815200 -> 0x32451800
1 1 16 1 173 0 problematicForUnknownReason  # 0x3b815a00 -> 0x32455800
1 1 16 1 181 0 problematicForUnknownReason  # 0x3b816a00 -> 0x32495800
1 1 17 1 153 0 problematicForUnknownReason  # 0x3b893200 -> 0x2e440e53
1 1 17 1 269 0 maskedOSUM  # 0x3b8a1a00 -> 0x2e444853
1 1 17 1 274 0 maskedOSUM OffAmplitude  # 0x3b8a2400 -> 0x2e444a55
1 1 19 1 169 0 problematicForUnknownReason  # 0x3b995200 -> 0x2e441663
1 1 21 1 39 0 maskedOSUM OffAmplitude  # 0x3ba84e00 -> 0x2e28006f
1 1 21 1 137 0 problematicForUnknownReason  # 0x3ba91200 -> 0x2e440273
1 1 21 1 160 0 problematicForUnknownReason  # 0x3ba94000 -> 0x2e440661
1 1 21 1 162 0 problematicForUnknownReason  # 0x3ba94400 -> 0x2e440665
1 1 21 1 168 0 problematicForUnknownReason  # 0x3ba95000 -> 0x2e440671
1 1 21 2 61 0 problematicForUnknownReason  # 0x3bac7a00 -> 0x2e44527b
1 1 21 2 97 0 OffAmplitude  # 0x3bacc200 -> 0x2ea00033
1 1 21 2 98 0 OffAmplitude  # 0x3bacc400 -> 0x2ea00035
1 1 21 2 99 0 OffAmplitude  # 0x3bacc600 -> 0x2ea00037
1 1 21 2 102 0 OffAmplitude  # 0x3baccc00 -> 0x2ea0003d
1 1 21 2 104 0 OffAmplitude  # 0x3bacd000 -> 0x2ea00231
1 1 21 2 106 0 OffAmplitude  # 0x3bacd400 -> 0x2ea00235
1 1 21 2 107 0 OffAmplitude  # 0x3bacd600 -> 0x2ea00237
1 1 21 2 108 0 OffAmplitude  # 0x3bacd800 -> 0x2ea00239
1 1 21 2 112 0 OffAmplitude  # 0x3bace000 -> 0x2ea00431
1 1 21 2 113 0 OffAmplitude  # 0x3bace200 -> 0x2ea00433
1 1 21 2 114 0 OffAmplitude  # 0x3bace400 -> 0x2ea00435
1 1 21 2 116 0 problematicForUnknownReason  # 0x3bace800 -> 0x2ea00439
1 1 21 2 118 0 OffAmplitude  # 0x3bacec00 -> 0x2ea0043d
1 1 21 2 119 0 OffAmplitude  # 0x3bacee00 -> 0x2ea0043f
1 1 22 1 4 0 maskedOSUM OffAmplitude  # 0x3bb00800 -> 0x32034800
1 1 22 1 20 0 maskedOSUM OffAmplitude  # 0x3bb02800 -> 0x32074800
1 1 22 1 55 0 problematicForUnknownReason  # 0x3bb06e00 -> 0x320f7800
1 1 22 1 83 0 problematicForUnknownReason  # 0x3bb0a600 -> 0x32173800
1 1 22 1 84 0 deadCalib problematicForUnknownReason  # 0x3bb0a800 -> 0x32174800
1 1 22 1 88 0 problematicForUnknownReason  # 0x3bb0b000 -> 0x32178800
1 1 22 1 117 0 problematicForUnknownReason  # 0x3bb0ea00 -> 0x321f5800
1 1 22 1 124 0 problematicForUnknownReason  # 0x3bb0f800 -> 0x321fc800
1 1 22 1 135 0 problematicForUnknownReason  # 0x3bb10e00 -> 0x32237800
1 1 22 1 160 0 problematicForUnknownReason  # 0x3bb14000 -> 0x32418800
1 1 22 1 161 0 problematicForUnknownReason  # 0x3bb14200 -> 0x32419800
1 1 22 1 163 0 problematicForUnknownReason  # 0x3bb14600 -> 0x3241b800
1 1 23 1 169 0 problematicForUnknownReason  # 0x3bb95200 -> 0x2e441673
1 1 23 1 279 0 problematicForUnknownReason  # 0x3bba2e00 -> 0x2e444c77
