1.399999976158142 
1.4375 
1.462499976158142 
1.4874999523162842 
1.5125000476837158 
1.537500023841858 
1.5625 
1.587499976158142 
1.6124999523162842 
1.6375000476837158 
1.662500023841858 
1.6875 
1.712499976158142 
1.7374999523162842 
1.7625000476837158 
1.787500023841858 
1.8125 
1.837499976158142 
1.8624999523162842 
1.8875000476837158 
1.912500023841858 
1.9375 
1.962499976158142 
1.9874999523162842 
2.012500047683716 
2.0374999046325684 
2.0625 
2.0875000953674316 
2.112499952316284 
2.137500047683716 
2.1624999046325684 
2.1875 
2.2125000953674316 
2.237499952316284 
2.262500047683716 
2.2874999046325684 
2.3125 
2.3375000953674316 
2.362499952316284 
2.387500047683716 
2.4124999046325684 
2.4375 
2.4625000953674316 
2.487499952316284 
2.5999999046325684 
2.799999952316284 
3.0 
3.1500000953674316 
