-2.99210262298584 
-2.9700887203216553 
-2.9581170082092285 
-2.9581069946289062 
-2.9514670372009277 
-2.942765712738037 
-2.9405882358551025 
-2.936666250228882 
-2.928377628326416 
-2.909674644470215 
-2.899031639099121 
-2.8874123096466064 
-2.60457444190979 
-2.5876336097717285 
-2.565574884414673 
-2.5655620098114014 
-2.5593106746673584 
-2.558342933654785 
-2.556659460067749 
-2.5488317012786865 
-2.5441176891326904 
-2.5418941974639893 
-2.5111007690429688 
-2.493149995803833 
-2.1959521770477295 
-2.1886162757873535 
-2.188610553741455 
-2.176706552505493 
-2.167465925216675 
-2.163576364517212 
-2.160088062286377 
-2.1540615558624268 
-2.1492228507995605 
-2.1328885555267334 
-2.113027572631836 
-2.080791711807251 
-1.8220140933990479 
-1.7873255014419556 
-1.784053921699524 
-1.7840359210968018 
-1.7777520418167114 
-1.7741564512252808 
-1.7738398313522339 
-1.7609368562698364 
-1.7466226816177368 
-1.742317795753479 
-1.734330654144287 
-1.7343083620071411 
-1.4072842597961426 
-1.4072619676589966 
-1.3992748260498047 
-1.3949699401855469 
-1.3806557655334473 
-1.367436170578003 
-1.3638406991958618 
-1.3575568199157715 
-1.3575387001037598 
-1.3542671203613281 
-1.3531785011291504 
-1.3195786476135254 
-1.026811122894287 
-1.0220838785171509 
-1.016414761543274 
-1.0087146759033203 
-0.9916428327560425 
-0.9780163764953613 
-0.9780052304267883 
-0.9779980778694153 
-0.9648861885070801 
-0.96488356590271 
-0.9322134852409363 
-0.9291009306907654 
-0.6484425663948059 
-0.599698543548584 
-0.5984892249107361 
-0.5974749326705933 
-0.5927609801292419 
-0.5849332213401794 
-0.5844895243644714 
-0.5832496881484985 
-0.5760305523872375 
-0.5760177969932556 
-0.5370181202888489 
-0.5079814791679382 
-0.2319180816411972 
-0.22218717634677887 
-0.21321508288383484 
-0.21321038901805878 
-0.20100516080856323 
-0.20090526342391968 
-0.1972513645887375 
-0.19433875381946564 
-0.19012565910816193 
-0.183485746383667 
-0.18347568809986115 
-0.1715039163827896 
0.14949019253253937 
0.1715039610862732 
0.18347568809986115 
0.183485746383667 
0.1901257038116455 
0.19882692396640778 
0.20100443065166473 
0.2049262970685959 
0.21321514248847961 
0.2319180816411972 
0.24256086349487305 
0.2541804313659668 
0.5370181798934937 
0.5539590716362 
0.5760177969932556 
0.5760306119918823 
0.5822821259498596 
0.5832496881484985 
0.5849331617355347 
0.5927609801292419 
0.597474992275238 
0.599698543548584 
0.6304917931556702 
0.6484425067901611 
0.9456403255462646 
0.952976405620575 
0.9529821276664734 
0.9648862481117249 
0.9741266965866089 
0.9780163764953613 
0.9815046191215515 
0.9875310659408569 
0.9923697113990784 
1.0087040662765503 
1.0285650491714478 
1.0608009099960327 
1.3195786476135254 
1.3542671203613281 
1.3575387001037598 
1.3575568199157715 
1.3638406991958618 
1.367436170578003 
1.3677527904510498 
1.3806557655334473 
1.3949699401855469 
1.3992748260498047 
1.4072619676589966 
1.4072842597961426 
1.7343083620071411 
1.734330654144287 
1.742317795753479 
1.7466226816177368 
1.7609368562698364 
1.7741564512252808 
1.7777520418167114 
1.7840359210968018 
1.784053921699524 
1.7873255014419556 
1.7884141206741333 
1.8220140933990479 
2.114781379699707 
2.119508743286133 
2.1251778602600098 
2.132878065109253 
2.149949789047241 
2.163576364517212 
2.1635873317718506 
2.1635944843292236 
2.176706314086914 
2.1767091751098633 
2.209379196166992 
2.212491750717163 
2.493150234222412 
2.5418941974639893 
2.5431034564971924 
2.5441176891326904 
2.5488317012786865 
2.556659460067749 
2.557103157043457 
2.558342933654785 
2.5655620098114014 
2.565574884414673 
2.60457444190979 
2.6336112022399902 
2.909674644470215 
2.919405460357666 
2.928377628326416 
2.928382158279419 
2.9405875205993652 
2.940687417984009 
2.9443411827087402 
2.947253942489624 
2.9514670372009277 
2.9581069946289062 
2.9581170082092285 
2.9700887203216553 
