Tag= LARBadChannelsOflBadChannelsSC-RUN3-Bulk-00
ApplicationMgr    SUCCESS 
====================================================================================================================================
                                                   Welcome to ApplicationMgr (GaudiCoreSvc v38r0)
                                          running on lxplus945.cern.ch on Fri Feb  2 15:06:37 2024
====================================================================================================================================
ApplicationMgr       INFO Application Manager Configured successfully
CoreDumpSvc                                          INFO Handling signals: 11(Segmentation fault) 7(Bus error) 4(Illegal instruction) 14(Alarm clock) 
ClassIDSvc                                           INFO getRegistryEntries: read 3430 CLIDRegistry entries for module ALL
IOVDbSvc                                             INFO Only 5 POOL conditions files will be open at once
IOVDbSvc                                             INFO Cache alignment will be done in 3 slices
IOVDbSvc                                             INFO Global tag: CONDBR2-ES1PA-2022-06 set from joboptions
IOVDbFolder                                          INFO Read from meta data only for folder /TagInfo
IOVDbSvc                                             INFO Initialised with 3 connections and 3 folders
IOVDbSvc                                             INFO Service IOVDbSvc initialised successfully
IOVDbSvc                                             INFO   AlgTool: ToolSvc.IOVDbMetaDataTool
MetaDataSvc                                          INFO Initializing MetaDataSvc
PoolSvc                                              INFO io_register[PoolSvc](xmlcatalog_file:PoolFileCatalog.xml) [ok]
PoolSvc                                              INFO Set connectionsvc retry/timeout/IDLE timeout to  'ConnectionRetrialPeriod':300/ 'ConnectionRetrialTimeOut':3600/ 'ConnectionTimeOut':5 seconds with connection cleanup disabled
PoolSvc                                              INFO Frontier compression level set to 5
DBReplicaSvc                                         INFO Frontier server at (serverurl=http://atlasfrontier-local.cern.ch:8000/atlr)(serverurl=http://atlasfrontier-ai.cern.ch:8000/atlr)(proxyurl=http://ca-proxy-atlas.cern.ch:3128)(proxyurl=http://ca-proxy-meyrin.cern.ch:3128)(proxyurl=http://ca-proxy.cern.ch:3128)(proxyurl=http://atlasbpfrontier.cern.ch:3127)(proxyurl=http://atlasbpfrontier.fnal.gov:3127) will be considered for COOL data
DBReplicaSvc                                         INFO Read replica configuration from /cvmfs/atlas.cern.ch/repo/sw/software/24.0/Athena/24.0.22/InstallArea/x86_64-el9-gcc13-opt/share/dbreplica.config
DBReplicaSvc                                         INFO Total of 10 servers found for host lxplus945.cern.ch [ATLF ATLAS_COOLPROD atlas_dd ATLAS_CONFIG INT8R INTR ATONR_COOL ATONR_CONF DEVDB11 ATLF ]
DBReplicaSvc                                         INFO COOL SQLite replicas will be excluded if matching pattern /DBRelease/
PoolSvc                                              INFO Successfully setup replica sorting algorithm
PoolSvc                                              INFO Setting up APR FileCatalog and Streams
PoolSvc                                              INFO Resolved path (via ATLAS_POOLCOND_PATH) is /cvmfs/atlas-condb.cern.ch/repo/conditions/poolcond/PoolFileCatalog.xml
PoolSvc                                              INFO Unable find catalog apcfile:poolcond/PoolCat_oflcond.xml in $ATLAS_POOLCOND_PATH and $DATAPATH
PoolSvc                                              INFO Unable find catalog apcfile:poolcond/PoolCat_comcond.xml in $ATLAS_POOLCOND_PATH and $DATAPATH
PoolSvc                                              INFO POOL WriteCatalog is xmlcatalog_file:PoolFileCatalog.xml
DbSession                                            INFO     Open     DbSession    
Domain[ROOT_All]                                     INFO >   Access   DbDomain     READ      [ROOT_All] 
MetaDataSvc                                          INFO Found MetaDataTools = PublicToolHandleArray(['IOVDbMetaDataTool/IOVDbMetaDataTool'])
MetaDataSvc                                          INFO   AlgTool: ToolSvc.IOVDbMetaDataTool
ClassIDSvc                                           INFO getRegistryEntries: read 1495 CLIDRegistry entries for module ALL
IOVDbSvc                                             INFO preLoadAddresses: Removing folder /TagInfo. It should only be in the file meta data and was not found.
TagInfoMgr                                           INFO   AlgTool: ToolSvc.IOVDbMetaDataTool
IOVDbSvc                                             INFO Opening COOL connection for COOLONL_LAR/CONDBR2
IOVSvc                                               INFO No IOVSvcTool associated with store "StoreGateSvc"
IOVSvc.IOVSvcTool                                    INFO IOVRanges will be checked at every Event
IOVDbSvc                                             INFO Opening COOL connection for COOLOFL_LAR/CONDBR2
IOVDbSvc                                             INFO Disconnecting from COOLONL_LAR/CONDBR2
IOVDbSvc                                             INFO Disconnecting from COOLOFL_LAR/CONDBR2
IOVDbSvc                                             INFO Added taginfo remove for /LAR/BadChannelsOfl/BadChannelsSC
IOVDbSvc                                             INFO Added taginfo remove for /LAR/Identifier/OnOffIdMap_SC
GeoModelSvc                                          INFO Explicitly initializing DetDescrCnvSvc
DetDescrCnvSvc                                       INFO  initializing 
DetDescrCnvSvc                                       INFO Found DetectorStore service
DetDescrCnvSvc                                       INFO  filling proxies for detector managers 
DetDescrCnvSvc                                       INFO  filling address for CaloTTMgr with CLID 117659265 and storage type 68 to detector store 
DetDescrCnvSvc                                       INFO  filling address for CaloMgr with CLID 4548337 and storage type 68 to detector store 
DetDescrCnvSvc                                       INFO  filling address for CaloSuperCellMgr with CLID 241807251 and storage type 68 to detector store 
DetDescrCnvSvc                                       INFO  filling address for CaloIdManager with CLID 125856940 and storage type 68 to detector store 
DetDescrCnvSvc                                       INFO  filling address for IdDict with CLID 2411 and storage type 68 to detector store 
DetDescrCnvSvc                                       INFO  filling address for AtlasID with CLID 164875623 and storage type 68 to detector store 
DetDescrCnvSvc                                       INFO  filling address for PixelID with CLID 2516 and storage type 68 to detector store 
DetDescrCnvSvc                                       INFO  filling address for SCT_ID with CLID 2517 and storage type 68 to detector store 
DetDescrCnvSvc                                       INFO  filling address for TRT_ID with CLID 2518 and storage type 68 to detector store 
DetDescrCnvSvc                                       INFO  filling address for PLR_ID with CLID 131939624 and storage type 68 to detector store 
DetDescrCnvSvc                                       INFO  filling address for HGTD_ID with CLID 79264207 and storage type 68 to detector store 
DetDescrCnvSvc                                       INFO  filling address for SiliconID with CLID 129452393 and storage type 68 to detector store 
DetDescrCnvSvc                                       INFO  filling address for LArEM_ID with CLID 163583365 and storage type 68 to detector store 
DetDescrCnvSvc                                       INFO  filling address for LArEM_SuperCell_ID with CLID 99488227 and storage type 68 to detector store 
DetDescrCnvSvc                                       INFO  filling address for LArHEC_ID with CLID 3870484 and storage type 68 to detector store 
DetDescrCnvSvc                                       INFO  filling address for LArHEC_SuperCell_ID with CLID 254277678 and storage type 68 to detector store 
DetDescrCnvSvc                                       INFO  filling address for LArFCAL_ID with CLID 45738051 and storage type 68 to detector store 
DetDescrCnvSvc                                       INFO  filling address for LArFCAL_SuperCell_ID with CLID 12829437 and storage type 68 to detector store 
DetDescrCnvSvc                                       INFO  filling address for LArMiniFCAL_ID with CLID 79264204 and storage type 68 to detector store 
DetDescrCnvSvc                                       INFO  filling address for LArOnlineID with CLID 158698068 and storage type 68 to detector store 
DetDescrCnvSvc                                       INFO  filling address for TTOnlineID with CLID 38321944 and storage type 68 to detector store 
DetDescrCnvSvc                                       INFO  filling address for LArOnline_SuperCellID with CLID 115600394 and storage type 68 to detector store 
DetDescrCnvSvc                                       INFO  filling address for LArHVLineID with CLID 27863673 and storage type 68 to detector store 
DetDescrCnvSvc                                       INFO  filling address for LArElectrodeID with CLID 80757351 and storage type 68 to detector store 
DetDescrCnvSvc                                       INFO  filling address for TileID with CLID 2901 and storage type 68 to detector store 
DetDescrCnvSvc                                       INFO  filling address for Tile_SuperCell_ID with CLID 49557789 and storage type 68 to detector store 
DetDescrCnvSvc                                       INFO  filling address for TileHWID with CLID 2902 and storage type 68 to detector store 
DetDescrCnvSvc                                       INFO  filling address for TileTBID with CLID 2903 and storage type 68 to detector store 
DetDescrCnvSvc                                       INFO  filling address for MDTIDHELPER with CLID 4170 and storage type 68 to detector store 
DetDescrCnvSvc                                       INFO  filling address for RPCIDHELPER with CLID 4172 and storage type 68 to detector store 
DetDescrCnvSvc                                       INFO  filling address for TGCIDHELPER with CLID 4173 and storage type 68 to detector store 
DetDescrCnvSvc                                       INFO  filling address for STGCIDHELPER with CLID 4174 and storage type 68 to detector store 
DetDescrCnvSvc                                       INFO  filling address for MMIDHELPER with CLID 4175 and storage type 68 to detector store 
DetDescrCnvSvc                                       INFO  filling address for CaloLVL1_ID with CLID 108133391 and storage type 68 to detector store 
DetDescrCnvSvc                                       INFO  filling address for CaloCell_ID with CLID 123500438 and storage type 68 to detector store 
DetDescrCnvSvc                                       INFO  filling address for CaloCell_SuperCell_ID with CLID 128365736 and storage type 68 to detector store 
DetDescrCnvSvc                                       INFO  filling address for CaloDM_ID with CLID 167756483 and storage type 68 to detector store 
DetDescrCnvSvc                                       INFO  filling address for ZdcID with CLID 190591643 and storage type 68 to detector store 
DetDescrCnvSvc                                       INFO  filling address for JTower_ID with CLID 218674799 and storage type 68 to detector store 
DetDescrCnvSvc                                       INFO  filling address for GTower_ID with CLID 49678914 and storage type 68 to detector store 
GeoModelSvc::RDBMaterialManager                   WARNING  Getting PixTBMatComponents with default tag
GeoModelSvc::RDBMaterialManager                   WARNING  Getting PixTBMaterials with default tag
GeoModelSvc::RDBMaterialManager                   WARNING  Getting InDetMatComponents with default tag
GeoModelSvc::RDBMaterialManager                   WARNING  Getting InDetMaterials with default tag
EventPersistencySvc                                  INFO Added successfully Conversion service:McCnvSvc
EventPersistencySvc                                  INFO Added successfully Conversion service:DetDescrCnvSvc
LArElectrodeIDDetDescrCnv                            INFO in createObj: creating a LArElectrodeID helper object in the detector store
IdDictDetDescrCnv                                    INFO in initialize
IdDictDetDescrCnv                                    INFO in createObj: creating a IdDictManager object in the detector store
IdDictDetDescrCnv                                    INFO IdDictName:  IdDictParser/ATLAS_IDS.xml
IdDictDetDescrCnv                                    INFO Reading InnerDetector    IdDict file InDetIdDictFiles/IdDictInnerDetector_IBL3D25-03.xml
IdDictDetDescrCnv                                    INFO Reading LArCalorimeter   IdDict file IdDictParser/IdDictLArCalorimeter_DC3-05-Comm-01.xml
IdDictDetDescrCnv                                    INFO Reading TileCalorimeter  IdDict file IdDictParser/IdDictTileCalorimeter.xml
IdDictDetDescrCnv                                    INFO Reading Calorimeter      IdDict file IdDictParser/IdDictCalorimeter_L1Onl.xml
IdDictDetDescrCnv                                    INFO Reading MuonSpectrometer IdDict file IdDictParser/IdDictMuonSpectrometer_R.09.03.xml
IdDictDetDescrCnv                                    INFO Reading ForwardDetectors IdDict file IdDictParser/IdDictForwardDetectors_2010.xml
IdDictDetDescrCnv                                    INFO Found id dicts:
IdDictDetDescrCnv                                    INFO Using dictionary tag: null
IdDictDetDescrCnv                                    INFO Dictionary ATLAS                version default              DetDescr tag (using default) file 
IdDictDetDescrCnv                                    INFO Dictionary Calorimeter          version default              DetDescr tag CaloIdentifier-LVL1-02 file IdDictParser/IdDictCalorimeter_L1Onl.xml
IdDictDetDescrCnv                                    INFO Dictionary ForwardDetectors     version default              DetDescr tag ForDetIdentifier-01       file IdDictParser/IdDictForwardDetectors_2010.xml
IdDictDetDescrCnv                                    INFO Dictionary InnerDetector        version IBL-DBM              DetDescr tag InDetIdentifier-IBL3D25-02 file InDetIdDictFiles/IdDictInnerDetector_IBL3D25-03.xml
IdDictDetDescrCnv                                    INFO Dictionary LArCalorimeter       version fullAtlas            DetDescr tag LArIdentifier-DC3-05-Comm file IdDictParser/IdDictLArCalorimeter_DC3-05-Comm-01.xml
IdDictDetDescrCnv                                    INFO Dictionary LArElectrode         version fullAtlas            DetDescr tag (using default) file 
IdDictDetDescrCnv                                    INFO Dictionary LArHighVoltage       version fullAtlas            DetDescr tag (using default) file 
IdDictDetDescrCnv                                    INFO Dictionary MuonSpectrometer     version R.09.03              DetDescr tag MuonIdentifier-16         file IdDictParser/IdDictMuonSpectrometer_R.09.03.xml
IdDictDetDescrCnv                                    INFO Dictionary TileCalorimeter      version fullAtlasAndTestBeam DetDescr tag TileIdentifier-00         file IdDictParser/IdDictTileCalorimeter.xml
LArElectrodeID                                       INFO  => initialize_from_dictionary()
AtlasDetectorID                                      INFO initialize_from_dictionary - OK
AtlasDetectorID                                      INFO initialize_from_dictionary - OK
LArHVLineIDDetDescrCnv                               INFO in createObj: creating a LArHVLineID helper object in the detector store
LArHVLineID                                          INFO  => initialize_from_dictionary()
AtlasDetectorID                                      INFO initialize_from_dictionary - OK
AtlasDetectorID                                      INFO initialize_from_dictionary - OK
LArHVLineID                                          INFO  => initialize_from_dictionary(dict_mgr) =0
LArHVLineID                                          INFO Register_dict_tag of LArHighVoltage is OK
LArHVLineID                                          INFO setDictVersion of LArHighVoltage is OK
LArHVLineID                                          INFO [initLevelsFromDict] m_dict OK ... 
LArHVLineID                                          INFO [initialize_from_dictionary] >  HV line range -> 11/1/48:79/0:15 | 11/1/148:179/0:15 | 11/1/80:93/0:7 | 11/1/180:193/0:7 | 11/1/200:231/0:15 | 11/1/232:263/0:15 | 11/1/296,297,306,307/0:15 | 11/1/299,304,305,308,309/0:15 | 11/1/264:279/0:15 | 11/1/280:295/0:15 | 11/1/0:47/0:15 | 11/1/320:322/0:15 | 11/1/100:147/0:15 | 11/1/324,325/0:15 | 11/1/312:315/0:15 | 11/1/316:319/0:15 | 11/1/300:303/0:15 | 11/1/310,311/0:15 | 11/1/323/0:15 | 11/1/326,327/0:15 | 11/1/94:99/0:15 | 11/1/194:199/0:15
LArHVLineID                                          INFO [init_hashes()] > Hvline_size= 5008
GeoModelSvc.LArDetectorToolNV                        INFO Keys for LAr are ATLAS-R3S-2021-03-02-00  ATLAS
GeoModelSvc.LArDetectorToolNV                        INFO Building LAr version LAr-Revised-18-01 while ATLAS version is ATLAS-R3S-2021-03-02-00
GeoModelSvc.LArDetectorToolNV                        INFO LAr Geometry Options:
GeoModelSvc.LArDetectorToolNV                        INFO   Sagging           = false
GeoModelSvc.LArDetectorToolNV                        INFO   Barrel            = ON
GeoModelSvc.LArDetectorToolNV                        INFO   Endcap            = ON
BarrelConstruction                                   INFO Getting primary numbers for ATLAS, ATLAS-R3S-2021-03-02-00
BarrelConstruction                                   INFO   Makes detailed absorber sandwich  ? 1 1
BarrelConstruction                                   INFO   Use sagging in geometry  ? 0
EMECConstruction                                     INFO multi-layered version of absorbers activated, parameter value is 1
EMECConstruction                                     INFO activating LAr::EMEC::Pos::InnerWheel
EMECConstruction                                     INFO activating LAr::EMEC::Pos::OuterWheel
ClassIDSvc                                           INFO getRegistryEntries: read 6542 CLIDRegistry entries for module ALL
CaloIDHelper_IDDetDescrCnv                           INFO in createObj: creating a TileTBID helper object in the detector store
TileTBID                                             INFO initialize_from_dictionary 
AtlasDetectorID                                      INFO initialize_from_dictionary - OK
EndcapDMConstruction                                 INFO Start building EC electronics geometry
EMECConstruction                                     INFO multi-layered version of absorbers activated, parameter value is 1
EMECConstruction                                     INFO activating LAr::EMEC::Neg::InnerWheel
EMECConstruction                                     INFO activating LAr::EMEC::Neg::OuterWheel
EndcapDMConstruction                                 INFO Start building EC electronics geometry
GeoModelSvc                                          INFO GeoModelSvc.LArDetectorToolNV	 SZ= 25888Kb 	 Time = 0.83S
GeoModelSvc.TileDetectorTool                         INFO  Entering TileDetectorTool::create()
TileDddbManager                                      INFO m_tag = ATLAS-R3S-2021-03-02-00
TileDddbManager                                      INFO n_tiglob = 5
TileDddbManager                                      INFO n_timod = 320
TileDddbManager                                      INFO n_cuts = 9
TileDddbManager                                      INFO n_saddle = 1
TileDddbManager                                      INFO n_tilb = 20
TileDddbManager                                      INFO n_tileSwitches = 1
CaloIDHelper_IDDetDescrCnv                           INFO in createObj: creating a TileID helper object in the detector store
AtlasDetectorID                                      INFO initialize_from_dictionary - OK
TileNeighbour                                        INFO Reading file  /cvmfs/atlas.cern.ch/repo/sw/software/24.0/Athena/24.0.22/InstallArea/x86_64-el9-gcc13-opt/share/TileNeighbour_reduced.txt
TileHWIDDetDescrCnv                                  INFO in createObj: creating a TileHWID helper object in the detector store
TileHWID                                             INFO initialize_from_dictionary 
AtlasDetectorID                                      INFO initialize_from_dictionary - OK
ClassIDSvc                                           INFO getRegistryEntries: read 55 CLIDRegistry entries for module ALL
CaloIDHelper_IDDetDescrCnv                           INFO in createObj: creating a CaloCell_ID helper object in the detector store
CaloIDHelper_IDDetDescrCnv                           INFO in createObj: creating a LArEM_ID helper object in the detector store
AtlasDetectorID                                      INFO initialize_from_dictionary - OK
CaloIDHelper_IDDetDescrCnv                           INFO in createObj: creating a LArHEC_ID helper object in the detector store
AtlasDetectorID                                      INFO initialize_from_dictionary - OK
CaloIDHelper_IDDetDescrCnv                           INFO in createObj: creating a LArFCAL_ID helper object in the detector store
AtlasDetectorID                                      INFO initialize_from_dictionary - OK
LArFCAL_Base_ID                                      INFO Reading file /cvmfs/atlas.cern.ch/repo/sw/software/24.0/Athena/24.0.22/InstallArea/x86_64-el9-gcc13-opt/share/FCal2DNeighbors-April2011.txt
LArFCAL_Base_ID                                      INFO Reading file /cvmfs/atlas.cern.ch/repo/sw/software/24.0/Athena/24.0.22/InstallArea/x86_64-el9-gcc13-opt/share/FCal3DNeighborsNext-April2011.txt
LArFCAL_Base_ID                                      INFO Reading file /cvmfs/atlas.cern.ch/repo/sw/software/24.0/Athena/24.0.22/InstallArea/x86_64-el9-gcc13-opt/share/FCal3DNeighborsPrev-April2011.txt
CaloIDHelper_IDDetDescrCnv                           INFO in createObj: creating a LArMiniFCAL_ID helper object in the detector store
AtlasDetectorID                                      INFO initialize_from_dictionary - OK
LArMiniFCAL_ID                                       INFO  initialize_from_dict - LArCalorimeter dictionary does NOT contain miniFCAL description. Unable to initialize LArMiniFCAL_ID.
AtlasDetectorID                                      INFO initialize_from_dictionary - OK
GeoModelSvc.TileDetectorTool                         INFO Ushape parameter from database is: 1
GeoModelSvc.TileDetectorTool                         INFO Glue parameter from database is: 1
GeoModelSvc.TileDetectorTool                         INFO PVT parameter from database is: 1
GeoModelSvc.TileDetectorTool                         INFO Steel parameter from database is: 0
GeoModelSvc.TileDetectorTool                         INFO CsTube parameter from database is: 0
GeoModelSvc.TileDetectorTool                         INFO  Entering TileAtlasFactory::create()
GeoModelSvc.TileDetectorTool                         INFO  Tile Geometry with Saddle supports, starting from TileCal-CSC-02 xxx
GeoModelSvc.TileDetectorTool                         INFO  => New BFingerLengthPos 430.5
GeoModelSvc.TileDetectorTool                         INFO  => New BFingerLengthNeg 420.5
GeoModelSvc.TileDetectorTool                         INFO  Positioning barrel with translation 0
GeoModelSvc.TileDetectorTool                         INFO  Positioning positive barrel finger with translation 3035.25
GeoModelSvc.TileDetectorTool                         INFO  Positioning negative barrel finger with translation -3030.25
GeoModelSvc.TileDetectorTool                         INFO  Positioning positive ext.barrel with translation 4854.75
GeoModelSvc.TileDetectorTool                         INFO  Positioning positive ext.barrel finger with translation ztrans= 6338.5
GeoModelSvc.TileDetectorTool                         INFO  Positioning positive ext.barrel saddle with translation ztrans= 6192.5
GeoModelSvc.TileDetectorTool                         INFO  Positive ITC envelope parameters: PLUG1  Rmin= 3438.85 Rmax= 4250 dzITC1= 154.5
GeoModelSvc.TileDetectorTool                         INFO                                    PLUG2  Rmin= 2981 Rmax= 3440 dzITC2= 47.425
GeoModelSvc.TileDetectorTool                         INFO  Positioning positive ITC with translation 3405
GeoModelSvc.TileDetectorTool                         INFO  Positioning positive Gap with translation 3552
GeoModelSvc.TileDetectorTool                         INFO  Positioning positive Crack with translation 3536
GeoModelSvc.TileDetectorTool                         INFO  Positioning negative ext.barrel with translation ztrans -4854.75
GeoModelSvc.TileDetectorTool                         INFO  Positioning negative ext.barrel finger with translation ztrans= -6338.5
GeoModelSvc.TileDetectorTool                         INFO  Positioning negative ext.barrel saddle with translation ztrans= -6192.5
GeoModelSvc.TileDetectorTool                         INFO  Negative ITC envelope parameters: PLUG1  Rmin= 3438.85 Rmax= 4250 dzITC1= 154.5
GeoModelSvc.TileDetectorTool                         INFO                                    PLUG2  Rmin= 2981 Rmax= 3440 dzITC2= 47.425
GeoModelSvc.TileDetectorTool                         INFO  Positioning negative ITC with translation -3405
GeoModelSvc.TileDetectorTool                         INFO  Positioning negative Gap with translation -3552
GeoModelSvc.TileDetectorTool                         INFO  Positioning negative Crack with translation -3536
GeoModelSvc.TileDetectorTool                         INFO  Global positioning of barrel with rotation (0,0,0)) and translation (0,0,0) Gaudi::Units::cm
GeoModelSvc.TileDetectorTool                         INFO  Global positioning of positive ext.barrel with rotation (0,0,0)) and translation (0,0,0) Gaudi::Units::cm
GeoModelSvc.TileDetectorTool                         INFO  Global positioning of negative ext.barrel with rotation (0,0,0)) and translation (0,0,1) Gaudi::Units::cm
TileDetDescrManager                                  INFO Entering create_elements()
GeoModelSvc                                          INFO GeoModelSvc.TileDetectorTool	 SZ= 4488Kb 	 Time = 0.26S
GeoModelSvc                                          INFO   AlgTool: GeoModelSvc.LArDetectorToolNV
GeoModelSvc                                          INFO   AlgTool: GeoModelSvc.TileDetectorTool
AthenaEventLoopMgr                                   INFO Initializing AthenaEventLoopMgr
ClassIDSvc                                           INFO getRegistryEntries: read 609 CLIDRegistry entries for module ALL
ClassIDSvc                                           INFO getRegistryEntries: read 5494 CLIDRegistry entries for module ALL
ClassIDSvc                                           INFO getRegistryEntries: read 561 CLIDRegistry entries for module ALL
ClassIDSvc                                           INFO getRegistryEntries: read 73 CLIDRegistry entries for module ALL
CaloIDHelper_IDDetDescrCnv                           INFO in createObj: creating a CaloCell_SuperCell_ID helper object in the detector store
CaloIDHelper_IDDetDescrCnv                           INFO in createObj: creating a LArEM_SuperCell_ID helper object in the detector store
AtlasDetectorID                                      INFO initialize_from_dictionary - OK
CaloIDHelper_IDDetDescrCnv                           INFO in createObj: creating a LArHEC_SuperCell_ID helper object in the detector store
AtlasDetectorID                                      INFO initialize_from_dictionary - OK
CaloIDHelper_IDDetDescrCnv                           INFO in createObj: creating a LArFCAL_SuperCell_ID helper object in the detector store
AtlasDetectorID                                      INFO initialize_from_dictionary - OK
LArFCAL_Base_ID                                      INFO Reading file /cvmfs/atlas.cern.ch/repo/sw/software/24.0/Athena/24.0.22/InstallArea/x86_64-el9-gcc13-opt/share/FCalSuperCells2DNeighborsNew-April2014.txt
LArFCAL_Base_ID                                      INFO Reading file /cvmfs/atlas.cern.ch/repo/sw/software/24.0/Athena/24.0.22/InstallArea/x86_64-el9-gcc13-opt/share/FCalSuperCells3DNeighborsNextNew-April2014.txt
LArFCAL_Base_ID                                      INFO Reading file /cvmfs/atlas.cern.ch/repo/sw/software/24.0/Athena/24.0.22/InstallArea/x86_64-el9-gcc13-opt/share/FCalSuperCells3DNeighborsPrevNew-April2014.txt
CaloIDHelper_IDDetDescrCnv                           INFO in createObj: creating a Tile_SuperCell_ID helper object in the detector store
AtlasDetectorID                                      INFO initialize_from_dictionary - OK
TileNeighbour                                        INFO Reading file  /cvmfs/atlas.cern.ch/repo/sw/software/24.0/Athena/24.0.22/InstallArea/x86_64-el9-gcc13-opt/share/TileSuperCellNeighbour.txt
AtlasDetectorID                                      INFO initialize_from_dictionary - OK
CaloSuperCellAlignCondAlg.CaloSuperCellIDTool        INFO Done with initIDMap
CondInputLoader                                      INFO Initializing CondInputLoader...
AthDictLoaderSvc                                     INFO in initialize...
AthDictLoaderSvc                                     INFO acquired Dso-registry
ClassIDSvc                                           INFO getRegistryEntries: read 12 CLIDRegistry entries for module ALL
CondInputLoader                                      INFO Adding base classes:
  +  ( 'AthenaAttributeList' , 'ConditionStore+/LAR/Identifier/OnOffIdMap_SC' )   ->
  +  ( 'CondAttrListCollection' , 'ConditionStore+/LAR/BadChannelsOfl/BadChannelsSC' )   ->
CondInputLoader                                      INFO Will create WriteCondHandle dependencies for the following DataObjects:
    +  ( 'AthenaAttributeList' , 'ConditionStore+/LAR/Identifier/OnOffIdMap_SC' ) 
    +  ( 'CondAttrListCollection' , 'ConditionStore+/LAR/BadChannelsOfl/BadChannelsSC' ) 
LArBadChannel2Ascii                                  INFO initialize()
EventSelector                                        INFO  Enter McEventSelector Initialization 
AthenaEventLoopMgr                                   INFO Setup EventSelector service EventSelector
ApplicationMgr                                       INFO Application Manager Initialized successfully
CondInputLoader                                      INFO created CondCont<AthenaAttributeList> with key 'ConditionStore+/LAR/Identifier/OnOffIdMap_SC'
CondInputLoader                                      INFO created CondCont<CondAttrListCollection> with key 'ConditionStore+/LAR/BadChannelsOfl/BadChannelsSC'
ApplicationMgr                                       INFO Application Manager Started successfully
AthenaEventLoopMgr                                   INFO   ===>>>  start of run 456729    <<<===
AthenaEventLoopMgr                                   INFO   ===>>>  start processing event #1, run #456729 0 events processed so far  <<<===
CaloIdMgrDetDescrCnv                                 INFO in createObj: creating a CaloDescrManager object in the detector store
CaloIDHelper_IDDetDescrCnv                           INFO in createObj: creating a CaloDM_ID helper object in the detector store
CaloDM_ID                                            INFO initialize_from_dictionary
AtlasDetectorID                                      INFO initialize_from_dictionary - OK
CaloIDHelper_IDDetDescrCnv                           INFO in createObj: creating a CaloLVL1_ID helper object in the detector store
CaloLVL1_ID                                          INFO initialize_from_dictionary
AtlasDetectorID                                      INFO initialize_from_dictionary - OK
CaloIDHelper_IDDetDescrCnv                           INFO in createObj: creating a TTOnlineID helper object in the detector store
TTOnlineID                                           INFO initialize_from_dictionary
AtlasDetectorID                                      INFO initialize_from_dictionary - OK
CaloIdMgrDetDescrCnv                                 INFO  Finished 
CaloIdMgrDetDescrCnv                                 INFO Initializing CaloIdMgr from values in CaloIdMgrDetDescrCnv 
CaloAlignCondAlg                                     INFO recorded new CaloDetDescr Manager condition object with key CaloDetDescrManager and range {[0,l:0] - [4294967294,l:4294967294]}
CaloSuperCellAlignCondAlg                            INFO recorded new CaloSuperCellDetDescr Manager condition object with key CaloSuperCellDetDescrManager and range {[0,l:0] - [4294967294,l:4294967294]}
IOVDbSvc                                             INFO Opening COOL connection for COOLONL_LAR/CONDBR2
IOVDbFolder                                          INFO HVS tag CONDBR2-ES1PA-2022-06 resolved to LARIdentifierOnOffIdMap_SC-UPD1-00 for folder /LAR/Identifier/OnOffIdMap_SC
IOVDbSvc                                             INFO Disconnecting from COOLONL_LAR/CONDBR2
IOVDbSvc                                             INFO Opened read transaction for POOL PersistencySvc
EventPersistencySvc                                  INFO Added successfully Conversion service:AthenaPoolCnvSvc
IOVDbSvc                                             INFO Opening COOL connection for COOLOFL_LAR/CONDBR2
IOVDbSvc                                             INFO Disconnecting from COOLOFL_LAR/CONDBR2
LArOnline_SuperCellIDDetDescrCnv                     INFO in createObj: creating a LArOnline_SuperCellID helper object in the detector store
LArOnline_SuperCellID                                INFO initialize_from_dictionary
AtlasDetectorID                                      INFO initialize_from_dictionary - OK
LArOnline_SuperCellID                                INFO Finished initLevelsFromDict
LArOnOffMappingAlgSC                                 INFO Done reading online/offline identifier mapping
LArOnOffMappingAlgSC                                 INFO Found 34048 online identifier and 34048 offline identifier. 0 disconnected channels.
LArOnOffMappingAlgSC                                 INFO recorded new LArOnOffIdMapSC with range {[429334,l:0] - [INVALID]} into Conditions Store
LArBadChannelCondAlg                                 INFO Read a total of 706 problematic channels from database
LArBadChannelCondAlg                                 INFO Recorded LArBadChannelCont object with key LArBadChannel with EventRange {[456319,l:0] - [456832,l:0]} into Conditions Store
LArBadChannel2Ascii                                  INFO Writing to file badSC_456729_RUN3-Bulk-00.txt
LArBadChannel2Ascii                                  INFO Found 706 entries in the bad-channel database. (Number of connected cells: 34048)
LArBadChannel2Ascii                                  INFO Including missing FEBs
AthenaEventLoopMgr                                   INFO   ===>>>  done processing event #1, run #456729 1 events processed so far  <<<===
Domain[ROOT_All]                                     INFO >   Deaccess DbDomain     READ      [ROOT_All] 
ApplicationMgr                                       INFO Application Manager Stopped successfully
CondInputLoader                                      INFO Finalizing CondInputLoader...
AthDictLoaderSvc                                     INFO in finalize...
AthenaPoolCnvSvc                                     INFO PerfStats ----------------------------------------
AthenaPoolCnvSvc                                     INFO PerfStats Timing Measurements for AthenaPoolCnvSvc
AthenaPoolCnvSvc                                     INFO PerfStats ----------------------------------------
AthenaPoolCnvSvc                                     INFO PerfStats | cObj_ALL        |               0 ms |
AthenaPoolCnvSvc                                     INFO PerfStats ----------------------------------------
IOVDbFolder                                          INFO Folder /LAR/BadChannelsOfl/BadChannelsSC (AttrListColl) db-read 1/1 objs/chan/bytes 7/7/5760 ((     0.09 ))s
IOVDbFolder                                          INFO Folder /LAR/Identifier/OnOffIdMap_SC (AttrList) db-read 1/1 objs/chan/bytes 1/1/136196 ((     0.13 ))s
IOVDbSvc                                             INFO  bytes in ((      0.23 ))s
IOVDbSvc                                             INFO Connection sqlite://;schema=mycool.db;dbname=CONDBR2 : nConnect: 0 nFolders: 0 ReadTime: ((     0.00 ))s
IOVDbSvc                                             INFO Connection COOLONL_LAR/CONDBR2 : nConnect: 2 nFolders: 1 ReadTime: ((     0.13 ))s
IOVDbSvc                                             INFO Connection COOLOFL_LAR/CONDBR2 : nConnect: 2 nFolders: 1 ReadTime: ((     0.09 ))s
ToolSvc                                              INFO Removing all tools created by ToolSvc
IdDictDetDescrCnv                                    INFO in finalize
FPEAuditor                                           INFO FPE summary for this job
FPEAuditor                                           INFO  FPE OVERFLOWs  : 0
FPEAuditor                                           INFO  FPE INVALIDs   : 0
FPEAuditor                                           INFO  FPE DIVBYZEROs : 0
ApplicationMgr                                       INFO Application Manager Finalized successfully
ApplicationMgr                                       INFO Application Manager Terminated successfully
