********************
1550 SCs were fully pulsed in this line
********************
********************
624 SCs were fully pulsed in this line
********************
********************
608 SCs were fully pulsed in this line
********************
********************
464 SCs were fully pulsed in this line
********************
********************
610 SCs were fully pulsed in this line
********************
********************
608 SCs were fully pulsed in this line
********************
********************
448 SCs were fully pulsed in this line
********************
********************
368 SCs were fully pulsed in this line
********************
276 FEB
4 SAM
6560 SC_ONL_ID
31616 ONL_ID
********************
5280 SCs were fully pulsed in total (out of 34049 possible SCs, 6560 targeted SCs)
********************
