source /cvmfs/atlas.cern.ch/repo/ATLASLocalRootBase/user/atlasLocalSetup.sh
[7mlsetup              [0m lsetup <tool1> [ <tool2> ...] (see lsetup -h):
[7m lsetup asetup      [0m  (or asetup) to setup an Athena release
[7m lsetup astyle      [0m  ATLAS style macros
[7m lsetup atlantis    [0m  Atlantis: event display
[7m lsetup eiclient    [0m  Event Index 
[7m lsetup emi         [0m  EMI: grid middleware user interface 
[7m lsetup ganga       [0m  Ganga: job definition and management client
[7m lsetup lcgenv      [0m  lcgenv: setup tools from cvmfs SFT repository
[7m lsetup panda       [0m  Panda: Production ANd Distributed Analysis
[7m lsetup pyami       [0m  pyAMI: ATLAS Metadata Interface python client
[7m lsetup root        [0m  ROOT data processing framework
[7m lsetup rucio       [0m  distributed data management system client
[7m lsetup views       [0m  Set up a full LCG release
[7m lsetup xcache      [0m  XRootD local proxy cache
[7m lsetup xrootd      [0m  XRootD data access
[7madvancedTools       [0m advanced tools menu
[7mdiagnostics         [0m diagnostic tools menu
[7mhelpMe              [0m more help
[7mprintMenu           [0m show this menu
[7mshowVersions        [0m show versions of installed software

source /afs/cern.ch/atlas/software/dist/AtlasSetup/scripts/asetup.sh Athena,master,latest
Using Athena/23.0.17 [cmake] with platform x86_64-centos7-gcc11-opt
	at /cvmfs/atlas-nightlies.cern.ch/repo/sw/master_Athena_x86_64-centos7-gcc11-opt/2023-02-19T2101
Unchanged: COOL_ORA_ENABLE_ADAPTIVE_OPT=Y
Dumping bad channel folder content for SuperCells
Resolving current folder-level tag suffix for /LAR/BadChannelsOfl/BadChannelsSC....
Found UPD4 RUN3-UPD4-00
Running athena to read current database content in tag RUN3-UPD4-00 for run number 443932
Running athena to read current database content in tag RUN3-UPD1-00 for run number 443932
Athena reported an error reading back sqlite file ! Please check oracle2ascii_RUN3-UPD1-00.log!
Running athena to read current database content in tag RUN3-UPD3-00 for run number 443932
Athena reported an error reading back sqlite file ! Please check oracle2ascii_RUN3-UPD3-00.log!
Running athena to read current database content in tag RUN3-Bulk-00 for run number 443932
Athena reported an error reading back sqlite file ! Please check oracle2ascii_RUN3-Bulk-00.log!
