Run,Jira,Express,Express Noisy Cells,Bulk,Bulk Noisy Cells,Special defects,Notes
436182,ATLLARSWDPQ-654,YES,9 SBN - 2 HNHG,YES,-,,-
436195,ATLLARSWDPQ-655,YES,17 SBN - 8 HNHG,YES,1 SBN - 0 HNHG,LAR_FCALC_NOISEBURST - LAR_HECC_NOISEBURST - LAR_EMECC_NOISEBURST,-
436354,ATLLARSWDPQ-660,YES,24 SBN - 3 HNHG,YES,9 SBN - 0 HNHG,LAR_FCALC_NOISEBURST - LAR_HECA_NOISEBURST - LAR_HECC_NOISEBURST - LAR_FCALA_NOISEBURST - LAR_EMBA_NOISEBURST - LAR_EMECC_NOISEBURST - LAR_EMECA_NOISEBURST - LAR_DATACORRUPT,Noise/data corruption found offline: 12 Veto Ranges with 2695 events. 26 isolated events. a total of 12 corruption periods. Lumi loss due to corruption: 131.51 nb-1 / 379991.82 nb-1 . Some EVs identified offline: 3 noisy periods. 112 Mini noise periods. Lumi loss due to NB: 0.05 nb-1 / 379991.82 nb-1 (0.00 per-mil). Lumi loss due to MNB: 1.83 nb-1 / 379991.82 nb-1 (0.00 per-mil). 
