Run,Jira,Express,Express Noisy Cells,Bulk,Bulk Noisy Cells,Defects {\textcolor{red}{(intol.)}},Notes
455589,=HYPERLINK("https://its.cern.ch/jira/projects/ATLLARSWDPQ/issues/ATLLARSWDPQ-1277"),"ATLLARSWDPQ-1277"),YES,0 SBN - 5 HNHG,NO,-,(Run consists of 1078 LBs),Some EVs identified offline: 19 noisy periods. 78 Mini noise periods. Lumi loss due to NB: 0.00 nb-1 / 127.92 nb-1 (0.00 per-mil). Lumi loss due to MNB: 0.00 nb-1 / 127.92 nb-1 (0.00 per-mil). 
455623,=HYPERLINK("https://its.cern.ch/jira/projects/ATLLARSWDPQ/issues/ATLLARSWDPQ-1278"),"ATLLARSWDPQ-1278"),YES,0 SBN - 5 HNHG,NO,-,(Run consists of 2254 LBs),Some EVs identified offline: 71 noisy periods. 202 Mini noise periods. Lumi loss due to NB: 0.00 nb-1 / 786.36 nb-1 (0.00 per-mil). Lumi loss due to MNB: 0.00 nb-1 / 786.36 nb-1 (0.00 per-mil). 
455702,=HYPERLINK("https://its.cern.ch/jira/projects/ATLLARSWDPQ/issues/ATLLARSWDPQ-1285"),"ATLLARSWDPQ-1285"),YES,9 SBN - 6 HNHG,NO,-,(Run consists of 1246 LBs),Some EVs identified offline: 14 noisy periods. 115 Mini noise periods. Lumi loss due to NB: 0.00 nb-1 / 15998.77 nb-1 (0.00 per-mil). Lumi loss due to MNB: 0.08 nb-1 / 15998.77 nb-1 (0.01 per-mil). 
455795,=HYPERLINK("https://its.cern.ch/jira/projects/ATLLARSWDPQ/issues/ATLLARSWDPQ-1284"),"ATLLARSWDPQ-1284"),YES,57 SBN - 24 HNHG,NO,-,(Run consists of 1422 LBs),Some EVs identified offline: 3 noisy periods. 90 Mini noise periods. Lumi loss due to NB: 0.00 nb-1 / 3248.55 nb-1 (0.00 per-mil). Lumi loss due to MNB: 0.01 nb-1 / 3248.55 nb-1 (0.00 per-mil). 
455814,=HYPERLINK("https://its.cern.ch/jira/projects/ATLLARSWDPQ/issues/ATLLARSWDPQ-1288"),"ATLLARSWDPQ-1288"),YES,0 SBN - 3 HNHG,NO,-,(Run consists of 190 LBs),Some EVs identified offline: 14 noisy periods. 14 Mini noise periods. Lumi loss due to NB: 0.03 nb-1 / 3594.24 nb-1 (0.01 per-mil). Lumi loss due to MNB: 0.03 nb-1 / 3594.24 nb-1 (0.01 per-mil). 
455818,=HYPERLINK("https://its.cern.ch/jira/projects/ATLLARSWDPQ/issues/ATLLARSWDPQ-1286"),"ATLLARSWDPQ-1286"),YES,107 SBN - 3 HNHG,NO,-,(Run consists of 439 LBs),Some EVs identified offline: 4 noisy periods. 38 Mini noise periods. Lumi loss due to NB: 0.00 nb-1 / 2936.78 nb-1 (0.00 per-mil). Lumi loss due to MNB: 0.00 nb-1 / 2936.78 nb-1 (0.00 per-mil). 
455837,=HYPERLINK("https://its.cern.ch/jira/projects/ATLLARSWDPQ/issues/ATLLARSWDPQ-1290"),"ATLLARSWDPQ-1290"),YES,-,NO,-,(Run consists of 215 LBs),Some EVs identified offline: 14 noisy periods. 23 Mini noise periods. Lumi loss due to NB: 0.06 nb-1 / 8335.15 nb-1 (0.01 per-mil). Lumi loss due to MNB: 0.07 nb-1 / 8335.15 nb-1 (0.01 per-mil). 
455838,=HYPERLINK("https://its.cern.ch/jira/projects/ATLLARSWDPQ/issues/ATLLARSWDPQ-1287"),"ATLLARSWDPQ-1287"),YES,0 SBN - 3 HNHG,NO,-,(Run consists of 646 LBs),Some EVs identified offline: 3 noisy periods. 13 Mini noise periods. Lumi loss due to NB: 0.00 nb-1 / 91569.20 nb-1 (0.00 per-mil). Lumi loss due to MNB: 0.00 nb-1 / 91569.20 nb-1 (0.00 per-mil). 
