Discussed in https://its.cern.ch/jira/browse/ATLLARSWDPQ-1390

** Defect LAR_EMBA_NOISEBURST **
Affecting 4 LBs: 801, 802, 1185, 1186 (0 recoverable) 
** Defect LAR_HECA_NOISEBURST **
Affecting 245 LBs: 323, 324, 325, 326, 382, 383, 384, 385, 392, 393, 394, 395, 396, 405, 406, 407, 408, 424, 425, 433, 434, 452, 453, 454, 455, 458, 459, 477, 478, 482, 483, 488, 489, 500, 501, 513, 514, 516, 517, 532, 533, 534, 539, 540, 541, 547, 548, 561, 562, 577, 578, 579, 580, 587, 588, 591, 592, 595, 596, 611, 612, 637, 638, 641, 642, 646, 647, 651, 652, 655, 656, 657, 680, 681, 692, 693, 703, 704, 707, 708, 715, 716, 727, 728, 730, 731, 732, 736, 737, 747, 748, 754, 755, 768, 769, 775, 776, 780, 781, 782, 783, 785, 786, 787, 790, 791, 793, 794, 803, 804, 805, 806, 812, 813, 823, 824, 829, 830, 837, 838, 839, 843, 844, 845, 846, 852, 853, 854, 855, 856, 868, 869, 874, 875, 885, 886, 901, 902, 913, 914, 934, 935, 936, 937, 939, 940, 943, 944, 953, 954, 957, 958, 966, 967, 968, 972, 973, 977, 978, 1002, 1003, 1008, 1009, 1014, 1015, 1016, 1017, 1021, 1022, 1030, 1031, 1032, 1034, 1035, 1045, 1046, 1054, 1055, 1068, 1069, 1077, 1078, 1079, 1080, 1081, 1084, 1085, 1092, 1093, 1101, 1102, 1113, 1114, 1117, 1118, 1141, 1142, 1147, 1148, 1149, 1155, 1156, 1157, 1158, 1159, 1160, 1165, 1166, 1167, 1168, 1189, 1190, 1199, 1200, 1217, 1218, 1239, 1240, 1264, 1265, 1283, 1284, 1298, 1299, 1301, 1302, 1303, 1311, 1312, 1326, 1327, 1331, 1332, 1337, 1338, 1344, 1345, 1348, 1349, 1357, 1358, 1368, 1369, 1384, 1385 (0 recoverable) 
** Defect LAR_HECC_NOISEBURST **
Affecting 161 LBs: 386, 387, 421, 422, 434, 435, 436, 437, 454, 455, 463, 464, 468, 469, 480, 481, 487, 488, 493, 494, 511, 512, 525, 526, 537, 538, 540, 541, 547, 548, 561, 562, 563, 581, 582, 586, 587, 598, 599, 612, 613, 614, 615, 661, 662, 666, 667, 668, 669, 670, 671, 673, 674, 676, 677, 681, 682, 683, 684, 686, 687, 688, 689, 698, 699, 708, 709, 715, 716, 722, 723, 730, 731, 739, 740, 767, 768, 769, 791, 792, 796, 797, 801, 802, 803, 804, 815, 816, 817, 823, 824, 846, 847, 852, 853, 866, 867, 892, 893, 901, 902, 906, 907, 923, 924, 932, 933, 937, 938, 939, 1002, 1003, 1043, 1044, 1086, 1087, 1114, 1115, 1139, 1140, 1148, 1149, 1171, 1172, 1174, 1175, 1176, 1177, 1192, 1193, 1198, 1199, 1219, 1220, 1227, 1228, 1238, 1239, 1242, 1243, 1244, 1257, 1258, 1263, 1264, 1265, 1284, 1285, 1294, 1295, 1296, 1316, 1317, 1339, 1340, 1348, 1349, 1365, 1366, 1379, 1380 (0 recoverable) 
** Defect LAR_EMECA_NOISEBURST **
Affecting 245 LBs: 323, 324, 325, 326, 382, 383, 384, 385, 392, 393, 394, 395, 396, 405, 406, 407, 408, 424, 425, 433, 434, 452, 453, 454, 455, 458, 459, 477, 478, 482, 483, 488, 489, 500, 501, 513, 514, 516, 517, 532, 533, 534, 539, 540, 541, 547, 548, 561, 562, 577, 578, 579, 580, 587, 588, 591, 592, 595, 596, 611, 612, 637, 638, 641, 642, 646, 647, 651, 652, 655, 656, 657, 680, 681, 692, 693, 703, 704, 707, 708, 715, 716, 727, 728, 730, 731, 732, 736, 737, 747, 748, 754, 755, 768, 769, 775, 776, 780, 781, 782, 783, 785, 786, 787, 790, 791, 793, 794, 803, 804, 805, 806, 812, 813, 823, 824, 829, 830, 837, 838, 839, 843, 844, 845, 846, 852, 853, 854, 855, 856, 868, 869, 874, 875, 885, 886, 901, 902, 913, 914, 934, 935, 936, 937, 939, 940, 943, 944, 953, 954, 957, 958, 966, 967, 968, 972, 973, 977, 978, 1002, 1003, 1008, 1009, 1014, 1015, 1016, 1017, 1021, 1022, 1030, 1031, 1032, 1034, 1035, 1045, 1046, 1054, 1055, 1068, 1069, 1077, 1078, 1079, 1080, 1081, 1084, 1085, 1092, 1093, 1101, 1102, 1113, 1114, 1117, 1118, 1141, 1142, 1147, 1148, 1149, 1155, 1156, 1157, 1158, 1159, 1160, 1165, 1166, 1167, 1168, 1189, 1190, 1199, 1200, 1217, 1218, 1239, 1240, 1264, 1265, 1283, 1284, 1298, 1299, 1301, 1302, 1303, 1311, 1312, 1326, 1327, 1331, 1332, 1337, 1338, 1344, 1345, 1348, 1349, 1357, 1358, 1368, 1369, 1384, 1385 (0 recoverable) 
** Defect LAR_EMECC_NOISEBURST **
Affecting 161 LBs: 386, 387, 421, 422, 434, 435, 436, 437, 454, 455, 463, 464, 468, 469, 480, 481, 487, 488, 493, 494, 511, 512, 525, 526, 537, 538, 540, 541, 547, 548, 561, 562, 563, 581, 582, 586, 587, 598, 599, 612, 613, 614, 615, 661, 662, 666, 667, 668, 669, 670, 671, 673, 674, 676, 677, 681, 682, 683, 684, 686, 687, 688, 689, 698, 699, 708, 709, 715, 716, 722, 723, 730, 731, 739, 740, 767, 768, 769, 791, 792, 796, 797, 801, 802, 803, 804, 815, 816, 817, 823, 824, 846, 847, 852, 853, 866, 867, 892, 893, 901, 902, 906, 907, 923, 924, 932, 933, 937, 938, 939, 1002, 1003, 1043, 1044, 1086, 1087, 1114, 1115, 1139, 1140, 1148, 1149, 1171, 1172, 1174, 1175, 1176, 1177, 1192, 1193, 1198, 1199, 1219, 1220, 1227, 1228, 1238, 1239, 1242, 1243, 1244, 1257, 1258, 1263, 1264, 1265, 1284, 1285, 1294, 1295, 1296, 1316, 1317, 1339, 1340, 1348, 1349, 1365, 1366, 1379, 1380 (0 recoverable) 
** Defect LAR_FCALA_NOISEBURST **
Affecting 245 LBs: 323, 324, 325, 326, 382, 383, 384, 385, 392, 393, 394, 395, 396, 405, 406, 407, 408, 424, 425, 433, 434, 452, 453, 454, 455, 458, 459, 477, 478, 482, 483, 488, 489, 500, 501, 513, 514, 516, 517, 532, 533, 534, 539, 540, 541, 547, 548, 561, 562, 577, 578, 579, 580, 587, 588, 591, 592, 595, 596, 611, 612, 637, 638, 641, 642, 646, 647, 651, 652, 655, 656, 657, 680, 681, 692, 693, 703, 704, 707, 708, 715, 716, 727, 728, 730, 731, 732, 736, 737, 747, 748, 754, 755, 768, 769, 775, 776, 780, 781, 782, 783, 785, 786, 787, 790, 791, 793, 794, 803, 804, 805, 806, 812, 813, 823, 824, 829, 830, 837, 838, 839, 843, 844, 845, 846, 852, 853, 854, 855, 856, 868, 869, 874, 875, 885, 886, 901, 902, 913, 914, 934, 935, 936, 937, 939, 940, 943, 944, 953, 954, 957, 958, 966, 967, 968, 972, 973, 977, 978, 1002, 1003, 1008, 1009, 1014, 1015, 1016, 1017, 1021, 1022, 1030, 1031, 1032, 1034, 1035, 1045, 1046, 1054, 1055, 1068, 1069, 1077, 1078, 1079, 1080, 1081, 1084, 1085, 1092, 1093, 1101, 1102, 1113, 1114, 1117, 1118, 1141, 1142, 1147, 1148, 1149, 1155, 1156, 1157, 1158, 1159, 1160, 1165, 1166, 1167, 1168, 1189, 1190, 1199, 1200, 1217, 1218, 1239, 1240, 1264, 1265, 1283, 1284, 1298, 1299, 1301, 1302, 1303, 1311, 1312, 1326, 1327, 1331, 1332, 1337, 1338, 1344, 1345, 1348, 1349, 1357, 1358, 1368, 1369, 1384, 1385 (0 recoverable) 
** Defect LAR_FCALC_NOISEBURST **
Affecting 161 LBs: 386, 387, 421, 422, 434, 435, 436, 437, 454, 455, 463, 464, 468, 469, 480, 481, 487, 488, 493, 494, 511, 512, 525, 526, 537, 538, 540, 541, 547, 548, 561, 562, 563, 581, 582, 586, 587, 598, 599, 612, 613, 614, 615, 661, 662, 666, 667, 668, 669, 670, 671, 673, 674, 676, 677, 681, 682, 683, 684, 686, 687, 688, 689, 698, 699, 708, 709, 715, 716, 722, 723, 730, 731, 739, 740, 767, 768, 769, 791, 792, 796, 797, 801, 802, 803, 804, 815, 816, 817, 823, 824, 846, 847, 852, 853, 866, 867, 892, 893, 901, 902, 906, 907, 923, 924, 932, 933, 937, 938, 939, 1002, 1003, 1043, 1044, 1086, 1087, 1114, 1115, 1139, 1140, 1148, 1149, 1171, 1172, 1174, 1175, 1176, 1177, 1192, 1193, 1198, 1199, 1219, 1220, 1227, 1228, 1238, 1239, 1242, 1243, 1244, 1257, 1258, 1263, 1264, 1265, 1284, 1285, 1294, 1295, 1296, 1316, 1317, 1339, 1340, 1348, 1349, 1365, 1366, 1379, 1380 (0 recoverable) 
