Discussed in https://its.cern.ch/jira/browse/ATLLARSWDPQ-1356

** Defect LAR_EMBA_HVTRIP(INTOLERABLE) **
Affecting 2 LBs: 1037, 1038 (0 recoverable) 
** Defect LAR_EMBA_NOISEBURST **
Affecting 8 LBs: 697, 698, 1037, 1038, 1181, 1182, 1355, 1356 (0 recoverable) 
** Defect LAR_EMBA_HVRAMPUP **
Affecting 3 LBs: 1037, 1038, 1039 (0 recoverable) 
** Defect LAR_HECA_NOISEBURST **
Affecting 236 LBs: 205, 206, 228, 229, 268, 269, 296, 297, 298, 301, 302, 303, 304, 308, 309, 312, 313, 315, 316, 325, 326, 327, 333, 334, 336, 337, 341, 342, 343, 345, 346, 347, 349, 350, 351, 356, 357, 363, 364, 365, 375, 376, 377, 378, 386, 387, 391, 392, 395, 396, 403, 404, 407, 408, 409, 410, 411, 412, 413, 414, 415, 422, 423, 445, 446, 450, 451, 463, 464, 465, 466, 472, 473, 485, 486, 487, 488, 490, 491, 492, 494, 495, 496, 504, 505, 529, 530, 531, 532, 539, 540, 543, 544, 545, 549, 550, 558, 559, 560, 561, 562, 563, 580, 581, 583, 584, 585, 588, 589, 602, 603, 610, 611, 618, 619, 620, 641, 642, 653, 654, 658, 659, 676, 677, 679, 680, 691, 692, 694, 695, 696, 697, 698, 700, 701, 711, 712, 731, 732, 733, 734, 737, 738, 752, 753, 766, 767, 785, 786, 787, 788, 789, 792, 793, 802, 803, 813, 814, 816, 817, 847, 848, 850, 851, 852, 862, 863, 864, 865, 874, 875, 876, 877, 880, 881, 890, 891, 898, 899, 925, 926, 947, 948, 965, 966, 986, 987, 988, 989, 991, 992, 996, 997, 1007, 1008, 1029, 1030, 1039, 1040, 1053, 1054, 1068, 1069, 1108, 1109, 1111, 1112, 1119, 1120, 1127, 1128, 1132, 1133, 1134, 1135, 1136, 1163, 1164, 1191, 1192, 1194, 1195, 1196, 1197, 1207, 1208, 1234, 1235, 1242, 1243, 1254, 1255, 1321, 1322, 1354, 1355 (0 recoverable) 
** Defect LAR_HECC_NOISEBURST **
Affecting 139 LBs: 228, 229, 233, 234, 254, 255, 294, 295, 310, 311, 313, 314, 317, 318, 319, 320, 325, 326, 341, 342, 346, 347, 364, 365, 375, 376, 404, 405, 420, 421, 422, 483, 484, 486, 487, 490, 491, 505, 506, 516, 517, 519, 520, 524, 525, 529, 530, 545, 546, 547, 553, 554, 561, 562, 564, 565, 566, 573, 574, 581, 582, 588, 589, 591, 592, 606, 607, 633, 634, 635, 646, 647, 656, 657, 662, 663, 688, 689, 690, 691, 692, 731, 732, 746, 747, 783, 784, 809, 810, 832, 833, 837, 838, 851, 852, 872, 873, 876, 877, 888, 889, 894, 895, 898, 899, 922, 923, 932, 933, 988, 989, 993, 994, 1017, 1018, 1063, 1064, 1082, 1083, 1102, 1103, 1120, 1121, 1144, 1145, 1155, 1156, 1181, 1182, 1199, 1200, 1244, 1245, 1253, 1254, 1274, 1275, 1315, 1316 (0 recoverable) 
** Defect LAR_EMECA_NOISEBURST **
Affecting 236 LBs: 205, 206, 228, 229, 268, 269, 296, 297, 298, 301, 302, 303, 304, 308, 309, 312, 313, 315, 316, 325, 326, 327, 333, 334, 336, 337, 341, 342, 343, 345, 346, 347, 349, 350, 351, 356, 357, 363, 364, 365, 375, 376, 377, 378, 386, 387, 391, 392, 395, 396, 403, 404, 407, 408, 409, 410, 411, 412, 413, 414, 415, 422, 423, 445, 446, 450, 451, 463, 464, 465, 466, 472, 473, 485, 486, 487, 488, 490, 491, 492, 494, 495, 496, 504, 505, 529, 530, 531, 532, 539, 540, 543, 544, 545, 549, 550, 558, 559, 560, 561, 562, 563, 580, 581, 583, 584, 585, 588, 589, 602, 603, 610, 611, 618, 619, 620, 641, 642, 653, 654, 658, 659, 676, 677, 679, 680, 691, 692, 694, 695, 696, 697, 698, 700, 701, 711, 712, 731, 732, 733, 734, 737, 738, 752, 753, 766, 767, 785, 786, 787, 788, 789, 792, 793, 802, 803, 813, 814, 816, 817, 847, 848, 850, 851, 852, 862, 863, 864, 865, 874, 875, 876, 877, 880, 881, 890, 891, 898, 899, 925, 926, 947, 948, 965, 966, 986, 987, 988, 989, 991, 992, 996, 997, 1007, 1008, 1029, 1030, 1039, 1040, 1053, 1054, 1068, 1069, 1108, 1109, 1111, 1112, 1119, 1120, 1127, 1128, 1132, 1133, 1134, 1135, 1136, 1163, 1164, 1191, 1192, 1194, 1195, 1196, 1197, 1207, 1208, 1234, 1235, 1242, 1243, 1254, 1255, 1321, 1322, 1354, 1355 (0 recoverable) 
** Defect LAR_EMECC_NOISEBURST **
Affecting 139 LBs: 228, 229, 233, 234, 254, 255, 294, 295, 310, 311, 313, 314, 317, 318, 319, 320, 325, 326, 341, 342, 346, 347, 364, 365, 375, 376, 404, 405, 420, 421, 422, 483, 484, 486, 487, 490, 491, 505, 506, 516, 517, 519, 520, 524, 525, 529, 530, 545, 546, 547, 553, 554, 561, 562, 564, 565, 566, 573, 574, 581, 582, 588, 589, 591, 592, 606, 607, 633, 634, 635, 646, 647, 656, 657, 662, 663, 688, 689, 690, 691, 692, 731, 732, 746, 747, 783, 784, 809, 810, 832, 833, 837, 838, 851, 852, 872, 873, 876, 877, 888, 889, 894, 895, 898, 899, 922, 923, 932, 933, 988, 989, 993, 994, 1017, 1018, 1063, 1064, 1082, 1083, 1102, 1103, 1120, 1121, 1144, 1145, 1155, 1156, 1181, 1182, 1199, 1200, 1244, 1245, 1253, 1254, 1274, 1275, 1315, 1316 (0 recoverable) 
** Defect LAR_FCALA_NOISEBURST **
Affecting 236 LBs: 205, 206, 228, 229, 268, 269, 296, 297, 298, 301, 302, 303, 304, 308, 309, 312, 313, 315, 316, 325, 326, 327, 333, 334, 336, 337, 341, 342, 343, 345, 346, 347, 349, 350, 351, 356, 357, 363, 364, 365, 375, 376, 377, 378, 386, 387, 391, 392, 395, 396, 403, 404, 407, 408, 409, 410, 411, 412, 413, 414, 415, 422, 423, 445, 446, 450, 451, 463, 464, 465, 466, 472, 473, 485, 486, 487, 488, 490, 491, 492, 494, 495, 496, 504, 505, 529, 530, 531, 532, 539, 540, 543, 544, 545, 549, 550, 558, 559, 560, 561, 562, 563, 580, 581, 583, 584, 585, 588, 589, 602, 603, 610, 611, 618, 619, 620, 641, 642, 653, 654, 658, 659, 676, 677, 679, 680, 691, 692, 694, 695, 696, 697, 698, 700, 701, 711, 712, 731, 732, 733, 734, 737, 738, 752, 753, 766, 767, 785, 786, 787, 788, 789, 792, 793, 802, 803, 813, 814, 816, 817, 847, 848, 850, 851, 852, 862, 863, 864, 865, 874, 875, 876, 877, 880, 881, 890, 891, 898, 899, 925, 926, 947, 948, 965, 966, 986, 987, 988, 989, 991, 992, 996, 997, 1007, 1008, 1029, 1030, 1039, 1040, 1053, 1054, 1068, 1069, 1108, 1109, 1111, 1112, 1119, 1120, 1127, 1128, 1132, 1133, 1134, 1135, 1136, 1163, 1164, 1191, 1192, 1194, 1195, 1196, 1197, 1207, 1208, 1234, 1235, 1242, 1243, 1254, 1255, 1321, 1322, 1354, 1355 (0 recoverable) 
** Defect LAR_FCALC_NOISEBURST **
Affecting 139 LBs: 228, 229, 233, 234, 254, 255, 294, 295, 310, 311, 313, 314, 317, 318, 319, 320, 325, 326, 341, 342, 346, 347, 364, 365, 375, 376, 404, 405, 420, 421, 422, 483, 484, 486, 487, 490, 491, 505, 506, 516, 517, 519, 520, 524, 525, 529, 530, 545, 546, 547, 553, 554, 561, 562, 564, 565, 566, 573, 574, 581, 582, 588, 589, 591, 592, 606, 607, 633, 634, 635, 646, 647, 656, 657, 662, 663, 688, 689, 690, 691, 692, 731, 732, 746, 747, 783, 784, 809, 810, 832, 833, 837, 838, 851, 852, 872, 873, 876, 877, 888, 889, 894, 895, 898, 899, 922, 923, 932, 933, 988, 989, 993, 994, 1017, 1018, 1063, 1064, 1082, 1083, 1102, 1103, 1120, 1121, 1144, 1145, 1155, 1156, 1181, 1182, 1199, 1200, 1244, 1245, 1253, 1254, 1274, 1275, 1315, 1316 (0 recoverable) 
