Discussed in https://its.cern.ch/jira/browse/ATLLARSWDPQ-736

** Defect LAR_FCALC_NOISEBURST(INTOLERABLE) **
Affecting 169 LBs: 204, 205, 255, 256, 271, 272, 297, 298, 327, 328, 350, 351, 353, 354, 375, 376, 383, 384, 417, 418, 431, 432, 438, 439, 457, 458, 471, 472, 490, 491, 525, 526, 559, 560, 571, 572, 573, 574, 593, 594, 596, 597, 624, 625, 640, 641, 654, 655, 671, 672, 679, 680, 681, 684, 685, 709, 710, 747, 748, 779, 780, 829, 830, 857, 858, 905, 906, 932, 933, 936, 937, 938, 939, 951, 952, 971, 972, 974, 975, 1013, 1014, 1022, 1023, 1028, 1029, 1030, 1040, 1041, 1052, 1053, 1059, 1060, 1176, 1177, 1190, 1191, 1195, 1196, 1207, 1208, 1231, 1232, 1285, 1286, 1289, 1290, 1291, 1315, 1316, 1322, 1323, 1340, 1341, 1344, 1345, 1381, 1382, 1418, 1419, 1430, 1431, 1437, 1438, 1449, 1450, 1479, 1480, 1525, 1526, 1554, 1555, 1587, 1588, 1598, 1599, 1640, 1641, 1644, 1645, 1661, 1662, 1670, 1671, 1712, 1713, 1723, 1724, 1736, 1737, 1742, 1743, 1759, 1760, 1770, 1771, 1781, 1782, 1798, 1799, 1800, 1889, 1890, 1898, 1899, 1997, 1998, 1999, 2007, 2008 (0 recoverable) 
** Defect LAR_HECA_NOISEBURST(INTOLERABLE) **
Affecting 409 LBs: 158, 159, 172, 173, 174, 175, 178, 179, 194, 195, 205, 206, 212, 213, 239, 240, 244, 245, 260, 261, 268, 269, 270, 272, 273, 279, 280, 288, 289, 297, 298, 312, 313, 336, 337, 338, 350, 351, 359, 360, 371, 372, 373, 375, 376, 377, 378, 380, 381, 387, 388, 398, 399, 424, 425, 444, 445, 454, 455, 461, 462, 471, 472, 473, 474, 503, 504, 509, 510, 516, 517, 525, 526, 536, 537, 538, 539, 540, 541, 542, 548, 549, 553, 554, 555, 556, 559, 560, 561, 566, 567, 571, 572, 575, 576, 577, 579, 580, 585, 586, 587, 588, 595, 596, 601, 602, 603, 604, 616, 617, 622, 623, 640, 641, 642, 643, 654, 655, 656, 657, 658, 661, 662, 665, 666, 668, 669, 671, 672, 679, 680, 690, 691, 693, 694, 696, 697, 704, 705, 709, 710, 715, 716, 719, 720, 723, 724, 725, 726, 730, 731, 734, 735, 736, 737, 738, 739, 751, 752, 763, 764, 765, 766, 773, 774, 775, 776, 778, 779, 785, 786, 790, 791, 793, 794, 795, 796, 797, 798, 799, 805, 806, 816, 817, 826, 827, 831, 832, 833, 834, 842, 843, 844, 845, 846, 848, 849, 850, 854, 855, 856, 858, 859, 860, 861, 862, 863, 867, 868, 873, 874, 878, 879, 885, 886, 897, 898, 903, 904, 906, 907, 908, 930, 931, 932, 933, 943, 944, 957, 958, 959, 965, 966, 969, 970, 973, 974, 975, 976, 981, 982, 988, 989, 1004, 1005, 1012, 1013, 1019, 1020, 1021, 1022, 1025, 1026, 1031, 1032, 1056, 1057, 1062, 1063, 1067, 1068, 1071, 1072, 1096, 1097, 1100, 1101, 1102, 1103, 1108, 1109, 1115, 1116, 1132, 1133, 1135, 1136, 1137, 1138, 1149, 1150, 1153, 1154, 1156, 1157, 1165, 1166, 1176, 1177, 1187, 1188, 1203, 1204, 1209, 1210, 1243, 1244, 1245, 1248, 1249, 1256, 1257, 1263, 1264, 1270, 1271, 1284, 1285, 1298, 1299, 1300, 1301, 1309, 1310, 1328, 1329, 1347, 1348, 1349, 1352, 1353, 1370, 1371, 1379, 1380, 1386, 1387, 1408, 1409, 1420, 1421, 1430, 1431, 1432, 1433, 1437, 1438, 1439, 1440, 1449, 1450, 1457, 1458, 1477, 1478, 1479, 1495, 1496, 1505, 1506, 1524, 1525, 1530, 1531, 1545, 1546, 1550, 1551, 1581, 1582, 1583, 1604, 1605, 1624, 1625, 1628, 1629, 1632, 1633, 1634, 1635, 1636, 1645, 1646, 1655, 1656, 1667, 1668, 1695, 1696, 1749, 1750, 1751, 1786, 1787, 1796, 1797, 1826, 1827, 1834, 1835, 1845, 1846, 1873, 1874, 1893, 1894, 1913, 1914, 1922, 1923, 1972, 1973, 1977, 1978, 1994, 1995, 2019, 2020 (0 recoverable) 
** Defect LAR_HECC_NOISEBURST(INTOLERABLE) **
Affecting 169 LBs: 204, 205, 255, 256, 271, 272, 297, 298, 327, 328, 350, 351, 353, 354, 375, 376, 383, 384, 417, 418, 431, 432, 438, 439, 457, 458, 471, 472, 490, 491, 525, 526, 559, 560, 571, 572, 573, 574, 593, 594, 596, 597, 624, 625, 640, 641, 654, 655, 671, 672, 679, 680, 681, 684, 685, 709, 710, 747, 748, 779, 780, 829, 830, 857, 858, 905, 906, 932, 933, 936, 937, 938, 939, 951, 952, 971, 972, 974, 975, 1013, 1014, 1022, 1023, 1028, 1029, 1030, 1040, 1041, 1052, 1053, 1059, 1060, 1176, 1177, 1190, 1191, 1195, 1196, 1207, 1208, 1231, 1232, 1285, 1286, 1289, 1290, 1291, 1315, 1316, 1322, 1323, 1340, 1341, 1344, 1345, 1381, 1382, 1418, 1419, 1430, 1431, 1437, 1438, 1449, 1450, 1479, 1480, 1525, 1526, 1554, 1555, 1587, 1588, 1598, 1599, 1640, 1641, 1644, 1645, 1661, 1662, 1670, 1671, 1712, 1713, 1723, 1724, 1736, 1737, 1742, 1743, 1759, 1760, 1770, 1771, 1781, 1782, 1798, 1799, 1800, 1889, 1890, 1898, 1899, 1997, 1998, 1999, 2007, 2008 (0 recoverable) 
** Defect LAR_HECA_SEVNOISEBURST **
Affecting 3 LBs: 442, 443, 444 (3 recoverable) 
** Defect LAR_FCALA_NOISEBURST(INTOLERABLE) **
Affecting 409 LBs: 158, 159, 172, 173, 174, 175, 178, 179, 194, 195, 205, 206, 212, 213, 239, 240, 244, 245, 260, 261, 268, 269, 270, 272, 273, 279, 280, 288, 289, 297, 298, 312, 313, 336, 337, 338, 350, 351, 359, 360, 371, 372, 373, 375, 376, 377, 378, 380, 381, 387, 388, 398, 399, 424, 425, 444, 445, 454, 455, 461, 462, 471, 472, 473, 474, 503, 504, 509, 510, 516, 517, 525, 526, 536, 537, 538, 539, 540, 541, 542, 548, 549, 553, 554, 555, 556, 559, 560, 561, 566, 567, 571, 572, 575, 576, 577, 579, 580, 585, 586, 587, 588, 595, 596, 601, 602, 603, 604, 616, 617, 622, 623, 640, 641, 642, 643, 654, 655, 656, 657, 658, 661, 662, 665, 666, 668, 669, 671, 672, 679, 680, 690, 691, 693, 694, 696, 697, 704, 705, 709, 710, 715, 716, 719, 720, 723, 724, 725, 726, 730, 731, 734, 735, 736, 737, 738, 739, 751, 752, 763, 764, 765, 766, 773, 774, 775, 776, 778, 779, 785, 786, 790, 791, 793, 794, 795, 796, 797, 798, 799, 805, 806, 816, 817, 826, 827, 831, 832, 833, 834, 842, 843, 844, 845, 846, 848, 849, 850, 854, 855, 856, 858, 859, 860, 861, 862, 863, 867, 868, 873, 874, 878, 879, 885, 886, 897, 898, 903, 904, 906, 907, 908, 930, 931, 932, 933, 943, 944, 957, 958, 959, 965, 966, 969, 970, 973, 974, 975, 976, 981, 982, 988, 989, 1004, 1005, 1012, 1013, 1019, 1020, 1021, 1022, 1025, 1026, 1031, 1032, 1056, 1057, 1062, 1063, 1067, 1068, 1071, 1072, 1096, 1097, 1100, 1101, 1102, 1103, 1108, 1109, 1115, 1116, 1132, 1133, 1135, 1136, 1137, 1138, 1149, 1150, 1153, 1154, 1156, 1157, 1165, 1166, 1176, 1177, 1187, 1188, 1203, 1204, 1209, 1210, 1243, 1244, 1245, 1248, 1249, 1256, 1257, 1263, 1264, 1270, 1271, 1284, 1285, 1298, 1299, 1300, 1301, 1309, 1310, 1328, 1329, 1347, 1348, 1349, 1352, 1353, 1370, 1371, 1379, 1380, 1386, 1387, 1408, 1409, 1420, 1421, 1430, 1431, 1432, 1433, 1437, 1438, 1439, 1440, 1449, 1450, 1457, 1458, 1477, 1478, 1479, 1495, 1496, 1505, 1506, 1524, 1525, 1530, 1531, 1545, 1546, 1550, 1551, 1581, 1582, 1583, 1604, 1605, 1624, 1625, 1628, 1629, 1632, 1633, 1634, 1635, 1636, 1645, 1646, 1655, 1656, 1667, 1668, 1695, 1696, 1749, 1750, 1751, 1786, 1787, 1796, 1797, 1826, 1827, 1834, 1835, 1845, 1846, 1873, 1874, 1893, 1894, 1913, 1914, 1922, 1923, 1972, 1973, 1977, 1978, 1994, 1995, 2019, 2020 (0 recoverable) 
** Defect LAR_EMECA_SEVNOISEBURST **
Affecting 3 LBs: 442, 443, 444 (3 recoverable) 
** Defect LAR_EMBA_NOISEBURST(INTOLERABLE) **
Affecting 4 LBs: 343, 344, 1148, 1149 (0 recoverable) 
** Defect LAR_EMECC_NOISEBURST(INTOLERABLE) **
Affecting 169 LBs: 204, 205, 255, 256, 271, 272, 297, 298, 327, 328, 350, 351, 353, 354, 375, 376, 383, 384, 417, 418, 431, 432, 438, 439, 457, 458, 471, 472, 490, 491, 525, 526, 559, 560, 571, 572, 573, 574, 593, 594, 596, 597, 624, 625, 640, 641, 654, 655, 671, 672, 679, 680, 681, 684, 685, 709, 710, 747, 748, 779, 780, 829, 830, 857, 858, 905, 906, 932, 933, 936, 937, 938, 939, 951, 952, 971, 972, 974, 975, 1013, 1014, 1022, 1023, 1028, 1029, 1030, 1040, 1041, 1052, 1053, 1059, 1060, 1176, 1177, 1190, 1191, 1195, 1196, 1207, 1208, 1231, 1232, 1285, 1286, 1289, 1290, 1291, 1315, 1316, 1322, 1323, 1340, 1341, 1344, 1345, 1381, 1382, 1418, 1419, 1430, 1431, 1437, 1438, 1449, 1450, 1479, 1480, 1525, 1526, 1554, 1555, 1587, 1588, 1598, 1599, 1640, 1641, 1644, 1645, 1661, 1662, 1670, 1671, 1712, 1713, 1723, 1724, 1736, 1737, 1742, 1743, 1759, 1760, 1770, 1771, 1781, 1782, 1798, 1799, 1800, 1889, 1890, 1898, 1899, 1997, 1998, 1999, 2007, 2008 (0 recoverable) 
** Defect LAR_EMECA_NOISEBURST(INTOLERABLE) **
Affecting 409 LBs: 158, 159, 172, 173, 174, 175, 178, 179, 194, 195, 205, 206, 212, 213, 239, 240, 244, 245, 260, 261, 268, 269, 270, 272, 273, 279, 280, 288, 289, 297, 298, 312, 313, 336, 337, 338, 350, 351, 359, 360, 371, 372, 373, 375, 376, 377, 378, 380, 381, 387, 388, 398, 399, 424, 425, 444, 445, 454, 455, 461, 462, 471, 472, 473, 474, 503, 504, 509, 510, 516, 517, 525, 526, 536, 537, 538, 539, 540, 541, 542, 548, 549, 553, 554, 555, 556, 559, 560, 561, 566, 567, 571, 572, 575, 576, 577, 579, 580, 585, 586, 587, 588, 595, 596, 601, 602, 603, 604, 616, 617, 622, 623, 640, 641, 642, 643, 654, 655, 656, 657, 658, 661, 662, 665, 666, 668, 669, 671, 672, 679, 680, 690, 691, 693, 694, 696, 697, 704, 705, 709, 710, 715, 716, 719, 720, 723, 724, 725, 726, 730, 731, 734, 735, 736, 737, 738, 739, 751, 752, 763, 764, 765, 766, 773, 774, 775, 776, 778, 779, 785, 786, 790, 791, 793, 794, 795, 796, 797, 798, 799, 805, 806, 816, 817, 826, 827, 831, 832, 833, 834, 842, 843, 844, 845, 846, 848, 849, 850, 854, 855, 856, 858, 859, 860, 861, 862, 863, 867, 868, 873, 874, 878, 879, 885, 886, 897, 898, 903, 904, 906, 907, 908, 930, 931, 932, 933, 943, 944, 957, 958, 959, 965, 966, 969, 970, 973, 974, 975, 976, 981, 982, 988, 989, 1004, 1005, 1012, 1013, 1019, 1020, 1021, 1022, 1025, 1026, 1031, 1032, 1056, 1057, 1062, 1063, 1067, 1068, 1071, 1072, 1096, 1097, 1100, 1101, 1102, 1103, 1108, 1109, 1115, 1116, 1132, 1133, 1135, 1136, 1137, 1138, 1149, 1150, 1153, 1154, 1156, 1157, 1165, 1166, 1176, 1177, 1187, 1188, 1203, 1204, 1209, 1210, 1243, 1244, 1245, 1248, 1249, 1256, 1257, 1263, 1264, 1270, 1271, 1284, 1285, 1298, 1299, 1300, 1301, 1309, 1310, 1328, 1329, 1347, 1348, 1349, 1352, 1353, 1370, 1371, 1379, 1380, 1386, 1387, 1408, 1409, 1420, 1421, 1430, 1431, 1432, 1433, 1437, 1438, 1439, 1440, 1449, 1450, 1457, 1458, 1477, 1478, 1479, 1495, 1496, 1505, 1506, 1524, 1525, 1530, 1531, 1545, 1546, 1550, 1551, 1581, 1582, 1583, 1604, 1605, 1624, 1625, 1628, 1629, 1632, 1633, 1634, 1635, 1636, 1645, 1646, 1655, 1656, 1667, 1668, 1695, 1696, 1749, 1750, 1751, 1786, 1787, 1796, 1797, 1826, 1827, 1834, 1835, 1845, 1846, 1873, 1874, 1893, 1894, 1913, 1914, 1922, 1923, 1972, 1973, 1977, 1978, 1994, 1995, 2019, 2020 (0 recoverable) 
** Defect LAR_FCALA_SEVNOISEBURST **
Affecting 3 LBs: 442, 443, 444 (3 recoverable) 
