Discussed in https://its.cern.ch/jira/browse/ATLLARSWDPQ-824

** Defect LAR_DATACORRUPT **
Affecting 2 LBs: 718, 719 (2 recoverable) 
** Defect LAR_FCALC_NOISEBURST(INTOLERABLE) **
Affecting 86 LBs: 314, 315, 334, 335, 344, 345, 348, 349, 355, 356, 361, 362, 366, 367, 369, 370, 373, 374, 400, 401, 416, 417, 425, 426, 428, 429, 441, 442, 446, 447, 454, 455, 457, 458, 461, 462, 485, 486, 512, 513, 535, 536, 548, 549, 591, 592, 602, 603, 614, 615, 620, 621, 630, 631, 633, 634, 672, 673, 675, 676, 678, 679, 688, 689, 704, 705, 720, 721, 728, 729, 744, 745, 747, 748, 778, 779, 782, 783, 788, 789, 791, 792, 794, 795, 802, 803 (0 recoverable) 
** Defect LAR_HECA_NOISEBURST(INTOLERABLE) **
Affecting 122 LBs: 322, 323, 324, 325, 326, 332, 333, 337, 338, 349, 350, 353, 354, 374, 375, 405, 406, 418, 419, 431, 432, 433, 460, 461, 467, 468, 472, 473, 480, 481, 486, 487, 496, 497, 498, 499, 500, 513, 514, 526, 527, 528, 543, 544, 545, 552, 553, 563, 564, 568, 569, 574, 575, 585, 586, 602, 603, 609, 610, 611, 612, 619, 620, 622, 623, 630, 631, 636, 637, 641, 642, 643, 644, 650, 651, 652, 653, 654, 662, 663, 683, 684, 685, 686, 687, 688, 693, 694, 695, 698, 699, 708, 709, 710, 711, 712, 713, 716, 717, 718, 742, 743, 744, 745, 756, 757, 762, 763, 766, 767, 768, 770, 771, 772, 773, 774, 775, 776, 782, 783, 799, 800 (0 recoverable) 
** Defect LAR_HECC_NOISEBURST(INTOLERABLE) **
Affecting 86 LBs: 314, 315, 334, 335, 344, 345, 348, 349, 355, 356, 361, 362, 366, 367, 369, 370, 373, 374, 400, 401, 416, 417, 425, 426, 428, 429, 441, 442, 446, 447, 454, 455, 457, 458, 461, 462, 485, 486, 512, 513, 535, 536, 548, 549, 591, 592, 602, 603, 614, 615, 620, 621, 630, 631, 633, 634, 672, 673, 675, 676, 678, 679, 688, 689, 704, 705, 720, 721, 728, 729, 744, 745, 747, 748, 778, 779, 782, 783, 788, 789, 791, 792, 794, 795, 802, 803 (0 recoverable) 
** Defect LAR_HECA_SEVNOISEBURST **
Affecting 2 LBs: 771, 772 (0 recoverable) 
** Defect LAR_FCALA_NOISEBURST(INTOLERABLE) **
Affecting 122 LBs: 322, 323, 324, 325, 326, 332, 333, 337, 338, 349, 350, 353, 354, 374, 375, 405, 406, 418, 419, 431, 432, 433, 460, 461, 467, 468, 472, 473, 480, 481, 486, 487, 496, 497, 498, 499, 500, 513, 514, 526, 527, 528, 543, 544, 545, 552, 553, 563, 564, 568, 569, 574, 575, 585, 586, 602, 603, 609, 610, 611, 612, 619, 620, 622, 623, 630, 631, 636, 637, 641, 642, 643, 644, 650, 651, 652, 653, 654, 662, 663, 683, 684, 685, 686, 687, 688, 693, 694, 695, 698, 699, 708, 709, 710, 711, 712, 713, 716, 717, 718, 742, 743, 744, 745, 756, 757, 762, 763, 766, 767, 768, 770, 771, 772, 773, 774, 775, 776, 782, 783, 799, 800 (0 recoverable) 
** Defect LAR_EMECA_SEVNOISEBURST **
Affecting 2 LBs: 771, 772 (0 recoverable) 
** Defect LAR_EMECC_NOISEBURST(INTOLERABLE) **
Affecting 86 LBs: 314, 315, 334, 335, 344, 345, 348, 349, 355, 356, 361, 362, 366, 367, 369, 370, 373, 374, 400, 401, 416, 417, 425, 426, 428, 429, 441, 442, 446, 447, 454, 455, 457, 458, 461, 462, 485, 486, 512, 513, 535, 536, 548, 549, 591, 592, 602, 603, 614, 615, 620, 621, 630, 631, 633, 634, 672, 673, 675, 676, 678, 679, 688, 689, 704, 705, 720, 721, 728, 729, 744, 745, 747, 748, 778, 779, 782, 783, 788, 789, 791, 792, 794, 795, 802, 803 (0 recoverable) 
** Defect LAR_EMECA_NOISEBURST(INTOLERABLE) **
Affecting 122 LBs: 322, 323, 324, 325, 326, 332, 333, 337, 338, 349, 350, 353, 354, 374, 375, 405, 406, 418, 419, 431, 432, 433, 460, 461, 467, 468, 472, 473, 480, 481, 486, 487, 496, 497, 498, 499, 500, 513, 514, 526, 527, 528, 543, 544, 545, 552, 553, 563, 564, 568, 569, 574, 575, 585, 586, 602, 603, 609, 610, 611, 612, 619, 620, 622, 623, 630, 631, 636, 637, 641, 642, 643, 644, 650, 651, 652, 653, 654, 662, 663, 683, 684, 685, 686, 687, 688, 693, 694, 695, 698, 699, 708, 709, 710, 711, 712, 713, 716, 717, 718, 742, 743, 744, 745, 756, 757, 762, 763, 766, 767, 768, 770, 771, 772, 773, 774, 775, 776, 782, 783, 799, 800 (0 recoverable) 
** Defect LAR_FCALA_SEVNOISEBURST **
Affecting 2 LBs: 771, 772 (0 recoverable) 
