Discussed in https://its.cern.ch/jira/browse/ATLLARSWDPQ-1116

== Noisy cells update for run 451587 (Tue, 16 May 2023 10:27:02 +0200) ==
Tool version:WebDisplayExtractor-07-01-02 / Stream:physics_CosmicCalo / Source:tier0 / Processing version:3 (x739_h420)
Cluster matching: based on Et > 4/10GeV plots requiring at least 100 events
Flagged cells:271
Flagged in PS:91
Unflagged by DQ shifters:43
Changed to SBN:10
Changed to HNHG:0
SBN:156
SBN in PS:38
HNHG:115
HNHG in PS:53

*****************
The treated cells were:
0 0 1 13 121 0 sporadicBurstNoise  # 0x380e7900 -> 0x2d405ce4
0 0 5 1 0 0 highNoiseHG  # 0x38280000 -> 0x2d00002a
0 0 5 1 5 0 highNoiseHG  # 0x38280500 -> 0x2d000228
0 0 5 1 6 0 sporadicBurstNoise  # 0x38280600 -> 0x2d000428
0 0 5 1 14 0 sporadicBurstNoise  # 0x38280e00 -> 0x2d000c28
0 0 5 10 102 0 sporadicBurstNoise  # 0x382ce600 -> 0x2d6032a2
0 0 5 10 103 0 sporadicBurstNoise  # 0x382ce700 -> 0x2d6032a0
0 0 9 1 1 0 highNoiseHG  # 0x38480100 -> 0x2d00021a
0 0 9 1 2 0 sporadicBurstNoise  # 0x38480200 -> 0x2d00041a
0 0 9 1 4 0 highNoiseHG  # 0x38480400 -> 0x2d000018
0 0 9 1 5 0 sporadicBurstNoise  # 0x38480500 -> 0x2d000218
0 0 11 1 4 0 sporadicBurstNoise  # 0x38580400 -> 0x2d000010
0 0 11 1 23 0 highNoiseHG  # 0x38581700 -> 0x2d001610
0 0 11 1 28 0 sporadicBurstNoise  # 0x38581c00 -> 0x2d001810
0 0 13 1 23 0 sporadicBurstNoise  # 0x38681700 -> 0x2d001608
0 0 13 1 28 0 sporadicBurstNoise  # 0x38681c00 -> 0x2d001808
0 0 13 1 35 0 sporadicBurstNoise  # 0x38682300 -> 0x2d00260a
0 0 14 2 28 0 sporadicBurstNoise  # 0x38709c00 -> 0x2d203806
0 0 14 2 119 0 sporadicBurstNoise  # 0x3870f700 -> 0x2d206e04
0 0 14 2 120 0 sporadicBurstNoise  # 0x3870f800 -> 0x2d207004
0 0 14 12 86 0 sporadicBurstNoise  # 0x3875d600 -> 0x2d402a12
0 0 15 5 62 0 sporadicBurstNoise  # 0x387a3e00 -> 0x2d21fc02
0 0 15 5 63 0 sporadicBurstNoise  # 0x387a3f00 -> 0x2d21fe02
0 0 15 12 72 0 sporadicBurstNoise  # 0x387dc800 -> 0x2d402406
0 0 15 13 80 0 sporadicBurstNoise  # 0x387e5000 -> 0x2d404806
0 0 15 13 84 0 sporadicBurstNoise  # 0x387e5400 -> 0x2d404a06
0 0 15 13 86 0 sporadicBurstNoise  # 0x387e5600 -> 0x2d404a02
0 0 15 13 87 0 sporadicBurstNoise  # 0x387e5700 -> 0x2d404a00
0 0 15 13 89 0 sporadicBurstNoise  # 0x387e5900 -> 0x2d404c04
0 0 15 13 90 0 sporadicBurstNoise  # 0x387e5a00 -> 0x2d404c02
0 0 15 13 91 0 highNoiseHG  # 0x387e5b00 -> 0x2d404c00
0 0 15 13 92 0 sporadicBurstNoise  # 0x387e5c00 -> 0x2d404e06
0 0 15 14 36 0 sporadicBurstNoise  # 0x387ea400 -> 0x2d406a0e
0 0 15 14 40 0 sporadicBurstNoise  # 0x387ea800 -> 0x2d406c0e
0 0 17 2 12 0 sporadicBurstNoise  # 0x38888c00 -> 0x2d20187a
0 0 17 7 54 0 sporadicBurstNoise  # 0x388b3600 -> 0x2d22ec7a
0 0 17 7 55 0 sporadicBurstNoise  # 0x388b3700 -> 0x2d22ee7a
0 0 17 10 20 0 sporadicBurstNoise  # 0x388c9400 -> 0x2d602bee
0 0 17 10 21 0 highNoiseHG  # 0x388c9500 -> 0x2d602bec
0 0 18 1 5 0 sporadicBurstNoise  # 0x38900500 -> 0x2d000274
0 0 21 1 17 0 highNoiseHG  # 0x38a81100 -> 0x2d00126a
0 0 21 1 18 0 sporadicBurstNoise  # 0x38a81200 -> 0x2d00146a
0 0 21 1 25 0 sporadicBurstNoise  # 0x38a81900 -> 0x2d001a6a
0 0 21 11 65 0 sporadicBurstNoise  # 0x38ad4100 -> 0x2d4001a4
0 0 22 1 1 0 sporadicBurstNoise  # 0x38b00100 -> 0x2d000266
0 0 22 7 0 0 sporadicBurstNoise  # 0x38b30000 -> 0x2d228066
0 0 22 7 1 0 sporadicBurstNoise  # 0x38b30100 -> 0x2d228266
0 0 22 7 2 0 sporadicBurstNoise  # 0x38b30200 -> 0x2d228466
0 0 22 7 3 0 sporadicBurstNoise  # 0x38b30300 -> 0x2d228666
0 0 22 7 4 0 sporadicBurstNoise  # 0x38b30400 -> 0x2d228866
0 0 22 7 5 0 sporadicBurstNoise  # 0x38b30500 -> 0x2d228a66
0 0 22 7 6 0 sporadicBurstNoise  # 0x38b30600 -> 0x2d228c66
0 0 22 7 7 0 sporadicBurstNoise  # 0x38b30700 -> 0x2d228e66
0 0 23 3 63 0 sporadicBurstNoise  # 0x38b93f00 -> 0x2d20fe62
0 0 23 4 0 0 sporadicBurstNoise  # 0x38b98000 -> 0x2d210062
0 0 23 9 29 0 sporadicBurstNoise  # 0x38bc1d00 -> 0x2d600f8c
0 0 23 14 35 0 sporadicBurstNoise  # 0x38bea300 -> 0x2d406988
0 0 24 8 11 0 sporadicBurstNoise  # 0x38c38b00 -> 0x2d23165e
0 0 24 8 12 0 sporadicBurstNoise  # 0x38c38c00 -> 0x2d23185e
0 0 24 8 13 0 sporadicBurstNoise  # 0x38c38d00 -> 0x2d231a5e
0 0 25 1 22 0 sporadicBurstNoise  # 0x38c81600 -> 0x2d001458
0 0 25 1 24 0 sporadicBurstNoise  # 0x38c81800 -> 0x2d00185a
0 0 25 1 31 0 sporadicBurstNoise  # 0x38c81f00 -> 0x2d001e58
0 0 25 1 64 0 highNoiseHG  # 0x38c84000 -> 0x2d00405a
0 0 25 12 15 0 sporadicBurstNoise  # 0x38cd8f00 -> 0x2d402768
0 0 26 1 19 0 sporadicBurstNoise  # 0x38d01300 -> 0x2d001656
0 0 26 1 59 0 sporadicBurstNoise  # 0x38d03b00 -> 0x2d003e56
0 0 30 1 1 0 sporadicBurstNoise  # 0x38f00100 -> 0x2d000246
0 0 30 1 4 0 sporadicBurstNoise  # 0x38f00400 -> 0x2d000044
0 0 30 1 5 0 sporadicBurstNoise  # 0x38f00500 -> 0x2d000244
0 0 30 1 6 0 highNoiseHG  # 0x38f00600 -> 0x2d000444
0 0 30 1 13 0 sporadicBurstNoise  # 0x38f00d00 -> 0x2d000a44
0 0 30 1 15 0 sporadicBurstNoise  # 0x38f00f00 -> 0x2d000e44
0 0 31 6 4 0 sporadicBurstNoise  # 0x38fa8400 -> 0x2d220842
0 1 1 8 64 0 sporadicBurstNoise  # 0x390bc000 -> 0x2da30006
0 1 1 8 65 0 sporadicBurstNoise  # 0x390bc100 -> 0x2da30206
0 1 1 8 66 0 sporadicBurstNoise  # 0x390bc200 -> 0x2da30406
0 1 2 11 46 0 sporadicBurstNoise  # 0x39152e00 -> 0x2dc01624
0 1 2 13 72 0 sporadicBurstNoise  # 0x39164800 -> 0x2dc04428
0 1 3 8 27 0 sporadicBurstNoise  # 0x391b9b00 -> 0x2da3360c
0 1 3 8 28 0 sporadicBurstNoise  # 0x391b9c00 -> 0x2da3380c
0 1 3 8 29 0 sporadicBurstNoise  # 0x391b9d00 -> 0x2da33a0c
0 1 3 8 30 0 sporadicBurstNoise  # 0x391b9e00 -> 0x2da33c0c
0 1 5 1 72 0 highNoiseHG  # 0x39284800 -> 0x2d804814
0 1 5 14 27 0 sporadicBurstNoise  # 0x392e9b00 -> 0x2dc0645e
0 1 6 12 64 0 sporadicBurstNoise  # 0x3935c000 -> 0x2dc02068
0 1 7 1 43 0 sporadicBurstNoise  # 0x39382b00 -> 0x2d802e1c
0 1 8 1 70 0 highNoiseHG  # 0x39404600 -> 0x2d804422
0 1 8 9 67 0 sporadicBurstNoise  # 0x39444300 -> 0x2de0008e
0 1 8 11 89 0 sporadicBurstNoise  # 0x39455900 -> 0x2dc00c8a
0 1 9 1 21 0 sporadicBurstNoise  # 0x39481500 -> 0x2d801226
0 1 9 1 22 0 highNoiseHG  # 0x39481600 -> 0x2d801426
0 1 11 1 15 0 sporadicBurstNoise  # 0x39580f00 -> 0x2d800e2e
0 1 13 13 102 0 sporadicBurstNoise  # 0x396e6600 -> 0x2dc052dc
0 1 16 1 43 0 sporadicBurstNoise  # 0x39802b00 -> 0x2d802e40
0 1 16 1 48 0 highNoiseHG  # 0x39803000 -> 0x2d803040
0 1 16 6 96 0 sporadicBurstNoise  # 0x3982e000 -> 0x2da24042
0 1 16 6 97 0 sporadicBurstNoise  # 0x3982e100 -> 0x2da24242
0 1 16 6 98 0 sporadicBurstNoise  # 0x3982e200 -> 0x2da24442
0 1 16 6 99 0 sporadicBurstNoise  # 0x3982e300 -> 0x2da24642
0 1 16 6 100 0 sporadicBurstNoise  # 0x3982e400 -> 0x2da24842
0 1 16 6 101 0 sporadicBurstNoise  # 0x3982e500 -> 0x2da24a42
0 1 17 6 31 0 sporadicBurstNoise  # 0x398a9f00 -> 0x2da23e44
0 1 18 12 76 0 sporadicBurstNoise  # 0x3995cc00 -> 0x2dc02728
0 1 21 3 10 0 sporadicBurstNoise  # 0x39a90a00 -> 0x2da09454
0 1 21 3 11 0 sporadicBurstNoise  # 0x39a90b00 -> 0x2da09654
0 1 21 3 12 0 sporadicBurstNoise  # 0x39a90c00 -> 0x2da09854
0 1 21 11 10 0 sporadicBurstNoise  # 0x39ad0a00 -> 0x2dc00554
0 1 22 13 123 0 sporadicBurstNoise  # 0x39b67b00 -> 0x2dc05d6e
0 1 23 2 1 0 sporadicBurstNoise  # 0x39b88100 -> 0x2da0025c
0 1 23 2 2 0 sporadicBurstNoise  # 0x39b88200 -> 0x2da0045c
0 1 24 11 55 0 sporadicBurstNoise  # 0x39c53700 -> 0x2dc01b86
0 1 25 1 7 0 sporadicBurstNoise  # 0x39c80700 -> 0x2d800666
0 1 28 12 6 0 sporadicBurstNoise  # 0x39e58600 -> 0x2dc023c4
0 1 30 1 2 0 sporadicBurstNoise  # 0x39f00200 -> 0x2d800478
0 1 31 10 21 0 sporadicBurstNoise  # 0x39fc9500 -> 0x2de02bf2
1 0 1 1 1 0 highNoiseHG  # 0x3a080100 -> 0x2c800a36
1 0 1 1 3 0 highNoiseHG  # 0x3a080300 -> 0x2c800e36
1 0 1 1 5 0 unflaggedByLADIeS  # 0x3a080500 -> 0x2c800a34
1 0 1 1 7 0 unflaggedByLADIeS  # 0x3a080700 -> 0x2c800e34
1 0 1 1 11 0 highNoiseHG  # 0x3a080b00 -> 0x2c801636
1 0 1 1 13 0 unflaggedByLADIeS  # 0x3a080d00 -> 0x2c801234
1 0 1 1 15 0 unflaggedByLADIeS  # 0x3a080f00 -> 0x2c801634
1 0 1 1 17 0 highNoiseHG  # 0x3a081100 -> 0x2c800a32
1 0 1 1 19 0 highNoiseHG  # 0x3a081300 -> 0x2c800e32
1 0 1 1 20 0 highNoiseHG  # 0x3a081400 -> 0x2c800830
1 0 1 1 21 0 unflaggedByLADIeS  # 0x3a081500 -> 0x2c800a30
1 0 1 1 22 0 highNoiseHG  # 0x3a081600 -> 0x2c800c30
1 0 1 1 23 0 unflaggedByLADIeS  # 0x3a081700 -> 0x2c800e30
1 0 1 1 25 0 highNoiseHG  # 0x3a081900 -> 0x2c801232
1 0 1 1 27 0 highNoiseHG  # 0x3a081b00 -> 0x2c801632
1 0 1 1 28 0 highNoiseHG  # 0x3a081c00 -> 0x2c801030
1 0 1 1 30 0 highNoiseHG  # 0x3a081e00 -> 0x2c801430
1 0 1 2 121 0 sporadicBurstNoise  # 0x3a08f900 -> 0x2ca87230
1 0 1 2 123 0 sporadicBurstNoise  # 0x3a08fb00 -> 0x2ca87630
1 0 1 2 125 0 sporadicBurstNoise  # 0x3a08fd00 -> 0x2ca87a30
1 0 1 2 127 0 sporadicBurstNoise  # 0x3a08ff00 -> 0x2ca87e30
1 0 1 3 125 0 sporadicBurstNoise  # 0x3a097d00 -> 0x2ca8ba30
1 0 1 3 127 0 sporadicBurstNoise  # 0x3a097f00 -> 0x2ca8be30
1 0 1 8 30 0 sporadicBurstNoise  # 0x3a0b9e00 -> 0x2ce006c2
1 0 1 10 62 0 sporadicBurstNoise  # 0x3a0cbe00 -> 0x2cc414c2
1 0 2 2 80 0 unflaggedByLADIeS  # 0x3a10d000 -> 0x2ca00026
1 0 2 2 84 0 highNoiseHG  # 0x3a10d400 -> 0x2ca00024
1 0 3 2 88 0 highNoiseHG  # 0x3a18d800 -> 0x2c400c2e
1 0 3 6 111 0 highNoiseHG  # 0x3a1aef00 -> 0x31890000
1 0 5 1 1 0 highNoiseHG  # 0x3a280100 -> 0x2c800a26
1 0 5 1 3 0 unflaggedByLADIeS  # 0x3a280300 -> 0x2c800e26
1 0 5 1 5 0 unflaggedByLADIeS  # 0x3a280500 -> 0x2c800a24
1 0 5 1 7 0 highNoiseHG  # 0x3a280700 -> 0x2c800e24
1 0 5 1 9 0 highNoiseHG  # 0x3a280900 -> 0x2c801226
1 0 5 1 11 0 highNoiseHG  # 0x3a280b00 -> 0x2c801626
1 0 5 1 13 0 unflaggedByLADIeS  # 0x3a280d00 -> 0x2c801224
1 0 5 1 15 0 unflaggedByLADIeS  # 0x3a280f00 -> 0x2c801624
1 0 5 1 17 0 highNoiseHG  # 0x3a281100 -> 0x2c800a22
1 0 5 1 19 0 highNoiseHG  # 0x3a281300 -> 0x2c800e22
1 0 5 1 21 0 unflaggedByLADIeS  # 0x3a281500 -> 0x2c800a20
1 0 5 1 23 0 unflaggedByLADIeS  # 0x3a281700 -> 0x2c800e20
1 0 5 1 25 0 highNoiseHG  # 0x3a281900 -> 0x2c801222
1 0 5 1 27 0 highNoiseHG  # 0x3a281b00 -> 0x2c801622
1 0 5 1 29 0 unflaggedByLADIeS  # 0x3a281d00 -> 0x2c801220
1 0 5 1 31 0 unflaggedByLADIeS  # 0x3a281f00 -> 0x2c801620
1 0 5 7 102 0 sporadicBurstNoise  # 0x3a2b6600 -> 0x2cb06c22
1 0 5 7 103 0 sporadicBurstNoise  # 0x3a2b6700 -> 0x2cb06e22
1 0 5 7 104 0 sporadicBurstNoise  # 0x3a2b6800 -> 0x2cb07022
1 0 6 1 1 0 highNoiseHG  # 0x3a300100 -> 0x341ce000
1 0 6 1 16 0 highNoiseHG  # 0x3a301000 -> 0x343ee000
1 0 6 1 29 0 highNoiseHG  # 0x3a301d00 -> 0x3424e000
1 0 6 1 41 0 highNoiseHG  # 0x3a302900 -> 0x344ce000
1 0 6 1 43 0 highNoiseHG  # 0x3a302b00 -> 0x3448e000
1 0 6 1 45 0 highNoiseHG  # 0x3a302d00 -> 0x3444e000
1 0 6 1 47 0 highNoiseHG  # 0x3a302f00 -> 0x3440e000
1 0 6 1 64 0 highNoiseHG  # 0x3a304000 -> 0x341ec000
1 0 6 1 65 0 lowNoiseHG highNoiseHG  # 0x3a304100 -> 0x341cc000
1 0 6 1 66 0 highNoiseHG  # 0x3a304200 -> 0x341ac000
1 0 6 1 67 0 highNoiseHG  # 0x3a304300 -> 0x3418c000
1 0 6 1 69 0 highNoiseHG  # 0x3a304500 -> 0x3414c000
1 0 6 1 71 0 highNoiseHG  # 0x3a304700 -> 0x3410c000
1 0 6 1 72 0 highNoiseHG  # 0x3a304800 -> 0x340ec000
1 0 6 1 73 0 highNoiseHG  # 0x3a304900 -> 0x340cc000
1 0 6 1 74 0 highNoiseHG  # 0x3a304a00 -> 0x340ac000
1 0 6 1 75 0 highNoiseHG  # 0x3a304b00 -> 0x3408c000
1 0 6 1 76 0 highNoiseHG  # 0x3a304c00 -> 0x3406c000
1 0 6 1 77 0 highNoiseHG  # 0x3a304d00 -> 0x3404c000
1 0 6 1 78 0 highNoiseHG  # 0x3a304e00 -> 0x3402c000
1 0 6 1 79 0 highNoiseHG  # 0x3a304f00 -> 0x3400c000
1 0 6 1 81 0 highNoiseHG  # 0x3a305100 -> 0x343cc000
1 0 6 1 83 0 highNoiseHG  # 0x3a305300 -> 0x3438c000
1 0 6 1 85 0 highNoiseHG  # 0x3a305500 -> 0x3434c000
1 0 6 1 87 0 highNoiseHG  # 0x3a305700 -> 0x3430c000
1 0 6 1 89 0 highNoiseHG  # 0x3a305900 -> 0x342cc000
1 0 6 1 91 0 highNoiseHG  # 0x3a305b00 -> 0x3428c000
1 0 6 1 93 0 highNoiseHG  # 0x3a305d00 -> 0x3424c000
1 0 6 1 95 0 highNoiseHG  # 0x3a305f00 -> 0x3420c000
1 0 6 1 101 0 highNoiseHG  # 0x3a306500 -> 0x3454c000
1 0 6 1 103 0 unflaggedByLADIeS  # 0x3a306700 -> 0x3450c000
1 0 6 1 105 0 highNoiseHG  # 0x3a306900 -> 0x344cc000
1 0 6 1 107 0 highNoiseHG  # 0x3a306b00 -> 0x3448c000
1 0 6 1 109 0 highNoiseHG  # 0x3a306d00 -> 0x3444c000
1 0 6 1 111 0 highNoiseHG  # 0x3a306f00 -> 0x3440c000
1 0 6 5 58 0 unflaggedByLADIeS  # 0x3a323a00 -> 0x346be000
1 0 6 12 53 0 distorted highNoiseHG  # 0x3a35b500 -> 0x34b5e000
1 0 10 5 94 0 highNoiseHG  # 0x3a525e00 -> 0x31048000
1 0 10 8 78 0 highNoiseHG  # 0x3a53ce00 -> 0x31100000
1 0 10 8 94 0 distorted highNoiseHG  # 0x3a53de00 -> 0x31140000
1 0 10 8 122 0 highNoiseHG  # 0x3a53fa00 -> 0x311c1000
1 0 11 8 12 0 sporadicBurstNoise  # 0x3a5b8c00 -> 0x2ce00636
1 0 13 11 63 0 sporadicBurstNoise  # 0x3a6d3f00 -> 0x2cc425e0
1 0 13 11 115 0 sporadicBurstNoise  # 0x3a6d7300 -> 0x2cc427e0
1 0 19 1 20 0 unflaggedByLADIeS  # 0x3a981400 -> 0x2c800858
1 0 19 1 22 0 unflaggedByLADIeS  # 0x3a981600 -> 0x2c800c58
1 0 19 1 27 0 highNoiseHG  # 0x3a981b00 -> 0x2c80165a
1 0 19 1 31 0 unflaggedByLADIeS  # 0x3a981f00 -> 0x2c801658
1 0 19 10 105 0 sporadicBurstNoise  # 0x3a9ce900 -> 0x2cc41b6c
1 0 20 1 0 0 highNoiseHG  # 0x3aa00000 -> 0x2c800856
1 0 20 1 1 0 sporadicBurstNoise  # 0x3aa00100 -> 0x2c800a56
1 0 20 1 2 0 highNoiseHG  # 0x3aa00200 -> 0x2c800c56
1 0 20 1 3 0 sporadicBurstNoise  # 0x3aa00300 -> 0x2c800e56
1 0 20 1 4 0 unflaggedByLADIeS  # 0x3aa00400 -> 0x2c800854
1 0 20 1 5 0 highNoiseHG  # 0x3aa00500 -> 0x2c800a54
1 0 20 1 6 0 unflaggedByLADIeS  # 0x3aa00600 -> 0x2c800c54
1 0 20 1 7 0 sporadicBurstNoise  # 0x3aa00700 -> 0x2c800e54
1 0 20 1 9 0 sporadicBurstNoise  # 0x3aa00900 -> 0x2c801256
1 0 20 1 10 0 unflaggedByLADIeS  # 0x3aa00a00 -> 0x2c801456
1 0 20 1 11 0 highNoiseHG  # 0x3aa00b00 -> 0x2c801656
1 0 20 1 12 0 highNoiseHG  # 0x3aa00c00 -> 0x2c801054
1 0 20 1 13 0 sporadicBurstNoise  # 0x3aa00d00 -> 0x2c801254
1 0 20 1 14 0 highNoiseHG  # 0x3aa00e00 -> 0x2c801454
1 0 20 1 15 0 unflaggedByLADIeS  # 0x3aa00f00 -> 0x2c801654
1 0 20 1 16 0 highNoiseHG  # 0x3aa01000 -> 0x2c800852
1 0 20 1 17 0 sporadicBurstNoise  # 0x3aa01100 -> 0x2c800a52
1 0 20 1 18 0 highNoiseHG  # 0x3aa01200 -> 0x2c800c52
1 0 20 1 19 0 highNoiseHG  # 0x3aa01300 -> 0x2c800e52
1 0 20 1 23 0 sporadicBurstNoise  # 0x3aa01700 -> 0x2c800e50
1 0 20 1 24 0 unflaggedByLADIeS  # 0x3aa01800 -> 0x2c801052
1 0 20 1 25 0 highNoiseHG  # 0x3aa01900 -> 0x2c801252
1 0 20 1 26 0 unflaggedByLADIeS  # 0x3aa01a00 -> 0x2c801452
1 0 20 1 27 0 highNoiseHG  # 0x3aa01b00 -> 0x2c801652
1 0 20 1 28 0 highNoiseHG  # 0x3aa01c00 -> 0x2c801050
1 0 20 1 29 0 sporadicBurstNoise  # 0x3aa01d00 -> 0x2c801250
1 0 20 1 30 0 highNoiseHG  # 0x3aa01e00 -> 0x2c801450
1 0 20 1 31 0 sporadicBurstNoise  # 0x3aa01f00 -> 0x2c801650
1 0 20 10 87 0 sporadicBurstNoise  # 0x3aa4d700 -> 0x2cc41950
1 0 20 10 96 0 sporadicBurstNoise  # 0x3aa4e000 -> 0x2cc4174e
1 0 20 10 100 0 sporadicBurstNoise  # 0x3aa4e400 -> 0x2cc4194e
1 0 20 10 104 0 sporadicBurstNoise  # 0x3aa4e800 -> 0x2cc41b4e
1 0 20 10 108 0 sporadicBurstNoise  # 0x3aa4ec00 -> 0x2cc41d4e
1 0 20 13 64 0 sporadicBurstNoise  # 0x3aa64000 -> 0x2cc4475e
1 0 21 1 12 0 unflaggedByLADIeS  # 0x3aa80c00 -> 0x2c800058
1 0 21 1 13 0 highNoiseHG  # 0x3aa80d00 -> 0x2c800258
1 0 21 1 15 0 highNoiseHG  # 0x3aa80f00 -> 0x2c800658
1 0 21 1 16 0 highNoiseHG  # 0x3aa81000 -> 0x2c800056
1 0 21 1 18 0 highNoiseHG  # 0x3aa81200 -> 0x2c800456
1 0 21 1 19 0 unflaggedByLADIeS  # 0x3aa81300 -> 0x2c800656
1 0 21 1 20 0 unflaggedByLADIeS  # 0x3aa81400 -> 0x2c800054
1 0 21 1 21 0 unflaggedByLADIeS  # 0x3aa81500 -> 0x2c800254
1 0 21 1 22 0 unflaggedByLADIeS  # 0x3aa81600 -> 0x2c800454
1 0 21 1 23 0 highNoiseHG  # 0x3aa81700 -> 0x2c800654
1 0 21 1 24 0 highNoiseHG  # 0x3aa81800 -> 0x2c800052
1 0 21 1 25 0 unflaggedByLADIeS  # 0x3aa81900 -> 0x2c800252
1 0 21 1 26 0 highNoiseHG  # 0x3aa81a00 -> 0x2c800452
1 0 21 1 27 0 unflaggedByLADIeS  # 0x3aa81b00 -> 0x2c800652
1 0 21 1 28 0 unflaggedByLADIeS  # 0x3aa81c00 -> 0x2c800050
1 0 21 1 29 0 unflaggedByLADIeS  # 0x3aa81d00 -> 0x2c800250
1 0 21 1 30 0 unflaggedByLADIeS  # 0x3aa81e00 -> 0x2c800450
1 0 21 1 31 0 highNoiseHG  # 0x3aa81f00 -> 0x2c800650
1 0 21 2 0 0 highNoiseHG  # 0x3aa88000 -> 0x2ca0005e
1 0 21 2 4 0 sporadicBurstNoise  # 0x3aa88400 -> 0x2ca0005c
1 0 21 2 8 0 highNoiseHG  # 0x3aa88800 -> 0x2ca0005a
1 0 21 2 12 0 unflaggedByLADIeS  # 0x3aa88c00 -> 0x2ca00058
1 0 21 2 16 0 highNoiseHG  # 0x3aa89000 -> 0x2ca00056
1 0 21 2 24 0 sporadicBurstNoise  # 0x3aa89800 -> 0x2ca00052
1 0 21 2 28 0 sporadicBurstNoise  # 0x3aa89c00 -> 0x2ca00050
1 0 21 2 76 0 unflaggedByLADIeS  # 0x3aa8cc00 -> 0x2ca00048
1 0 21 2 80 0 highNoiseHG  # 0x3aa8d000 -> 0x2ca00046
1 0 21 2 84 0 sporadicBurstNoise  # 0x3aa8d400 -> 0x2ca00044
1 0 21 2 88 0 highNoiseHG  # 0x3aa8d800 -> 0x2ca00042
1 0 21 3 64 0 sporadicBurstNoise  # 0x3aa94000 -> 0x2cc0015e
1 0 21 3 68 0 sporadicBurstNoise  # 0x3aa94400 -> 0x2cc4015e
1 0 21 3 123 0 sporadicBurstNoise  # 0x3aa97b00 -> 0x2cc40340
1 0 21 3 127 0 sporadicBurstNoise  # 0x3aa97f00 -> 0x2cc40540
1 0 21 13 123 0 sporadicBurstNoise  # 0x3aae7b00 -> 0x2ce02500
1 0 21 15 115 0 sporadicBurstNoise  # 0x3aaf7300 -> 0x2cc44f00
1 1 6 4 61 0 unflaggedByLADIeS  # 0x3b31bd00 -> 0x3664c000
1 1 6 9 122 0 unflaggedByLADIeS  # 0x3b347a00 -> 0x366be000
1 1 6 9 123 0 unflaggedByLADIeS  # 0x3b347b00 -> 0x3669e000
1 1 6 11 115 0 unflaggedByLADIeS  # 0x3b357300 -> 0x36b8c000
1 1 6 13 85 0 highNoiseHG  # 0x3b365500 -> 0x36b5e000
1 1 6 14 62 0 highNoiseHG  # 0x3b36be00 -> 0x37020000
1 1 6 14 83 0 distorted highNoiseHG  # 0x3b36d300 -> 0x3718c000
1 1 6 15 54 0 highNoiseHG  # 0x3b373600 -> 0x37130000
1 1 6 15 60 0 lowNoiseHG highNoiseHG  # 0x3b373c00 -> 0x37070000
1 1 6 15 62 0 highNoiseHG  # 0x3b373e00 -> 0x37030000
1 1 6 15 63 0 unflaggedByLADIeS  # 0x3b373f00 -> 0x37010000
1 1 6 15 64 0 highNoiseHG  # 0x3b374000 -> 0x371fe000
1 1 6 15 72 0 lowNoiseHG highNoiseHG  # 0x3b374800 -> 0x370fe000
1 1 6 15 76 0 lowNoiseHG highNoiseHG  # 0x3b374c00 -> 0x3707e000
1 1 6 15 126 0 highNoiseHG  # 0x3b377e00 -> 0x37038000
1 1 6 15 127 0 highNoiseHG  # 0x3b377f00 -> 0x37018000
1 1 9 13 26 0 sporadicBurstNoise  # 0x3b4e1a00 -> 0x2e60249c
1 1 9 13 27 0 sporadicBurstNoise  # 0x3b4e1b00 -> 0x2e60249e
1 1 9 13 30 0 sporadicBurstNoise  # 0x3b4e1e00 -> 0x2e60269c
1 1 9 13 31 0 sporadicBurstNoise  # 0x3b4e1f00 -> 0x2e60269e
1 1 9 14 54 0 sporadicBurstNoise  # 0x3b4eb600 -> 0x2e44509c
1 1 9 14 55 0 sporadicBurstNoise  # 0x3b4eb700 -> 0x2e44509e
1 1 9 14 58 0 sporadicBurstNoise  # 0x3b4eba00 -> 0x2e44529c
1 1 9 14 59 0 sporadicBurstNoise  # 0x3b4ebb00 -> 0x2e44529e
1 1 9 14 62 0 sporadicBurstNoise  # 0x3b4ebe00 -> 0x2e44549c
1 1 9 14 63 0 sporadicBurstNoise  # 0x3b4ebf00 -> 0x2e44549e
1 1 10 6 42 0 highNoiseHG  # 0x3b52aa00 -> 0x3309a000
1 1 21 4 65 0 sporadicBurstNoise  # 0x3ba9c100 -> 0x2e4001e2
1 1 21 4 116 0 sporadicBurstNoise  # 0x3ba9f400 -> 0x2e4401f8
1 1 21 5 43 0 sporadicBurstNoise  # 0x3baa2b00 -> 0x2e281662
1 1 21 5 44 0 sporadicBurstNoise  # 0x3baa2c00 -> 0x2e281862
1 1 22 10 109 0 highNoiseHG  # 0x3bb4ed00 -> 0x32c5f000

