Discussed in https://its.cern.ch/jira/browse/ATLLARSWDPQ-1106

** Defect LAR_HECA_NOISEBURST(INTOLERABLE) **
Affecting 28 LBs: 298, 299, 312, 313, 388, 389, 391, 392, 415, 416, 438, 439, 451, 452, 660, 661, 680, 681, 727, 728, 796, 797, 805, 806, 820, 821, 909, 910 (0 recoverable) 
** Defect LAR_HECC_NOISEBURST(INTOLERABLE) **
Affecting 85 LBs: 249, 250, 280, 281, 375, 376, 390, 391, 392, 398, 399, 427, 428, 455, 456, 467, 468, 512, 513, 536, 537, 552, 553, 563, 564, 568, 569, 580, 581, 597, 598, 612, 613, 622, 623, 635, 636, 690, 691, 704, 705, 713, 714, 726, 727, 756, 757, 760, 761, 779, 780, 788, 789, 794, 795, 820, 821, 823, 824, 825, 826, 827, 828, 833, 834, 846, 847, 867, 868, 869, 870, 875, 876, 883, 884, 890, 891, 893, 894, 900, 901, 919, 920, 931, 932 (0 recoverable) 
** Defect LAR_EMECA_NOISEBURST(INTOLERABLE) **
Affecting 28 LBs: 298, 299, 312, 313, 388, 389, 391, 392, 415, 416, 438, 439, 451, 452, 660, 661, 680, 681, 727, 728, 796, 797, 805, 806, 820, 821, 909, 910 (0 recoverable) 
** Defect LAR_EMECC_NOISEBURST(INTOLERABLE) **
Affecting 85 LBs: 249, 250, 280, 281, 375, 376, 390, 391, 392, 398, 399, 427, 428, 455, 456, 467, 468, 512, 513, 536, 537, 552, 553, 563, 564, 568, 569, 580, 581, 597, 598, 612, 613, 622, 623, 635, 636, 690, 691, 704, 705, 713, 714, 726, 727, 756, 757, 760, 761, 779, 780, 788, 789, 794, 795, 820, 821, 823, 824, 825, 826, 827, 828, 833, 834, 846, 847, 867, 868, 869, 870, 875, 876, 883, 884, 890, 891, 893, 894, 900, 901, 919, 920, 931, 932 (0 recoverable) 
** Defect LAR_FCALA_NOISEBURST(INTOLERABLE) **
Affecting 28 LBs: 298, 299, 312, 313, 388, 389, 391, 392, 415, 416, 438, 439, 451, 452, 660, 661, 680, 681, 727, 728, 796, 797, 805, 806, 820, 821, 909, 910 (0 recoverable) 
** Defect LAR_FCALC_NOISEBURST(INTOLERABLE) **
Affecting 85 LBs: 249, 250, 280, 281, 375, 376, 390, 391, 392, 398, 399, 427, 428, 455, 456, 467, 468, 512, 513, 536, 537, 552, 553, 563, 564, 568, 569, 580, 581, 597, 598, 612, 613, 622, 623, 635, 636, 690, 691, 704, 705, 713, 714, 726, 727, 756, 757, 760, 761, 779, 780, 788, 789, 794, 795, 820, 821, 823, 824, 825, 826, 827, 828, 833, 834, 846, 847, 867, 868, 869, 870, 875, 876, 883, 884, 890, 891, 893, 894, 900, 901, 919, 920, 931, 932 (0 recoverable) 
