Run,Jira,Express,Express Noisy Cells,Bulk,Bulk Noisy Cells,Defects {\textcolor{red}{(intol.)}},Notes
460009,=HYPERLINK("https://its.cern.ch/jira/projects/ATLLARSWDPQ/issues/ATLLARSWDPQ-1506"),"ATLLARSWDPQ-1506"),YES,56 SBN - 8 HNHG,YES,-,(Run consists of 527 LBs - 0.0 /pb),Some EVs identified offline: 12 noisy periods. 380 Mini noise periods. Lumi loss due to NB: 0.00 nb-1 / 1.81 nb-1 (0.00 per-mil). Lumi loss due to MNB: 0.00 nb-1 / 1.81 nb-1 (0.01 per-mil). 
460348,=HYPERLINK("https://its.cern.ch/jira/projects/ATLLARSWDPQ/issues/ATLLARSWDPQ-1532"),"ATLLARSWDPQ-1532"),YES,0 SBN - 5 HNHG,YES,0 SBN - 2 HNHG,LAR_HECC_NOISEBURST (61 LBs) - LAR_EMECC_NOISEBURST (61 LBs) - LAR_FCALC_NOISEBURST (61 LBs) - (Run consists of 1245 LBs - 0.0 /pb),-
460436,=HYPERLINK("https://its.cern.ch/jira/projects/ATLLARSWDPQ/issues/ATLLARSWDPQ-1534"),"ATLLARSWDPQ-1534"),YES,62 SBN - 12 HNHG,NO,-,(Run consists of 676 LBs - 0.0 /pb),Some EVs identified offline: 6 noisy periods. 365 Mini noise periods. Lumi loss due to NB: 0.00 nb-1 / 0.06 nb-1 (0.00 per-mil). Lumi loss due to MNB: 0.00 nb-1 / 0.06 nb-1 (0.01 per-mil). 
460493,=HYPERLINK("https://its.cern.ch/jira/projects/ATLLARSWDPQ/issues/ATLLARSWDPQ-1540"),"ATLLARSWDPQ-1540"),YES,0 SBN - 2 HNHG,NO,-,(Run consists of 504 LBs - 0.0 /pb),Some EVs identified offline: 15 noisy periods. 103 Mini noise periods. Lumi loss due to NB: 0.00 nb-1 / 0.03 nb-1 (0.00 per-mil). Lumi loss due to MNB: 0.00 nb-1 / 0.03 nb-1 (0.00 per-mil). 
