Discussed in https://its.cern.ch/jira/browse/ATLLARSWDPQ-832

** Defect LAR_DATACORRUPT **
Affecting 4 LBs: 1016, 1017, 1204, 1205 (4 recoverable) 
** Defect LAR_FCALC_NOISEBURST(INTOLERABLE) **
Affecting 70 LBs: 942, 943, 950, 951, 954, 955, 965, 966, 971, 972, 981, 982, 996, 997, 999, 1000, 1023, 1024, 1034, 1035, 1055, 1056, 1065, 1066, 1070, 1071, 1072, 1073, 1087, 1088, 1099, 1100, 1117, 1118, 1124, 1125, 1145, 1146, 1169, 1170, 1171, 1200, 1201, 1214, 1215, 1275, 1276, 1289, 1290, 1295, 1296, 1308, 1309, 1310, 1311, 1312, 1321, 1322, 1369, 1370, 1398, 1399, 1414, 1415, 1430, 1431, 1445, 1446, 1449, 1450 (0 recoverable) 
** Defect LAR_HECA_NOISEBURST(INTOLERABLE) **
Affecting 95 LBs: 895, 896, 901, 902, 928, 929, 932, 933, 971, 972, 973, 974, 975, 1004, 1005, 1011, 1012, 1015, 1016, 1025, 1026, 1027, 1047, 1048, 1058, 1059, 1070, 1071, 1072, 1073, 1082, 1083, 1087, 1088, 1089, 1113, 1114, 1119, 1120, 1136, 1137, 1138, 1141, 1142, 1152, 1153, 1154, 1160, 1161, 1167, 1168, 1169, 1176, 1177, 1180, 1181, 1184, 1185, 1186, 1203, 1204, 1208, 1209, 1225, 1226, 1229, 1230, 1239, 1240, 1245, 1246, 1248, 1249, 1261, 1262, 1266, 1267, 1292, 1293, 1294, 1295, 1300, 1301, 1311, 1312, 1324, 1325, 1332, 1333, 1349, 1350, 1355, 1356, 1372, 1373 (0 recoverable) 
** Defect LAR_HECC_NOISEBURST(INTOLERABLE) **
Affecting 70 LBs: 942, 943, 950, 951, 954, 955, 965, 966, 971, 972, 981, 982, 996, 997, 999, 1000, 1023, 1024, 1034, 1035, 1055, 1056, 1065, 1066, 1070, 1071, 1072, 1073, 1087, 1088, 1099, 1100, 1117, 1118, 1124, 1125, 1145, 1146, 1169, 1170, 1171, 1200, 1201, 1214, 1215, 1275, 1276, 1289, 1290, 1295, 1296, 1308, 1309, 1310, 1311, 1312, 1321, 1322, 1369, 1370, 1398, 1399, 1414, 1415, 1430, 1431, 1445, 1446, 1449, 1450 (0 recoverable) 
** Defect LAR_FCALA_NOISEBURST(INTOLERABLE) **
Affecting 95 LBs: 895, 896, 901, 902, 928, 929, 932, 933, 971, 972, 973, 974, 975, 1004, 1005, 1011, 1012, 1015, 1016, 1025, 1026, 1027, 1047, 1048, 1058, 1059, 1070, 1071, 1072, 1073, 1082, 1083, 1087, 1088, 1089, 1113, 1114, 1119, 1120, 1136, 1137, 1138, 1141, 1142, 1152, 1153, 1154, 1160, 1161, 1167, 1168, 1169, 1176, 1177, 1180, 1181, 1184, 1185, 1186, 1203, 1204, 1208, 1209, 1225, 1226, 1229, 1230, 1239, 1240, 1245, 1246, 1248, 1249, 1261, 1262, 1266, 1267, 1292, 1293, 1294, 1295, 1300, 1301, 1311, 1312, 1324, 1325, 1332, 1333, 1349, 1350, 1355, 1356, 1372, 1373 (0 recoverable) 
** Defect LAR_EMECC_NOISEBURST(INTOLERABLE) **
Affecting 70 LBs: 942, 943, 950, 951, 954, 955, 965, 966, 971, 972, 981, 982, 996, 997, 999, 1000, 1023, 1024, 1034, 1035, 1055, 1056, 1065, 1066, 1070, 1071, 1072, 1073, 1087, 1088, 1099, 1100, 1117, 1118, 1124, 1125, 1145, 1146, 1169, 1170, 1171, 1200, 1201, 1214, 1215, 1275, 1276, 1289, 1290, 1295, 1296, 1308, 1309, 1310, 1311, 1312, 1321, 1322, 1369, 1370, 1398, 1399, 1414, 1415, 1430, 1431, 1445, 1446, 1449, 1450 (0 recoverable) 
** Defect LAR_EMECA_NOISEBURST(INTOLERABLE) **
Affecting 95 LBs: 895, 896, 901, 902, 928, 929, 932, 933, 971, 972, 973, 974, 975, 1004, 1005, 1011, 1012, 1015, 1016, 1025, 1026, 1027, 1047, 1048, 1058, 1059, 1070, 1071, 1072, 1073, 1082, 1083, 1087, 1088, 1089, 1113, 1114, 1119, 1120, 1136, 1137, 1138, 1141, 1142, 1152, 1153, 1154, 1160, 1161, 1167, 1168, 1169, 1176, 1177, 1180, 1181, 1184, 1185, 1186, 1203, 1204, 1208, 1209, 1225, 1226, 1229, 1230, 1239, 1240, 1245, 1246, 1248, 1249, 1261, 1262, 1266, 1267, 1292, 1293, 1294, 1295, 1300, 1301, 1311, 1312, 1324, 1325, 1332, 1333, 1349, 1350, 1355, 1356, 1372, 1373 (0 recoverable) 
