Run,Jira,Express,Express Noisy Cells,Bulk,Bulk Noisy Cells,Defects {\textcolor{red}{(intol.)}},Notes
439519,ATLLARSWDPQ-782,YES,78 SBN - 9 HNHG,YES,81 SBN - 15 HNHG,LAR_FCALC_NOISEBURST (215 LBs) - LAR_HECA_NOISEBURST (105 LBs) - LAR_HECC_NOISEBURST (215 LBs) - {textcolor{red}{LAR_HECA_SEVNOISEBURST (2 LBs)}} - LAR_FCALA_NOISEBURST (105 LBs) - {textcolor{red}{LAR_EMECA_SEVNOISEBURST (2 LBs)}} - LAR_EMBA_NOISEBURST (2 LBs) - LAR_EMECC_NOISEBURST (215 LBs) - LAR_EMECA_NOISEBURST (105 LBs) - {textcolor{red}{LAR_FCALA_SEVNOISEBURST (2 LBs)}},Noise/data corruption found offline: 5 Veto Ranges with 11 events. 18 isolated events. a total of 5 corruption periods. Lumi loss due to corruption: 32.83 nb-1 / 476973.74 nb-1 . Some EVs identified offline: 6 noisy periods. 38 Mini noise periods. Lumi loss due to NB: 0.08 nb-1 / 476973.74 nb-1 (0.00 per-mil). Lumi loss due to MNB: 0.53 nb-1 / 476973.74 nb-1 (0.00 per-mil). 
439529,ATLLARSWDPQ-783,YES,156 SBN - 22 HNHG,YES,35 SBN - 5 HNHG,LAR_FCALC_NOISEBURST (188 LBs) - LAR_HECA_NOISEBURST (374 LBs) - LAR_HECC_NOISEBURST (188 LBs) - LAR_FCALA_NOISEBURST (374 LBs) - LAR_EMECC_NOISEBURST (188 LBs) - LAR_EMECA_NOISEBURST (374 LBs) - {textcolor{red}{LAR_DATACORRUPT (2 LBs)}},Noise/data corruption found offline: 27 Veto Ranges with 4735 events. 67 isolated events. a total of 27 corruption periods. Lumi loss due to corruption: 259.21 nb-1 / 832756.82 nb-1 . Some EVs identified offline: 16 noisy periods. 18 Mini noise periods. Lumi loss due to NB: 0.24 nb-1 / 832756.82 nb-1 (0.00 per-mil). Lumi loss due to MNB: 0.32 nb-1 / 832756.82 nb-1 (0.00 per-mil). 
439607,ATLLARSWDPQ-786,YES,40 SBN - 4 HNHG,YES,17 SBN - 0 HNHG,LAR_FCALC_NOISEBURST (61 LBs) - LAR_HECA_NOISEBURST (68 LBs) - {textcolor{red}{LAR_HECC_SEVNOISEBURST (61 LBs)}} - LAR_FCALA_NOISEBURST (68 LBs) - LAR_EMECC_NOISEBURST (61 LBs) - LAR_EMECA_NOISEBURST (68 LBs) - {textcolor{red}{LAR_DATACORRUPT (2 LBs)}},Noise/data corruption found offline: 10 Veto Ranges with 4340 events. 23 isolated events. a total of 10 corruption periods. Lumi loss due to corruption: 141.03 nb-1 / 211150.68 nb-1 . Some EVs identified offline: 1 noisy periods. 3 Mini noise periods. Lumi loss due to NB: 0.02 nb-1 / 211150.68 nb-1 (0.00 per-mil). Lumi loss due to MNB: 0.06 nb-1 / 211150.68 nb-1 (0.00 per-mil). 
439676,ATLLARSWDPQ-789,YES,3 SBN - 0 HNHG,YES,-,LAR_FCALC_NOISEBURST (2 LBs) - LAR_HECC_NOISEBURST (2 LBs) - LAR_EMECC_NOISEBURST (2 LBs),-
439830,ATLLARSWDPQ-794,YES,146 SBN - 15 HNHG,YES,19 SBN - 2 HNHG,LAR_FCALC_NOISEBURST (132 LBs) - LAR_HECA_NOISEBURST (324 LBs) - {textcolor{red}{LAR_HECA_SEVNOISYCHANNEL (20 LBs)}} - LAR_HECC_NOISEBURST (132 LBs) - {textcolor{red}{LAR_EMECA_SEVNOISYCHANNEL (20 LBs)}} - {textcolor{red}{LAR_EMBC_SEVNOISYCHANNEL (20 LBs)}} - {textcolor{red}{LAR_EMECC_SEVNOISYCHANNEL (20 LBs)}} - {textcolor{red}{LAR_EMBA_SEVNOISYCHANNEL (20 LBs)}} - {textcolor{red}{LAR_FCALA_SEVNOISYCHANNEL (20 LBs)}} - {textcolor{red}{LAR_HECA_SEVNOISEBURST (6 LBs)}} - {textcolor{red}{LAR_FCALC_SEVNOISYCHANNEL (20 LBs)}} - LAR_FCALA_NOISEBURST (324 LBs) - {textcolor{red}{LAR_EMECA_SEVNOISEBURST (6 LBs)}} - {textcolor{red}{LAR_HECC_SEVNOISYCHANNEL (20 LBs)}} - LAR_EMBA_NOISEBURST (2 LBs) - LAR_EMECC_NOISEBURST (132 LBs) - LAR_EMBC_NOISEBURST (4 LBs) - LAR_EMECA_NOISEBURST (324 LBs) - {textcolor{red}{LAR_FCALA_SEVNOISEBURST (6 LBs)}} - {textcolor{red}{LAR_DATACORRUPT (4 LBs)}},Noise/data corruption found offline: 20 Veto Ranges with 4157 events. 56 isolated events. a total of 20 corruption periods. Lumi loss due to corruption: 196.18 nb-1 / 656065.04 nb-1 . Some EVs identified offline: 42 noisy periods. 310 Mini noise periods. Lumi loss due to NB: 0.78 nb-1 / 656065.04 nb-1 (0.00 per-mil). Lumi loss due to MNB: 5.54 nb-1 / 656065.04 nb-1 (0.01 per-mil). 
439859,ATLLARSWDPQ-796,YES,99 SBN - 14 HNHG,YES,20 SBN - 1 HNHG,LAR_FCALC_NOISEBURST (91 LBs) - LAR_HECA_NOISEBURST (279 LBs) - {textcolor{red}{LAR_HECC_SEVNOISEBURST (2 LBs)}} - {textcolor{red}{LAR_HECA_SEVNOISYCHANNEL (16 LBs)}} - LAR_HECC_NOISEBURST (91 LBs) - {textcolor{red}{LAR_EMECA_SEVNOISYCHANNEL (16 LBs)}} - {textcolor{red}{LAR_EMBC_SEVNOISYCHANNEL (16 LBs)}} - {textcolor{red}{LAR_EMECC_SEVNOISYCHANNEL (16 LBs)}} - {textcolor{red}{LAR_EMBA_SEVNOISYCHANNEL (16 LBs)}} - {textcolor{red}{LAR_FCALA_SEVNOISYCHANNEL (16 LBs)}} - {textcolor{red}{LAR_FCALC_SEVNOISYCHANNEL (16 LBs)}} - LAR_FCALA_NOISEBURST (279 LBs) - {textcolor{red}{LAR_HECC_SEVNOISYCHANNEL (16 LBs)}} - LAR_EMBA_NOISEBURST (2 LBs) - LAR_EMECC_NOISEBURST (91 LBs) - {textcolor{red}{LAR_EMECC_SEVNOISEBURST (2 LBs)}} - LAR_EMBC_NOISEBURST (2 LBs) - LAR_EMECA_NOISEBURST (279 LBs) - {textcolor{red}{LAR_DATACORRUPT (2 LBs)}} - {textcolor{red}{LAR_FCALC_SEVNOISEBURST (2 LBs)}},Noise/data corruption found offline: 9 Veto Ranges with 7954 events. 39 isolated events. a total of 9 corruption periods. Lumi loss due to corruption: 174.52 nb-1 / 502988.19 nb-1 . Some EVs identified offline: 20 noisy periods. 110 Mini noise periods. Lumi loss due to NB: 0.37 nb-1 / 502988.19 nb-1 (0.00 per-mil). Lumi loss due to MNB: 2.04 nb-1 / 502988.19 nb-1 (0.00 per-mil). 
439911,ATLLARSWDPQ-799,YES,138 SBN - 17 HNHG,YES,31 SBN - 5 HNHG,LAR_FCALC_NOISEBURST (137 LBs) - LAR_HECA_NOISEBURST (346 LBs) - LAR_HECC_NOISEBURST (137 LBs) - {textcolor{red}{LAR_HECA_SEVNOISEBURST (2 LBs)}} - LAR_FCALA_NOISEBURST (346 LBs) - {textcolor{red}{LAR_EMECA_SEVNOISEBURST (2 LBs)}} - LAR_EMECC_NOISEBURST (137 LBs) - LAR_EMECA_NOISEBURST (346 LBs) - {textcolor{red}{LAR_FCALA_SEVNOISEBURST (2 LBs)}},Noise/data corruption found offline: 16 Veto Ranges with 3067 events. 48 isolated events. a total of 16 corruption periods. Lumi loss due to corruption: 159.52 nb-1 / 670572.04 nb-1 . Some EVs identified offline: 8 noisy periods. 3354 Mini noise periods. Lumi loss due to NB: 0.14 nb-1 / 670572.04 nb-1 (0.00 per-mil). Lumi loss due to MNB: 60.20 nb-1 / 670572.04 nb-1 (0.09 per-mil). 
