Discussed in https://its.cern.ch/jira/browse/ATLLARSWDPQ-768

** Defect LAR_FCALC_NOISEBURST(INTOLERABLE) **
Affecting 76 LBs: 343, 344, 387, 388, 403, 404, 405, 406, 432, 433, 452, 453, 471, 472, 501, 502, 503, 504, 505, 516, 517, 519, 520, 529, 530, 531, 532, 533, 541, 542, 557, 558, 562, 563, 575, 576, 589, 590, 591, 592, 593, 605, 606, 615, 616, 621, 622, 649, 650, 655, 656, 663, 664, 673, 674, 676, 677, 682, 683, 689, 690, 691, 692, 693, 696, 697, 735, 736, 737, 738, 744, 745, 748, 749, 753, 754 (0 recoverable) 
** Defect LAR_HECC_NOISEBURST(INTOLERABLE) **
Affecting 76 LBs: 343, 344, 387, 388, 403, 404, 405, 406, 432, 433, 452, 453, 471, 472, 501, 502, 503, 504, 505, 516, 517, 519, 520, 529, 530, 531, 532, 533, 541, 542, 557, 558, 562, 563, 575, 576, 589, 590, 591, 592, 593, 605, 606, 615, 616, 621, 622, 649, 650, 655, 656, 663, 664, 673, 674, 676, 677, 682, 683, 689, 690, 691, 692, 693, 696, 697, 735, 736, 737, 738, 744, 745, 748, 749, 753, 754 (0 recoverable) 
** Defect LAR_HECA_SEVNOISEBURST **
Affecting 6 LBs: 639, 640, 641, 642, 737, 738 (6 recoverable) 
** Defect LAR_FCALA_NOISEBURST(INTOLERABLE) **
Affecting 104 LBs: 342, 343, 354, 355, 356, 357, 358, 366, 367, 375, 376, 389, 390, 405, 406, 423, 424, 432, 433, 442, 443, 452, 453, 469, 470, 496, 497, 519, 520, 523, 524, 546, 547, 552, 553, 561, 562, 571, 572, 575, 576, 577, 596, 597, 599, 600, 609, 610, 624, 625, 626, 630, 631, 633, 634, 635, 637, 638, 648, 649, 650, 651, 652, 653, 654, 655, 656, 669, 670, 671, 672, 673, 674, 675, 679, 680, 681, 689, 690, 691, 707, 708, 710, 711, 712, 713, 717, 718, 723, 724, 731, 732, 733, 734, 735, 745, 746, 754, 755, 759, 760, 762, 763, 764 (0 recoverable) 
** Defect LAR_EMECA_SEVNOISEBURST **
Affecting 6 LBs: 639, 640, 641, 642, 737, 738 (6 recoverable) 
** Defect LAR_HECA_NOISEBURST(INTOLERABLE) **
Affecting 104 LBs: 342, 343, 354, 355, 356, 357, 358, 366, 367, 375, 376, 389, 390, 405, 406, 423, 424, 432, 433, 442, 443, 452, 453, 469, 470, 496, 497, 519, 520, 523, 524, 546, 547, 552, 553, 561, 562, 571, 572, 575, 576, 577, 596, 597, 599, 600, 609, 610, 624, 625, 626, 630, 631, 633, 634, 635, 637, 638, 648, 649, 650, 651, 652, 653, 654, 655, 656, 669, 670, 671, 672, 673, 674, 675, 679, 680, 681, 689, 690, 691, 707, 708, 710, 711, 712, 713, 717, 718, 723, 724, 731, 732, 733, 734, 735, 745, 746, 754, 755, 759, 760, 762, 763, 764 (0 recoverable) 
** Defect LAR_EMECC_NOISEBURST(INTOLERABLE) **
Affecting 76 LBs: 343, 344, 387, 388, 403, 404, 405, 406, 432, 433, 452, 453, 471, 472, 501, 502, 503, 504, 505, 516, 517, 519, 520, 529, 530, 531, 532, 533, 541, 542, 557, 558, 562, 563, 575, 576, 589, 590, 591, 592, 593, 605, 606, 615, 616, 621, 622, 649, 650, 655, 656, 663, 664, 673, 674, 676, 677, 682, 683, 689, 690, 691, 692, 693, 696, 697, 735, 736, 737, 738, 744, 745, 748, 749, 753, 754 (0 recoverable) 
** Defect LAR_EMBA_NOISEBURST(INTOLERABLE) **
Affecting 2 LBs: 604, 605 (0 recoverable) 
** Defect LAR_EMECA_NOISEBURST(INTOLERABLE) **
Affecting 104 LBs: 342, 343, 354, 355, 356, 357, 358, 366, 367, 375, 376, 389, 390, 405, 406, 423, 424, 432, 433, 442, 443, 452, 453, 469, 470, 496, 497, 519, 520, 523, 524, 546, 547, 552, 553, 561, 562, 571, 572, 575, 576, 577, 596, 597, 599, 600, 609, 610, 624, 625, 626, 630, 631, 633, 634, 635, 637, 638, 648, 649, 650, 651, 652, 653, 654, 655, 656, 669, 670, 671, 672, 673, 674, 675, 679, 680, 681, 689, 690, 691, 707, 708, 710, 711, 712, 713, 717, 718, 723, 724, 731, 732, 733, 734, 735, 745, 746, 754, 755, 759, 760, 762, 763, 764 (0 recoverable) 
** Defect LAR_FCALA_SEVNOISEBURST **
Affecting 6 LBs: 639, 640, 641, 642, 737, 738 (6 recoverable) 
