Run,Jira,Express,Express Noisy Cells,Bulk,Bulk Noisy Cells,Defects {\textcolor{red}{(intol.)}},Notes
460436,=HYPERLINK("https://its.cern.ch/jira/projects/ATLLARSWDPQ/issues/ATLLARSWDPQ-1534"),"ATLLARSWDPQ-1534"),YES,62 SBN - 12 HNHG,YES,1 SBN - 4 HNHG,(Run consists of 676 LBs - 0.0 /pb),Some EVs identified offline: 6 noisy periods. 365 Mini noise periods. Lumi loss due to NB: 0.00 nb-1 / 0.06 nb-1 (0.00 per-mil). Lumi loss due to MNB: 0.00 nb-1 / 0.06 nb-1 (0.01 per-mil). 
460438,=HYPERLINK("https://its.cern.ch/jira/projects/ATLLARSWDPQ/issues/ATLLARSWDPQ-1535"),"ATLLARSWDPQ-1535"),YES,0 SBN - 2 HNHG,YES,0 SBN - 0 HNHG,(Run consists of 143 LBs - 0.0 /pb),Some EVs identified offline: 1 Mini noise periods. Lumi loss due to MNB: 0.00 nb-1 / 0.01 nb-1 (0.00 per-mil). 
460447,=HYPERLINK("https://its.cern.ch/jira/projects/ATLLARSWDPQ/issues/ATLLARSWDPQ-1536"),"ATLLARSWDPQ-1536"),YES,0 SBN - 3 HNHG,NO,0 SBN - 3 HNHG,(Run consists of 499 LBs - 0.0 /pb),Some EVs identified offline: 1 noisy periods. 62 Mini noise periods. Lumi loss due to NB: 0.00 nb-1 / 0.04 nb-1 (0.00 per-mil). Lumi loss due to MNB: 0.00 nb-1 / 0.04 nb-1 (0.00 per-mil). 
460477,=HYPERLINK("https://its.cern.ch/jira/projects/ATLLARSWDPQ/issues/ATLLARSWDPQ-1539"),"ATLLARSWDPQ-1539"),YES,0 SBN - 3 HNHG,YES,20 SBN - 3 HNHG,(Run consists of 599 LBs - 0.0 /pb),Some EVs identified offline: 1 noisy periods. 99 Mini noise periods. Lumi loss due to NB: 0.00 nb-1 / 0.04 nb-1 (0.00 per-mil). Lumi loss due to MNB: 0.00 nb-1 / 0.04 nb-1 (0.00 per-mil). 
460493,=HYPERLINK("https://its.cern.ch/jira/projects/ATLLARSWDPQ/issues/ATLLARSWDPQ-1540"),"ATLLARSWDPQ-1540"),YES,0 SBN - 2 HNHG,YES,1 SBN - 4 HNHG,(Run consists of 504 LBs - 0.0 /pb),Some EVs identified offline: 15 noisy periods. 103 Mini noise periods. Lumi loss due to NB: 0.00 nb-1 / 0.03 nb-1 (0.00 per-mil). Lumi loss due to MNB: 0.00 nb-1 / 0.03 nb-1 (0.00 per-mil). 
460837,=HYPERLINK("https://its.cern.ch/jira/projects/ATLLARSWDPQ/issues/ATLLARSWDPQ-1552"),"ATLLARSWDPQ-1552"),YES,0 SBN - 3 HNHG,NO,-,(Run consists of 636 LBs - 0.0 /pb),Some EVs identified offline: 16 noisy periods. 443 Mini noise periods. Lumi loss due to NB: 0.00 nb-1 / 0.05 nb-1 (0.00 per-mil). Lumi loss due to MNB: 0.00 nb-1 / 0.05 nb-1 (0.00 per-mil). 
460860,=HYPERLINK("https://its.cern.ch/jira/projects/ATLLARSWDPQ/issues/ATLLARSWDPQ-1553"),"ATLLARSWDPQ-1553"),YES,0 SBN - 4 HNHG,NO,-,(Run consists of 1224 LBs - 0.0 /pb),Some EVs identified offline: 38 noisy periods. 885 Mini noise periods. Lumi loss due to NB: 0.00 nb-1 / 0.08 nb-1 (0.00 per-mil). Lumi loss due to MNB: 0.00 nb-1 / 0.08 nb-1 (0.00 per-mil). 
460913,=HYPERLINK("https://its.cern.ch/jira/projects/ATLLARSWDPQ/issues/ATLLARSWDPQ-1554"),"ATLLARSWDPQ-1554"),YES,0 SBN - 2 HNHG,NO,-,(Run consists of 682 LBs - 0.0 /pb),Some EVs identified offline: 18 noisy periods. 939 Mini noise periods. Lumi loss due to NB: 0.00 nb-1 / 0.02 nb-1 (0.00 per-mil). Lumi loss due to MNB: 0.00 nb-1 / 0.02 nb-1 (0.01 per-mil). 
460916,=HYPERLINK("https://its.cern.ch/jira/projects/ATLLARSWDPQ/issues/ATLLARSWDPQ-1555"),"ATLLARSWDPQ-1555"),YES,36 SBN - 4 HNHG,YES,3 SBN - 0 HNHG,LAR_HECC_NOISEBURST (2 LBs) - LAR_EMECC_NOISEBURST (2 LBs) - LAR_FCALC_NOISEBURST (2 LBs) - (Run consists of 122 LBs - 0.0 /pb),Some EVs identified offline: 1 noisy periods. 127 Mini noise periods. Lumi loss due to NB: 0.00 nb-1 / 0.01 nb-1 (0.00 per-mil). Lumi loss due to MNB: 0.00 nb-1 / 0.01 nb-1 (0.01 per-mil). 
460944,=HYPERLINK("https://its.cern.ch/jira/projects/ATLLARSWDPQ/issues/ATLLARSWDPQ-1557"),"ATLLARSWDPQ-1557"),YES,0 SBN - 3 HNHG,YES,4 SBN - 0 HNHG,(Run consists of 560 LBs - 0.0 /pb),Some EVs identified offline: 6 noisy periods. 164 Mini noise periods. Lumi loss due to NB: 0.00 nb-1 / 0.06 nb-1 (0.00 per-mil). Lumi loss due to MNB: 0.00 nb-1 / 0.06 nb-1 (0.00 per-mil). 
460945,=HYPERLINK("https://its.cern.ch/jira/projects/ATLLARSWDPQ/issues/ATLLARSWDPQ-1558"),"ATLLARSWDPQ-1558"),YES,0 SBN - 3 HNHG,YES,-,(Run consists of 334 LBs - 0.0 /pb),Some EVs identified offline: 3 noisy periods. 2 Mini noise periods. Lumi loss due to NB: 0.00 nb-1 / 0.02 nb-1 (0.00 per-mil). Lumi loss due to MNB: 0.00 nb-1 / 0.02 nb-1 (0.00 per-mil). 
461002,=HYPERLINK("https://its.cern.ch/jira/projects/ATLLARSWDPQ/issues/ATLLARSWDPQ-1559"),"ATLLARSWDPQ-1559"),YES,0 SBN - 3 HNHG,NO,-,(Run consists of 1033 LBs - 0.0 /pb),Some EVs identified offline: 4 noisy periods. 2362 Mini noise periods. Lumi loss due to NB: 0.00 nb-1 / 0.06 nb-1 (0.00 per-mil). Lumi loss due to MNB: 0.00 nb-1 / 0.06 nb-1 (0.01 per-mil). 
