Discussed in https://its.cern.ch/jira/browse/ATLLARSWDPQ-1379

** Defect LAR_HECA_NOISEBURST **
Affecting 60 LBs: 403, 404, 467, 468, 471, 472, 474, 475, 476, 477, 478, 479, 504, 505, 523, 524, 538, 539, 542, 543, 550, 551, 556, 557, 558, 559, 564, 565, 568, 569, 570, 571, 572, 573, 574, 580, 581, 588, 589, 590, 591, 598, 599, 602, 603, 606, 607, 608, 609, 610, 629, 630, 631, 632, 645, 646, 653, 654, 659, 660 (0 recoverable) 
** Defect LAR_HECC_NOISEBURST **
Affecting 33 LBs: 398, 399, 451, 452, 456, 457, 480, 481, 494, 495, 557, 558, 561, 562, 580, 581, 597, 598, 603, 604, 605, 610, 611, 617, 618, 629, 630, 646, 647, 653, 654, 658, 659 (0 recoverable) 
** Defect LAR_EMECA_NOISEBURST **
Affecting 60 LBs: 403, 404, 467, 468, 471, 472, 474, 475, 476, 477, 478, 479, 504, 505, 523, 524, 538, 539, 542, 543, 550, 551, 556, 557, 558, 559, 564, 565, 568, 569, 570, 571, 572, 573, 574, 580, 581, 588, 589, 590, 591, 598, 599, 602, 603, 606, 607, 608, 609, 610, 629, 630, 631, 632, 645, 646, 653, 654, 659, 660 (0 recoverable) 
** Defect LAR_EMECC_NOISEBURST **
Affecting 33 LBs: 398, 399, 451, 452, 456, 457, 480, 481, 494, 495, 557, 558, 561, 562, 580, 581, 597, 598, 603, 604, 605, 610, 611, 617, 618, 629, 630, 646, 647, 653, 654, 658, 659 (0 recoverable) 
** Defect LAR_FCALA_NOISEBURST **
Affecting 60 LBs: 403, 404, 467, 468, 471, 472, 474, 475, 476, 477, 478, 479, 504, 505, 523, 524, 538, 539, 542, 543, 550, 551, 556, 557, 558, 559, 564, 565, 568, 569, 570, 571, 572, 573, 574, 580, 581, 588, 589, 590, 591, 598, 599, 602, 603, 606, 607, 608, 609, 610, 629, 630, 631, 632, 645, 646, 653, 654, 659, 660 (0 recoverable) 
** Defect LAR_FCALC_NOISEBURST **
Affecting 33 LBs: 398, 399, 451, 452, 456, 457, 480, 481, 494, 495, 557, 558, 561, 562, 580, 581, 597, 598, 603, 604, 605, 610, 611, 617, 618, 629, 630, 646, 647, 653, 654, 658, 659 (0 recoverable) 
