Discussed in https://its.cern.ch/jira/browse/ATLLARSWDPQ-1142

** Defect LAR_EMBA_NOISEBURST **
Affecting 8 LBs: 664, 665, 1027, 1028, 1103, 1104, 1460, 1461 (0 recoverable) 
** Defect LAR_EMBC_NOISEBURST **
Affecting 4 LBs: 664, 665, 1103, 1104 (0 recoverable) 
** Defect LAR_HECA_NOISEBURST **
Affecting 231 LBs: 576, 577, 614, 615, 618, 619, 620, 629, 630, 632, 633, 634, 642, 643, 648, 649, 655, 656, 661, 662, 673, 674, 677, 678, 679, 680, 681, 683, 684, 685, 694, 695, 704, 705, 721, 722, 723, 724, 725, 726, 727, 740, 741, 746, 747, 753, 754, 764, 765, 776, 777, 784, 785, 787, 788, 791, 792, 793, 797, 798, 802, 803, 806, 807, 829, 830, 844, 845, 846, 847, 848, 849, 851, 852, 858, 859, 860, 861, 867, 868, 869, 878, 879, 880, 886, 887, 893, 894, 903, 904, 909, 910, 914, 915, 916, 933, 934, 935, 936, 948, 949, 966, 967, 968, 969, 971, 972, 987, 988, 996, 997, 1002, 1003, 1017, 1018, 1019, 1029, 1030, 1033, 1034, 1039, 1040, 1041, 1045, 1046, 1054, 1055, 1064, 1065, 1074, 1075, 1091, 1092, 1095, 1096, 1105, 1106, 1114, 1115, 1136, 1137, 1139, 1140, 1141, 1142, 1143, 1155, 1156, 1164, 1165, 1178, 1179, 1181, 1182, 1183, 1184, 1197, 1198, 1213, 1214, 1216, 1217, 1221, 1222, 1234, 1235, 1236, 1237, 1238, 1239, 1240, 1250, 1251, 1259, 1260, 1264, 1265, 1268, 1269, 1270, 1292, 1293, 1295, 1296, 1306, 1307, 1311, 1312, 1315, 1316, 1323, 1324, 1327, 1328, 1330, 1331, 1332, 1333, 1334, 1365, 1366, 1367, 1368, 1382, 1383, 1393, 1394, 1410, 1411, 1412, 1413, 1435, 1436, 1442, 1443, 1446, 1447, 1460, 1461, 1466, 1467, 1476, 1477, 1480, 1481, 1485, 1486, 1508, 1509, 1535, 1536 (0 recoverable) 
** Defect LAR_HECC_NOISEBURST **
Affecting 173 LBs: 504, 505, 511, 512, 595, 596, 618, 619, 621, 622, 632, 633, 634, 636, 637, 639, 640, 645, 646, 649, 650, 655, 656, 662, 663, 694, 695, 696, 700, 701, 722, 723, 724, 725, 731, 732, 748, 749, 751, 752, 753, 756, 757, 783, 784, 802, 803, 806, 807, 819, 820, 821, 822, 825, 826, 831, 832, 833, 834, 835, 840, 841, 842, 847, 848, 863, 864, 870, 871, 872, 900, 901, 910, 911, 912, 921, 922, 923, 924, 926, 927, 952, 953, 963, 964, 969, 970, 984, 985, 986, 987, 990, 991, 992, 993, 994, 995, 1021, 1022, 1027, 1028, 1045, 1046, 1049, 1050, 1076, 1077, 1078, 1079, 1080, 1081, 1084, 1085, 1091, 1092, 1095, 1096, 1101, 1102, 1104, 1105, 1108, 1109, 1161, 1162, 1163, 1164, 1190, 1191, 1214, 1215, 1222, 1223, 1224, 1225, 1236, 1237, 1255, 1256, 1258, 1259, 1293, 1294, 1300, 1301, 1349, 1350, 1357, 1358, 1388, 1389, 1403, 1404, 1424, 1425, 1434, 1435, 1454, 1455, 1463, 1464, 1465, 1466, 1474, 1475, 1489, 1490, 1493, 1494, 1506, 1507, 1525, 1526 (0 recoverable) 
** Defect LAR_EMECA_NOISEBURST **
Affecting 231 LBs: 576, 577, 614, 615, 618, 619, 620, 629, 630, 632, 633, 634, 642, 643, 648, 649, 655, 656, 661, 662, 673, 674, 677, 678, 679, 680, 681, 683, 684, 685, 694, 695, 704, 705, 721, 722, 723, 724, 725, 726, 727, 740, 741, 746, 747, 753, 754, 764, 765, 776, 777, 784, 785, 787, 788, 791, 792, 793, 797, 798, 802, 803, 806, 807, 829, 830, 844, 845, 846, 847, 848, 849, 851, 852, 858, 859, 860, 861, 867, 868, 869, 878, 879, 880, 886, 887, 893, 894, 903, 904, 909, 910, 914, 915, 916, 933, 934, 935, 936, 948, 949, 966, 967, 968, 969, 971, 972, 987, 988, 996, 997, 1002, 1003, 1017, 1018, 1019, 1029, 1030, 1033, 1034, 1039, 1040, 1041, 1045, 1046, 1054, 1055, 1064, 1065, 1074, 1075, 1091, 1092, 1095, 1096, 1105, 1106, 1114, 1115, 1136, 1137, 1139, 1140, 1141, 1142, 1143, 1155, 1156, 1164, 1165, 1178, 1179, 1181, 1182, 1183, 1184, 1197, 1198, 1213, 1214, 1216, 1217, 1221, 1222, 1234, 1235, 1236, 1237, 1238, 1239, 1240, 1250, 1251, 1259, 1260, 1264, 1265, 1268, 1269, 1270, 1292, 1293, 1295, 1296, 1306, 1307, 1311, 1312, 1315, 1316, 1323, 1324, 1327, 1328, 1330, 1331, 1332, 1333, 1334, 1365, 1366, 1367, 1368, 1382, 1383, 1393, 1394, 1410, 1411, 1412, 1413, 1435, 1436, 1442, 1443, 1446, 1447, 1460, 1461, 1466, 1467, 1476, 1477, 1480, 1481, 1485, 1486, 1508, 1509, 1535, 1536 (0 recoverable) 
** Defect LAR_EMECC_NOISEBURST **
Affecting 173 LBs: 504, 505, 511, 512, 595, 596, 618, 619, 621, 622, 632, 633, 634, 636, 637, 639, 640, 645, 646, 649, 650, 655, 656, 662, 663, 694, 695, 696, 700, 701, 722, 723, 724, 725, 731, 732, 748, 749, 751, 752, 753, 756, 757, 783, 784, 802, 803, 806, 807, 819, 820, 821, 822, 825, 826, 831, 832, 833, 834, 835, 840, 841, 842, 847, 848, 863, 864, 870, 871, 872, 900, 901, 910, 911, 912, 921, 922, 923, 924, 926, 927, 952, 953, 963, 964, 969, 970, 984, 985, 986, 987, 990, 991, 992, 993, 994, 995, 1021, 1022, 1027, 1028, 1045, 1046, 1049, 1050, 1076, 1077, 1078, 1079, 1080, 1081, 1084, 1085, 1091, 1092, 1095, 1096, 1101, 1102, 1104, 1105, 1108, 1109, 1161, 1162, 1163, 1164, 1190, 1191, 1214, 1215, 1222, 1223, 1224, 1225, 1236, 1237, 1255, 1256, 1258, 1259, 1293, 1294, 1300, 1301, 1349, 1350, 1357, 1358, 1388, 1389, 1403, 1404, 1424, 1425, 1434, 1435, 1454, 1455, 1463, 1464, 1465, 1466, 1474, 1475, 1489, 1490, 1493, 1494, 1506, 1507, 1525, 1526 (0 recoverable) 
** Defect LAR_FCALA_NOISEBURST **
Affecting 231 LBs: 576, 577, 614, 615, 618, 619, 620, 629, 630, 632, 633, 634, 642, 643, 648, 649, 655, 656, 661, 662, 673, 674, 677, 678, 679, 680, 681, 683, 684, 685, 694, 695, 704, 705, 721, 722, 723, 724, 725, 726, 727, 740, 741, 746, 747, 753, 754, 764, 765, 776, 777, 784, 785, 787, 788, 791, 792, 793, 797, 798, 802, 803, 806, 807, 829, 830, 844, 845, 846, 847, 848, 849, 851, 852, 858, 859, 860, 861, 867, 868, 869, 878, 879, 880, 886, 887, 893, 894, 903, 904, 909, 910, 914, 915, 916, 933, 934, 935, 936, 948, 949, 966, 967, 968, 969, 971, 972, 987, 988, 996, 997, 1002, 1003, 1017, 1018, 1019, 1029, 1030, 1033, 1034, 1039, 1040, 1041, 1045, 1046, 1054, 1055, 1064, 1065, 1074, 1075, 1091, 1092, 1095, 1096, 1105, 1106, 1114, 1115, 1136, 1137, 1139, 1140, 1141, 1142, 1143, 1155, 1156, 1164, 1165, 1178, 1179, 1181, 1182, 1183, 1184, 1197, 1198, 1213, 1214, 1216, 1217, 1221, 1222, 1234, 1235, 1236, 1237, 1238, 1239, 1240, 1250, 1251, 1259, 1260, 1264, 1265, 1268, 1269, 1270, 1292, 1293, 1295, 1296, 1306, 1307, 1311, 1312, 1315, 1316, 1323, 1324, 1327, 1328, 1330, 1331, 1332, 1333, 1334, 1365, 1366, 1367, 1368, 1382, 1383, 1393, 1394, 1410, 1411, 1412, 1413, 1435, 1436, 1442, 1443, 1446, 1447, 1460, 1461, 1466, 1467, 1476, 1477, 1480, 1481, 1485, 1486, 1508, 1509, 1535, 1536 (0 recoverable) 
** Defect LAR_FCALC_NOISEBURST **
Affecting 173 LBs: 504, 505, 511, 512, 595, 596, 618, 619, 621, 622, 632, 633, 634, 636, 637, 639, 640, 645, 646, 649, 650, 655, 656, 662, 663, 694, 695, 696, 700, 701, 722, 723, 724, 725, 731, 732, 748, 749, 751, 752, 753, 756, 757, 783, 784, 802, 803, 806, 807, 819, 820, 821, 822, 825, 826, 831, 832, 833, 834, 835, 840, 841, 842, 847, 848, 863, 864, 870, 871, 872, 900, 901, 910, 911, 912, 921, 922, 923, 924, 926, 927, 952, 953, 963, 964, 969, 970, 984, 985, 986, 987, 990, 991, 992, 993, 994, 995, 1021, 1022, 1027, 1028, 1045, 1046, 1049, 1050, 1076, 1077, 1078, 1079, 1080, 1081, 1084, 1085, 1091, 1092, 1095, 1096, 1101, 1102, 1104, 1105, 1108, 1109, 1161, 1162, 1163, 1164, 1190, 1191, 1214, 1215, 1222, 1223, 1224, 1225, 1236, 1237, 1255, 1256, 1258, 1259, 1293, 1294, 1300, 1301, 1349, 1350, 1357, 1358, 1388, 1389, 1403, 1404, 1424, 1425, 1434, 1435, 1454, 1455, 1463, 1464, 1465, 1466, 1474, 1475, 1489, 1490, 1493, 1494, 1506, 1507, 1525, 1526 (0 recoverable) 
** Defect LAR_DATACORRUPT(INTOLERABLE) **
Affecting 4 LBs: 593, 594, 813, 814 (4 recoverable) 
