Discussed in https://its.cern.ch/jira/browse/ATLLARSWDPQ-1156

** Defect LAR_EMBA_NOISEBURST **
Affecting 4 LBs: 889, 890, 957, 958 (0 recoverable) 
** Defect LAR_HECA_NOISEBURST **
Affecting 91 LBs: 675, 676, 680, 681, 730, 731, 734, 735, 736, 737, 743, 744, 749, 750, 776, 777, 782, 783, 794, 795, 801, 802, 808, 809, 835, 836, 841, 842, 843, 844, 845, 849, 850, 852, 853, 854, 862, 863, 870, 871, 872, 873, 874, 875, 876, 879, 880, 881, 914, 915, 919, 920, 932, 933, 934, 939, 940, 944, 945, 947, 948, 950, 951, 960, 961, 963, 964, 967, 968, 971, 972, 981, 982, 993, 994, 1011, 1012, 1016, 1017, 1037, 1038, 1053, 1054, 1061, 1062, 1063, 1064, 1068, 1069, 1090, 1091 (0 recoverable) 
** Defect LAR_HECC_NOISEBURST **
Affecting 76 LBs: 739, 740, 744, 745, 746, 747, 748, 790, 791, 792, 800, 801, 804, 805, 822, 823, 827, 828, 835, 836, 838, 839, 842, 843, 850, 851, 852, 853, 859, 860, 867, 868, 869, 870, 874, 875, 892, 893, 920, 921, 946, 947, 957, 958, 998, 999, 1010, 1011, 1021, 1022, 1036, 1037, 1038, 1039, 1043, 1044, 1053, 1054, 1055, 1068, 1069, 1070, 1071, 1072, 1073, 1074, 1075, 1090, 1091, 1092, 1093, 1094, 1095, 1098, 1099, 1100 (0 recoverable) 
** Defect LAR_EMECA_NOISEBURST **
Affecting 91 LBs: 675, 676, 680, 681, 730, 731, 734, 735, 736, 737, 743, 744, 749, 750, 776, 777, 782, 783, 794, 795, 801, 802, 808, 809, 835, 836, 841, 842, 843, 844, 845, 849, 850, 852, 853, 854, 862, 863, 870, 871, 872, 873, 874, 875, 876, 879, 880, 881, 914, 915, 919, 920, 932, 933, 934, 939, 940, 944, 945, 947, 948, 950, 951, 960, 961, 963, 964, 967, 968, 971, 972, 981, 982, 993, 994, 1011, 1012, 1016, 1017, 1037, 1038, 1053, 1054, 1061, 1062, 1063, 1064, 1068, 1069, 1090, 1091 (0 recoverable) 
** Defect LAR_EMECC_NOISEBURST **
Affecting 76 LBs: 739, 740, 744, 745, 746, 747, 748, 790, 791, 792, 800, 801, 804, 805, 822, 823, 827, 828, 835, 836, 838, 839, 842, 843, 850, 851, 852, 853, 859, 860, 867, 868, 869, 870, 874, 875, 892, 893, 920, 921, 946, 947, 957, 958, 998, 999, 1010, 1011, 1021, 1022, 1036, 1037, 1038, 1039, 1043, 1044, 1053, 1054, 1055, 1068, 1069, 1070, 1071, 1072, 1073, 1074, 1075, 1090, 1091, 1092, 1093, 1094, 1095, 1098, 1099, 1100 (0 recoverable) 
** Defect LAR_FCALA_NOISEBURST **
Affecting 91 LBs: 675, 676, 680, 681, 730, 731, 734, 735, 736, 737, 743, 744, 749, 750, 776, 777, 782, 783, 794, 795, 801, 802, 808, 809, 835, 836, 841, 842, 843, 844, 845, 849, 850, 852, 853, 854, 862, 863, 870, 871, 872, 873, 874, 875, 876, 879, 880, 881, 914, 915, 919, 920, 932, 933, 934, 939, 940, 944, 945, 947, 948, 950, 951, 960, 961, 963, 964, 967, 968, 971, 972, 981, 982, 993, 994, 1011, 1012, 1016, 1017, 1037, 1038, 1053, 1054, 1061, 1062, 1063, 1064, 1068, 1069, 1090, 1091 (0 recoverable) 
** Defect LAR_FCALC_NOISEBURST **
Affecting 76 LBs: 739, 740, 744, 745, 746, 747, 748, 790, 791, 792, 800, 801, 804, 805, 822, 823, 827, 828, 835, 836, 838, 839, 842, 843, 850, 851, 852, 853, 859, 860, 867, 868, 869, 870, 874, 875, 892, 893, 920, 921, 946, 947, 957, 958, 998, 999, 1010, 1011, 1021, 1022, 1036, 1037, 1038, 1039, 1043, 1044, 1053, 1054, 1055, 1068, 1069, 1070, 1071, 1072, 1073, 1074, 1075, 1090, 1091, 1092, 1093, 1094, 1095, 1098, 1099, 1100 (0 recoverable) 
