Discussed in https://its.cern.ch/jira/browse/ATLLARSWDPQ-1125

** Defect LAR_EMBC_NOISEBURST **
Affecting 2 LBs: 809, 810 (0 recoverable) 
** Defect LAR_HECA_NOISEBURST **
Affecting 81 LBs: 847, 848, 856, 857, 894, 895, 901, 902, 982, 983, 995, 996, 1014, 1015, 1037, 1038, 1102, 1103, 1174, 1175, 1221, 1222, 1238, 1239, 1247, 1248, 1267, 1268, 1320, 1321, 1337, 1338, 1363, 1364, 1383, 1384, 1387, 1388, 1401, 1402, 1403, 1407, 1408, 1409, 1488, 1489, 1502, 1503, 1525, 1526, 1532, 1533, 1552, 1553, 1563, 1564, 1567, 1568, 1648, 1649, 1657, 1658, 1664, 1665, 1699, 1700, 1711, 1712, 1754, 1755, 1772, 1773, 1776, 1777, 1799, 1800, 1801, 1822, 1823, 1826, 1827 (0 recoverable) 
** Defect LAR_HECC_HVTRIP(INTOLERABLE) **
Affecting 2 LBs: 1850, 1851 (0 recoverable) 
** Defect LAR_HECC_NOISEBURST **
Affecting 304 LBs: 667, 668, 669, 676, 677, 681, 682, 698, 699, 709, 710, 723, 724, 729, 730, 735, 736, 745, 746, 749, 750, 755, 756, 758, 759, 764, 765, 775, 776, 790, 791, 793, 794, 796, 797, 800, 801, 802, 803, 806, 807, 808, 843, 844, 846, 847, 870, 871, 889, 890, 892, 893, 897, 898, 913, 914, 922, 923, 924, 952, 953, 956, 957, 964, 965, 966, 967, 980, 981, 995, 996, 1000, 1001, 1008, 1009, 1014, 1015, 1024, 1025, 1026, 1027, 1028, 1033, 1034, 1041, 1042, 1053, 1054, 1066, 1067, 1075, 1076, 1084, 1085, 1089, 1090, 1093, 1094, 1102, 1103, 1110, 1111, 1116, 1117, 1151, 1152, 1161, 1162, 1169, 1170, 1171, 1172, 1173, 1174, 1177, 1178, 1180, 1181, 1192, 1193, 1198, 1199, 1204, 1205, 1206, 1207, 1230, 1231, 1247, 1248, 1253, 1254, 1258, 1259, 1260, 1261, 1266, 1267, 1293, 1294, 1295, 1296, 1311, 1312, 1313, 1314, 1315, 1319, 1320, 1323, 1324, 1343, 1344, 1345, 1346, 1351, 1352, 1354, 1355, 1359, 1360, 1376, 1377, 1382, 1383, 1384, 1391, 1392, 1404, 1405, 1413, 1414, 1418, 1419, 1430, 1431, 1433, 1434, 1438, 1439, 1440, 1441, 1442, 1444, 1445, 1446, 1447, 1448, 1449, 1450, 1452, 1453, 1460, 1461, 1464, 1465, 1470, 1471, 1473, 1474, 1479, 1480, 1483, 1484, 1501, 1502, 1507, 1508, 1509, 1531, 1532, 1543, 1544, 1552, 1553, 1558, 1559, 1563, 1564, 1566, 1567, 1572, 1573, 1574, 1575, 1579, 1580, 1581, 1594, 1595, 1628, 1629, 1630, 1631, 1636, 1637, 1638, 1654, 1655, 1661, 1662, 1670, 1671, 1675, 1676, 1679, 1680, 1681, 1682, 1683, 1684, 1686, 1687, 1697, 1698, 1700, 1701, 1705, 1706, 1712, 1713, 1719, 1720, 1725, 1726, 1727, 1728, 1738, 1739, 1741, 1742, 1757, 1758, 1764, 1765, 1775, 1776, 1784, 1785, 1799, 1800, 1802, 1803, 1810, 1811, 1815, 1816, 1820, 1821, 1835, 1836, 1837, 1856, 1857, 1859, 1860, 1862, 1863, 1868, 1869, 1874, 1875, 1876, 1877 (0 recoverable) 
** Defect LAR_EMECA_NOISEBURST **
Affecting 81 LBs: 847, 848, 856, 857, 894, 895, 901, 902, 982, 983, 995, 996, 1014, 1015, 1037, 1038, 1102, 1103, 1174, 1175, 1221, 1222, 1238, 1239, 1247, 1248, 1267, 1268, 1320, 1321, 1337, 1338, 1363, 1364, 1383, 1384, 1387, 1388, 1401, 1402, 1403, 1407, 1408, 1409, 1488, 1489, 1502, 1503, 1525, 1526, 1532, 1533, 1552, 1553, 1563, 1564, 1567, 1568, 1648, 1649, 1657, 1658, 1664, 1665, 1699, 1700, 1711, 1712, 1754, 1755, 1772, 1773, 1776, 1777, 1799, 1800, 1801, 1822, 1823, 1826, 1827 (0 recoverable) 
** Defect LAR_EMECC_NOISEBURST **
Affecting 304 LBs: 667, 668, 669, 676, 677, 681, 682, 698, 699, 709, 710, 723, 724, 729, 730, 735, 736, 745, 746, 749, 750, 755, 756, 758, 759, 764, 765, 775, 776, 790, 791, 793, 794, 796, 797, 800, 801, 802, 803, 806, 807, 808, 843, 844, 846, 847, 870, 871, 889, 890, 892, 893, 897, 898, 913, 914, 922, 923, 924, 952, 953, 956, 957, 964, 965, 966, 967, 980, 981, 995, 996, 1000, 1001, 1008, 1009, 1014, 1015, 1024, 1025, 1026, 1027, 1028, 1033, 1034, 1041, 1042, 1053, 1054, 1066, 1067, 1075, 1076, 1084, 1085, 1089, 1090, 1093, 1094, 1102, 1103, 1110, 1111, 1116, 1117, 1151, 1152, 1161, 1162, 1169, 1170, 1171, 1172, 1173, 1174, 1177, 1178, 1180, 1181, 1192, 1193, 1198, 1199, 1204, 1205, 1206, 1207, 1230, 1231, 1247, 1248, 1253, 1254, 1258, 1259, 1260, 1261, 1266, 1267, 1293, 1294, 1295, 1296, 1311, 1312, 1313, 1314, 1315, 1319, 1320, 1323, 1324, 1343, 1344, 1345, 1346, 1351, 1352, 1354, 1355, 1359, 1360, 1376, 1377, 1382, 1383, 1384, 1391, 1392, 1404, 1405, 1413, 1414, 1418, 1419, 1430, 1431, 1433, 1434, 1438, 1439, 1440, 1441, 1442, 1444, 1445, 1446, 1447, 1448, 1449, 1450, 1452, 1453, 1460, 1461, 1464, 1465, 1470, 1471, 1473, 1474, 1479, 1480, 1483, 1484, 1501, 1502, 1507, 1508, 1509, 1531, 1532, 1543, 1544, 1552, 1553, 1558, 1559, 1563, 1564, 1566, 1567, 1572, 1573, 1574, 1575, 1579, 1580, 1581, 1594, 1595, 1628, 1629, 1630, 1631, 1636, 1637, 1638, 1654, 1655, 1661, 1662, 1670, 1671, 1675, 1676, 1679, 1680, 1681, 1682, 1683, 1684, 1686, 1687, 1697, 1698, 1700, 1701, 1705, 1706, 1712, 1713, 1719, 1720, 1725, 1726, 1727, 1728, 1738, 1739, 1741, 1742, 1757, 1758, 1764, 1765, 1775, 1776, 1784, 1785, 1799, 1800, 1802, 1803, 1810, 1811, 1815, 1816, 1820, 1821, 1835, 1836, 1837, 1856, 1857, 1859, 1860, 1862, 1863, 1868, 1869, 1874, 1875, 1876, 1877 (0 recoverable) 
** Defect LAR_FCALA_NOISEBURST **
Affecting 81 LBs: 847, 848, 856, 857, 894, 895, 901, 902, 982, 983, 995, 996, 1014, 1015, 1037, 1038, 1102, 1103, 1174, 1175, 1221, 1222, 1238, 1239, 1247, 1248, 1267, 1268, 1320, 1321, 1337, 1338, 1363, 1364, 1383, 1384, 1387, 1388, 1401, 1402, 1403, 1407, 1408, 1409, 1488, 1489, 1502, 1503, 1525, 1526, 1532, 1533, 1552, 1553, 1563, 1564, 1567, 1568, 1648, 1649, 1657, 1658, 1664, 1665, 1699, 1700, 1711, 1712, 1754, 1755, 1772, 1773, 1776, 1777, 1799, 1800, 1801, 1822, 1823, 1826, 1827 (0 recoverable) 
** Defect LAR_FCALC_NOISEBURST **
Affecting 304 LBs: 667, 668, 669, 676, 677, 681, 682, 698, 699, 709, 710, 723, 724, 729, 730, 735, 736, 745, 746, 749, 750, 755, 756, 758, 759, 764, 765, 775, 776, 790, 791, 793, 794, 796, 797, 800, 801, 802, 803, 806, 807, 808, 843, 844, 846, 847, 870, 871, 889, 890, 892, 893, 897, 898, 913, 914, 922, 923, 924, 952, 953, 956, 957, 964, 965, 966, 967, 980, 981, 995, 996, 1000, 1001, 1008, 1009, 1014, 1015, 1024, 1025, 1026, 1027, 1028, 1033, 1034, 1041, 1042, 1053, 1054, 1066, 1067, 1075, 1076, 1084, 1085, 1089, 1090, 1093, 1094, 1102, 1103, 1110, 1111, 1116, 1117, 1151, 1152, 1161, 1162, 1169, 1170, 1171, 1172, 1173, 1174, 1177, 1178, 1180, 1181, 1192, 1193, 1198, 1199, 1204, 1205, 1206, 1207, 1230, 1231, 1247, 1248, 1253, 1254, 1258, 1259, 1260, 1261, 1266, 1267, 1293, 1294, 1295, 1296, 1311, 1312, 1313, 1314, 1315, 1319, 1320, 1323, 1324, 1343, 1344, 1345, 1346, 1351, 1352, 1354, 1355, 1359, 1360, 1376, 1377, 1382, 1383, 1384, 1391, 1392, 1404, 1405, 1413, 1414, 1418, 1419, 1430, 1431, 1433, 1434, 1438, 1439, 1440, 1441, 1442, 1444, 1445, 1446, 1447, 1448, 1449, 1450, 1452, 1453, 1460, 1461, 1464, 1465, 1470, 1471, 1473, 1474, 1479, 1480, 1483, 1484, 1501, 1502, 1507, 1508, 1509, 1531, 1532, 1543, 1544, 1552, 1553, 1558, 1559, 1563, 1564, 1566, 1567, 1572, 1573, 1574, 1575, 1579, 1580, 1581, 1594, 1595, 1628, 1629, 1630, 1631, 1636, 1637, 1638, 1654, 1655, 1661, 1662, 1670, 1671, 1675, 1676, 1679, 1680, 1681, 1682, 1683, 1684, 1686, 1687, 1697, 1698, 1700, 1701, 1705, 1706, 1712, 1713, 1719, 1720, 1725, 1726, 1727, 1728, 1738, 1739, 1741, 1742, 1757, 1758, 1764, 1765, 1775, 1776, 1784, 1785, 1799, 1800, 1802, 1803, 1810, 1811, 1815, 1816, 1820, 1821, 1835, 1836, 1837, 1856, 1857, 1859, 1860, 1862, 1863, 1868, 1869, 1874, 1875, 1876, 1877 (0 recoverable) 
