Discussed in https://its.cern.ch/jira/browse/ATLLARSWDPQ-1132

** Defect LAR_EMBA_NOISEBURST **
Affecting 6 LBs: 521, 522, 636, 637, 742, 743 (0 recoverable) 
** Defect LAR_EMBC_NOISEBURST **
Affecting 2 LBs: 816, 817 (0 recoverable) 
** Defect LAR_HECA_NOISEBURST **
Affecting 153 LBs: 321, 322, 323, 327, 328, 337, 338, 349, 350, 370, 371, 390, 391, 404, 405, 417, 418, 438, 439, 462, 463, 466, 467, 485, 486, 487, 493, 494, 497, 498, 505, 506, 511, 512, 513, 514, 530, 531, 543, 544, 545, 546, 547, 553, 554, 557, 558, 578, 579, 581, 582, 597, 598, 599, 607, 608, 609, 623, 624, 632, 633, 634, 635, 636, 637, 643, 644, 647, 648, 661, 662, 663, 678, 679, 685, 686, 687, 688, 689, 697, 698, 716, 717, 718, 719, 727, 728, 755, 756, 766, 767, 773, 774, 775, 776, 777, 778, 779, 780, 781, 782, 783, 784, 785, 786, 787, 788, 792, 793, 805, 806, 809, 810, 811, 830, 831, 838, 839, 856, 857, 889, 890, 896, 897, 939, 940, 962, 963, 988, 989, 1032, 1033, 1038, 1039, 1040, 1051, 1052, 1068, 1069, 1101, 1102, 1129, 1130, 1137, 1138, 1157, 1158, 1199, 1200, 1223, 1224, 1228, 1229 (0 recoverable) 
** Defect LAR_HECC_NOISEBURST **
Affecting 455 LBs: 245, 246, 247, 248, 250, 251, 252, 253, 254, 255, 256, 314, 315, 316, 319, 320, 327, 328, 329, 330, 334, 335, 337, 338, 339, 348, 349, 353, 354, 355, 358, 359, 361, 362, 363, 364, 365, 367, 368, 369, 370, 371, 373, 374, 375, 376, 377, 378, 379, 380, 381, 382, 396, 397, 398, 399, 401, 402, 406, 407, 408, 409, 410, 411, 412, 413, 414, 415, 416, 417, 418, 419, 420, 421, 422, 423, 424, 425, 426, 427, 428, 429, 430, 431, 432, 433, 434, 435, 436, 437, 438, 439, 440, 441, 442, 443, 444, 445, 446, 447, 448, 449, 450, 451, 452, 453, 455, 456, 457, 459, 460, 461, 462, 463, 464, 465, 466, 467, 469, 470, 471, 472, 473, 474, 475, 476, 477, 478, 480, 481, 482, 483, 484, 485, 486, 487, 491, 492, 493, 494, 495, 496, 497, 498, 499, 501, 502, 503, 504, 505, 508, 509, 513, 514, 515, 516, 520, 521, 522, 525, 526, 528, 529, 530, 531, 532, 538, 539, 545, 546, 547, 548, 552, 553, 556, 557, 558, 559, 560, 561, 565, 566, 570, 571, 572, 576, 577, 582, 583, 584, 587, 588, 590, 591, 602, 603, 604, 615, 616, 618, 619, 620, 621, 622, 624, 625, 627, 628, 629, 630, 632, 633, 634, 636, 637, 638, 639, 640, 642, 643, 644, 645, 648, 649, 650, 651, 652, 653, 654, 656, 657, 658, 659, 660, 661, 662, 663, 673, 674, 675, 676, 677, 678, 679, 680, 684, 685, 686, 687, 688, 689, 701, 702, 703, 704, 709, 710, 711, 713, 714, 715, 716, 717, 718, 722, 723, 724, 725, 726, 727, 728, 729, 730, 731, 733, 734, 736, 737, 742, 743, 744, 745, 746, 747, 748, 749, 752, 753, 756, 757, 758, 759, 760, 764, 765, 771, 772, 777, 778, 785, 786, 787, 795, 796, 797, 801, 802, 809, 810, 814, 815, 816, 817, 818, 823, 824, 827, 828, 831, 832, 833, 834, 835, 844, 845, 846, 848, 849, 850, 852, 853, 857, 858, 862, 863, 866, 867, 878, 879, 880, 881, 882, 883, 887, 888, 889, 890, 891, 892, 893, 894, 895, 896, 897, 898, 899, 900, 901, 903, 904, 905, 906, 910, 911, 912, 913, 922, 923, 934, 935, 939, 940, 943, 944, 945, 946, 967, 968, 973, 974, 975, 976, 988, 989, 990, 991, 993, 994, 997, 998, 1004, 1005, 1006, 1007, 1014, 1015, 1029, 1030, 1039, 1040, 1041, 1053, 1054, 1082, 1083, 1084, 1086, 1087, 1088, 1089, 1090, 1091, 1092, 1093, 1094, 1095, 1096, 1101, 1102, 1110, 1111, 1112, 1114, 1115, 1120, 1121, 1122, 1123, 1132, 1133, 1134, 1141, 1142, 1143, 1144, 1145, 1146, 1148, 1149, 1157, 1158, 1159, 1160, 1168, 1169, 1178, 1179, 1183, 1184, 1191, 1192, 1194, 1195, 1208, 1209 (0 recoverable) 
** Defect LAR_EMECA_NOISEBURST **
Affecting 153 LBs: 321, 322, 323, 327, 328, 337, 338, 349, 350, 370, 371, 390, 391, 404, 405, 417, 418, 438, 439, 462, 463, 466, 467, 485, 486, 487, 493, 494, 497, 498, 505, 506, 511, 512, 513, 514, 530, 531, 543, 544, 545, 546, 547, 553, 554, 557, 558, 578, 579, 581, 582, 597, 598, 599, 607, 608, 609, 623, 624, 632, 633, 634, 635, 636, 637, 643, 644, 647, 648, 661, 662, 663, 678, 679, 685, 686, 687, 688, 689, 697, 698, 716, 717, 718, 719, 727, 728, 755, 756, 766, 767, 773, 774, 775, 776, 777, 778, 779, 780, 781, 782, 783, 784, 785, 786, 787, 788, 792, 793, 805, 806, 809, 810, 811, 830, 831, 838, 839, 856, 857, 889, 890, 896, 897, 939, 940, 962, 963, 988, 989, 1032, 1033, 1038, 1039, 1040, 1051, 1052, 1068, 1069, 1101, 1102, 1129, 1130, 1137, 1138, 1157, 1158, 1199, 1200, 1223, 1224, 1228, 1229 (0 recoverable) 
** Defect LAR_EMECC_NOISEBURST **
Affecting 455 LBs: 245, 246, 247, 248, 250, 251, 252, 253, 254, 255, 256, 314, 315, 316, 319, 320, 327, 328, 329, 330, 334, 335, 337, 338, 339, 348, 349, 353, 354, 355, 358, 359, 361, 362, 363, 364, 365, 367, 368, 369, 370, 371, 373, 374, 375, 376, 377, 378, 379, 380, 381, 382, 396, 397, 398, 399, 401, 402, 406, 407, 408, 409, 410, 411, 412, 413, 414, 415, 416, 417, 418, 419, 420, 421, 422, 423, 424, 425, 426, 427, 428, 429, 430, 431, 432, 433, 434, 435, 436, 437, 438, 439, 440, 441, 442, 443, 444, 445, 446, 447, 448, 449, 450, 451, 452, 453, 455, 456, 457, 459, 460, 461, 462, 463, 464, 465, 466, 467, 469, 470, 471, 472, 473, 474, 475, 476, 477, 478, 480, 481, 482, 483, 484, 485, 486, 487, 491, 492, 493, 494, 495, 496, 497, 498, 499, 501, 502, 503, 504, 505, 508, 509, 513, 514, 515, 516, 520, 521, 522, 525, 526, 528, 529, 530, 531, 532, 538, 539, 545, 546, 547, 548, 552, 553, 556, 557, 558, 559, 560, 561, 565, 566, 570, 571, 572, 576, 577, 582, 583, 584, 587, 588, 590, 591, 602, 603, 604, 615, 616, 618, 619, 620, 621, 622, 624, 625, 627, 628, 629, 630, 632, 633, 634, 636, 637, 638, 639, 640, 642, 643, 644, 645, 648, 649, 650, 651, 652, 653, 654, 656, 657, 658, 659, 660, 661, 662, 663, 673, 674, 675, 676, 677, 678, 679, 680, 684, 685, 686, 687, 688, 689, 701, 702, 703, 704, 709, 710, 711, 713, 714, 715, 716, 717, 718, 722, 723, 724, 725, 726, 727, 728, 729, 730, 731, 733, 734, 736, 737, 742, 743, 744, 745, 746, 747, 748, 749, 752, 753, 756, 757, 758, 759, 760, 764, 765, 771, 772, 777, 778, 785, 786, 787, 795, 796, 797, 801, 802, 809, 810, 814, 815, 816, 817, 818, 823, 824, 827, 828, 831, 832, 833, 834, 835, 844, 845, 846, 848, 849, 850, 852, 853, 857, 858, 862, 863, 866, 867, 878, 879, 880, 881, 882, 883, 887, 888, 889, 890, 891, 892, 893, 894, 895, 896, 897, 898, 899, 900, 901, 903, 904, 905, 906, 910, 911, 912, 913, 922, 923, 934, 935, 939, 940, 943, 944, 945, 946, 967, 968, 973, 974, 975, 976, 988, 989, 990, 991, 993, 994, 997, 998, 1004, 1005, 1006, 1007, 1014, 1015, 1029, 1030, 1039, 1040, 1041, 1053, 1054, 1082, 1083, 1084, 1086, 1087, 1088, 1089, 1090, 1091, 1092, 1093, 1094, 1095, 1096, 1101, 1102, 1110, 1111, 1112, 1114, 1115, 1120, 1121, 1122, 1123, 1132, 1133, 1134, 1141, 1142, 1143, 1144, 1145, 1146, 1148, 1149, 1157, 1158, 1159, 1160, 1168, 1169, 1178, 1179, 1183, 1184, 1191, 1192, 1194, 1195, 1208, 1209 (0 recoverable) 
** Defect LAR_FCALA_NOISEBURST **
Affecting 153 LBs: 321, 322, 323, 327, 328, 337, 338, 349, 350, 370, 371, 390, 391, 404, 405, 417, 418, 438, 439, 462, 463, 466, 467, 485, 486, 487, 493, 494, 497, 498, 505, 506, 511, 512, 513, 514, 530, 531, 543, 544, 545, 546, 547, 553, 554, 557, 558, 578, 579, 581, 582, 597, 598, 599, 607, 608, 609, 623, 624, 632, 633, 634, 635, 636, 637, 643, 644, 647, 648, 661, 662, 663, 678, 679, 685, 686, 687, 688, 689, 697, 698, 716, 717, 718, 719, 727, 728, 755, 756, 766, 767, 773, 774, 775, 776, 777, 778, 779, 780, 781, 782, 783, 784, 785, 786, 787, 788, 792, 793, 805, 806, 809, 810, 811, 830, 831, 838, 839, 856, 857, 889, 890, 896, 897, 939, 940, 962, 963, 988, 989, 1032, 1033, 1038, 1039, 1040, 1051, 1052, 1068, 1069, 1101, 1102, 1129, 1130, 1137, 1138, 1157, 1158, 1199, 1200, 1223, 1224, 1228, 1229 (0 recoverable) 
** Defect LAR_FCALC_NOISEBURST **
Affecting 455 LBs: 245, 246, 247, 248, 250, 251, 252, 253, 254, 255, 256, 314, 315, 316, 319, 320, 327, 328, 329, 330, 334, 335, 337, 338, 339, 348, 349, 353, 354, 355, 358, 359, 361, 362, 363, 364, 365, 367, 368, 369, 370, 371, 373, 374, 375, 376, 377, 378, 379, 380, 381, 382, 396, 397, 398, 399, 401, 402, 406, 407, 408, 409, 410, 411, 412, 413, 414, 415, 416, 417, 418, 419, 420, 421, 422, 423, 424, 425, 426, 427, 428, 429, 430, 431, 432, 433, 434, 435, 436, 437, 438, 439, 440, 441, 442, 443, 444, 445, 446, 447, 448, 449, 450, 451, 452, 453, 455, 456, 457, 459, 460, 461, 462, 463, 464, 465, 466, 467, 469, 470, 471, 472, 473, 474, 475, 476, 477, 478, 480, 481, 482, 483, 484, 485, 486, 487, 491, 492, 493, 494, 495, 496, 497, 498, 499, 501, 502, 503, 504, 505, 508, 509, 513, 514, 515, 516, 520, 521, 522, 525, 526, 528, 529, 530, 531, 532, 538, 539, 545, 546, 547, 548, 552, 553, 556, 557, 558, 559, 560, 561, 565, 566, 570, 571, 572, 576, 577, 582, 583, 584, 587, 588, 590, 591, 602, 603, 604, 615, 616, 618, 619, 620, 621, 622, 624, 625, 627, 628, 629, 630, 632, 633, 634, 636, 637, 638, 639, 640, 642, 643, 644, 645, 648, 649, 650, 651, 652, 653, 654, 656, 657, 658, 659, 660, 661, 662, 663, 673, 674, 675, 676, 677, 678, 679, 680, 684, 685, 686, 687, 688, 689, 701, 702, 703, 704, 709, 710, 711, 713, 714, 715, 716, 717, 718, 722, 723, 724, 725, 726, 727, 728, 729, 730, 731, 733, 734, 736, 737, 742, 743, 744, 745, 746, 747, 748, 749, 752, 753, 756, 757, 758, 759, 760, 764, 765, 771, 772, 777, 778, 785, 786, 787, 795, 796, 797, 801, 802, 809, 810, 814, 815, 816, 817, 818, 823, 824, 827, 828, 831, 832, 833, 834, 835, 844, 845, 846, 848, 849, 850, 852, 853, 857, 858, 862, 863, 866, 867, 878, 879, 880, 881, 882, 883, 887, 888, 889, 890, 891, 892, 893, 894, 895, 896, 897, 898, 899, 900, 901, 903, 904, 905, 906, 910, 911, 912, 913, 922, 923, 934, 935, 939, 940, 943, 944, 945, 946, 967, 968, 973, 974, 975, 976, 988, 989, 990, 991, 993, 994, 997, 998, 1004, 1005, 1006, 1007, 1014, 1015, 1029, 1030, 1039, 1040, 1041, 1053, 1054, 1082, 1083, 1084, 1086, 1087, 1088, 1089, 1090, 1091, 1092, 1093, 1094, 1095, 1096, 1101, 1102, 1110, 1111, 1112, 1114, 1115, 1120, 1121, 1122, 1123, 1132, 1133, 1134, 1141, 1142, 1143, 1144, 1145, 1146, 1148, 1149, 1157, 1158, 1159, 1160, 1168, 1169, 1178, 1179, 1183, 1184, 1191, 1192, 1194, 1195, 1208, 1209 (0 recoverable) 
