{
    "filetype": "l1prescale",
    "name": "Physics_pp_run3_v1",
    "cutValues": {
        "L1_2EM15": {
            "cut": -1,
            "enabled": false,
            "info": "prescale: -1"
        },
        "L1_2EM15VH": {
            "cut": -1,
            "enabled": false,
            "info": "prescale: -1"
        },
        "L1_2EM15VHI": {
            "cut": -1,
            "enabled": false,
            "info": "prescale: -1"
        },
        "L1_2EM20VH": {
            "cut": -1,
            "enabled": false,
            "info": "prescale: -1"
        },
        "L1_2EM3": {
            "cut": -1,
            "enabled": false,
            "info": "prescale: -1"
        },
        "L1_2EM7": {
            "cut": -1,
            "enabled": false,
            "info": "prescale: -1"
        },
        "L1_2EM8VH_MU8F": {
            "cut": -1,
            "enabled": false,
            "info": "prescale: -1"
        },
        "L1_2J15_XE55": {
            "cut": -1,
            "enabled": false,
            "info": "prescale: -1"
        },
        "L1_2J50_XE40": {
            "cut": -1,
            "enabled": false,
            "info": "prescale: -1"
        },
        "L1_2TAU8": {
            "cut": -1,
            "enabled": false,
            "info": "prescale: -1"
        },
        "L1_3J15p0ETA25_XE40": {
            "cut": -1,
            "enabled": false,
            "info": "prescale: -1"
        },
        "L1_3J25p0ETA23": {
            "cut": -1,
            "enabled": false,
            "info": "prescale: -1"
        },
        "L1_3J35p0ETA23": {
            "cut": -1,
            "enabled": false,
            "info": "prescale: -1"
        },
        "L1_3J50": {
            "cut": -1,
            "enabled": false,
            "info": "prescale: -1"
        },
        "L1_4J15": {
            "cut": -1,
            "enabled": false,
            "info": "prescale: -1"
        },
        "L1_4J15p0ETA25": {
            "cut": -1,
            "enabled": false,
            "info": "prescale: -1"
        },
        "L1_4J20": {
            "cut": -1,
            "enabled": false,
            "info": "prescale: -1"
        },
        "L1_5J15p0ETA25": {
            "cut": -1,
            "enabled": false,
            "info": "prescale: -1"
        },
        "L1_6J15": {
            "cut": -1,
            "enabled": false,
            "info": "prescale: -1"
        },
        "L1_AFP_A": {
            "cut": -1,
            "enabled": false,
            "info": "prescale: -1"
        },
        "L1_AFP_A_AND_C": {
            "cut": -1,
            "enabled": false,
            "info": "prescale: -1"
        },
        "L1_AFP_A_AND_C_J12": {
            "cut": -1,
            "enabled": false,
            "info": "prescale: -1"
        },
        "L1_AFP_A_AND_C_MBTS_2": {
            "cut": -1,
            "enabled": false,
            "info": "prescale: -1"
        },
        "L1_AFP_A_AND_C_TOF_J20": {
            "cut": -1,
            "enabled": false,
            "info": "prescale: -1"
        },
        "L1_AFP_A_AND_C_TOF_J30": {
            "cut": -1,
            "enabled": false,
            "info": "prescale: -1"
        },
        "L1_AFP_A_AND_C_TOF_J50": {
            "cut": -1,
            "enabled": false,
            "info": "prescale: -1"
        },
        "L1_AFP_A_AND_C_TOF_J75": {
            "cut": -1,
            "enabled": false,
            "info": "prescale: -1"
        },
        "L1_AFP_A_AND_C_TOF_T0T1": {
            "cut": -1,
            "enabled": false,
            "info": "prescale: -1"
        },
        "L1_AFP_A_AND_C_TOF_T0T1_J20": {
            "cut": -1,
            "enabled": false,
            "info": "prescale: -1"
        },
        "L1_AFP_A_AND_C_TOF_T0T1_J30": {
            "cut": -1,
            "enabled": false,
            "info": "prescale: -1"
        },
        "L1_AFP_A_AND_C_TOF_T0T1_J50": {
            "cut": -1,
            "enabled": false,
            "info": "prescale: -1"
        },
        "L1_AFP_A_AND_C_TOF_T0T1_J75": {
            "cut": -1,
            "enabled": false,
            "info": "prescale: -1"
        },
        "L1_AFP_A_OR_C": {
            "cut": -1,
            "enabled": false,
            "info": "prescale: -1"
        },
        "L1_AFP_A_OR_C_EMPTY": {
            "cut": -1,
            "enabled": false,
            "info": "prescale: -1"
        },
        "L1_AFP_A_OR_C_FIRSTEMPTY": {
            "cut": -1,
            "enabled": false,
            "info": "prescale: -1"
        },
        "L1_AFP_A_OR_C_J12": {
            "cut": -1,
            "enabled": false,
            "info": "prescale: -1"
        },
        "L1_AFP_A_OR_C_MBTS_2": {
            "cut": -1,
            "enabled": false,
            "info": "prescale: -1"
        },
        "L1_AFP_A_OR_C_UNPAIRED_ISO": {
            "cut": -1,
            "enabled": false,
            "info": "prescale: -1"
        },
        "L1_AFP_A_OR_C_UNPAIRED_NONISO": {
            "cut": -1,
            "enabled": false,
            "info": "prescale: -1"
        },
        "L1_AFP_C": {
            "cut": -1,
            "enabled": false,
            "info": "prescale: -1"
        },
        "L1_AFP_FSA_BGRP12": {
            "cut": -1,
            "enabled": false,
            "info": "prescale: -1"
        },
        "L1_AFP_FSA_TOF_T0_BGRP12": {
            "cut": -1,
            "enabled": false,
            "info": "prescale: -1"
        },
        "L1_AFP_FSA_TOF_T1_BGRP12": {
            "cut": -1,
            "enabled": false,
            "info": "prescale: -1"
        },
        "L1_AFP_FSA_TOF_T2_BGRP12": {
            "cut": -1,
            "enabled": false,
            "info": "prescale: -1"
        },
        "L1_AFP_FSA_TOF_T3_BGRP12": {
            "cut": -1,
            "enabled": false,
            "info": "prescale: -1"
        },
        "L1_AFP_FSC_BGRP12": {
            "cut": -1,
            "enabled": false,
            "info": "prescale: -1"
        },
        "L1_AFP_FSC_TOF_T0_BGRP12": {
            "cut": -1,
            "enabled": false,
            "info": "prescale: -1"
        },
        "L1_AFP_FSC_TOF_T1_BGRP12": {
            "cut": -1,
            "enabled": false,
            "info": "prescale: -1"
        },
        "L1_AFP_FSC_TOF_T2_BGRP12": {
            "cut": -1,
            "enabled": false,
            "info": "prescale: -1"
        },
        "L1_AFP_FSC_TOF_T3_BGRP12": {
            "cut": -1,
            "enabled": false,
            "info": "prescale: -1"
        },
        "L1_AFP_NSA_BGRP12": {
            "cut": -1,
            "enabled": false,
            "info": "prescale: -1"
        },
        "L1_AFP_NSC_BGRP12": {
            "cut": -1,
            "enabled": false,
            "info": "prescale: -1"
        },
        "L1_BCM_AC_ABORTGAPNOTCALIB": {
            "cut": -1,
            "enabled": false,
            "info": "prescale: -1"
        },
        "L1_BCM_AC_CALIB": {
            "cut": -1,
            "enabled": false,
            "info": "prescale: -1"
        },
        "L1_BCM_AC_CA_BGRP12": {
            "cut": -1,
            "enabled": false,
            "info": "prescale: -1"
        },
        "L1_BCM_AC_UNPAIREDB1": {
            "cut": -1,
            "enabled": false,
            "info": "prescale: -1"
        },
        "L1_BCM_AC_UNPAIRED_ISO": {
            "cut": -1,
            "enabled": false,
            "info": "prescale: -1"
        },
        "L1_BCM_AC_UNPAIRED_NONISO": {
            "cut": -1,
            "enabled": false,
            "info": "prescale: -1"
        },
        "L1_BCM_CA_ABORTGAPNOTCALIB": {
            "cut": -1,
            "enabled": false,
            "info": "prescale: -1"
        },
        "L1_BCM_CA_CALIB": {
            "cut": -1,
            "enabled": false,
            "info": "prescale: -1"
        },
        "L1_BCM_CA_UNPAIREDB2": {
            "cut": -1,
            "enabled": false,
            "info": "prescale: -1"
        },
        "L1_BCM_CA_UNPAIRED_ISO": {
            "cut": -1,
            "enabled": false,
            "info": "prescale: -1"
        },
        "L1_BCM_CA_UNPAIRED_NONISO": {
            "cut": -1,
            "enabled": false,
            "info": "prescale: -1"
        },
        "L1_BCM_Wide_ABORTGAPNOTCALIB": {
            "cut": -1,
            "enabled": false,
            "info": "prescale: -1"
        },
        "L1_BCM_Wide_BGRP12": {
            "cut": -1,
            "enabled": false,
            "info": "prescale: -1"
        },
        "L1_BCM_Wide_CALIB": {
            "cut": -1,
            "enabled": false,
            "info": "prescale: -1"
        },
        "L1_BCM_Wide_EMPTY": {
            "cut": -1,
            "enabled": false,
            "info": "prescale: -1"
        },
        "L1_BCM_Wide_UNPAIRED_ISO": {
            "cut": -1,
            "enabled": false,
            "info": "prescale: -1"
        },
        "L1_BCM_Wide_UNPAIRED_NONISO": {
            "cut": -1,
            "enabled": false,
            "info": "prescale: -1"
        },
        "L1_CALREQ1": {
            "cut": -1,
            "enabled": false,
            "info": "prescale: -1"
        },
        "L1_CALREQ2": {
            "cut": 1,
            "enabled": true,
            "info": "prescale: 1.0"
        },
        "L1_EM10VH": {
            "cut": 1,
            "enabled": true,
            "info": "prescale: 1.0"
        },
        "L1_EM12": {
            "cut": -1,
            "enabled": false,
            "info": "prescale: -1"
        },
        "L1_EM15": {
            "cut": 1,
            "enabled": true,
            "info": "prescale: 1.0"
        },
        "L1_EM15VH": {
            "cut": -1,
            "enabled": false,
            "info": "prescale: -1"
        },
        "L1_EM15VHI": {
            "cut": -1,
            "enabled": false,
            "info": "prescale: -1"
        },
        "L1_EM15VHI_2TAU12IM": {
            "cut": -1,
            "enabled": false,
            "info": "prescale: -1"
        },
        "L1_EM15VHI_2TAU12IM_4J12": {
            "cut": -1,
            "enabled": false,
            "info": "prescale: -1"
        },
        "L1_EM15VHI_2TAU12IM_J25_3J12": {
            "cut": -1,
            "enabled": false,
            "info": "prescale: -1"
        },
        "L1_EM15VHI_2TAU12IM_XE35": {
            "cut": -1,
            "enabled": false,
            "info": "prescale: -1"
        },
        "L1_EM15VH_MU8F": {
            "cut": -1,
            "enabled": false,
            "info": "prescale: -1"
        },
        "L1_EM18VHI": {
            "cut": -1,
            "enabled": false,
            "info": "prescale: -1"
        },
        "L1_EM18VHI_3J20": {
            "cut": -1,
            "enabled": false,
            "info": "prescale: -1"
        },
        "L1_EM20VH": {
            "cut": -1,
            "enabled": false,
            "info": "prescale: -1"
        },
        "L1_EM20VHI": {
            "cut": -1,
            "enabled": false,
            "info": "prescale: -1"
        },
        "L1_EM20VH_3EM10VH": {
            "cut": -1,
            "enabled": false,
            "info": "prescale: -1"
        },
        "L1_EM20VH_3J20": {
            "cut": -1,
            "enabled": false,
            "info": "prescale: -1"
        },
        "L1_EM20VH_FIRSTEMPTY": {
            "cut": -1,
            "enabled": false,
            "info": "prescale: -1"
        },
        "L1_EM22VH": {
            "cut": -1,
            "enabled": false,
            "info": "prescale: -1"
        },
        "L1_EM22VHI": {
            "cut": 1,
            "enabled": true,
            "info": "prescale: 1.0"
        },
        "L1_EM24VHI": {
            "cut": -1,
            "enabled": false,
            "info": "prescale: -1"
        },
        "L1_EM3": {
            "cut": 1,
            "enabled": true,
            "info": "prescale: 1.0"
        },
        "L1_EM3_EMPTY": {
            "cut": 1,
            "enabled": true,
            "info": "prescale: 1.0"
        },
        "L1_EM7": {
            "cut": -1,
            "enabled": false,
            "info": "prescale: -1"
        },
        "L1_EM7_AFP_A_AND_C": {
            "cut": -1,
            "enabled": false,
            "info": "prescale: -1"
        },
        "L1_EM7_AFP_A_OR_C": {
            "cut": -1,
            "enabled": false,
            "info": "prescale: -1"
        },
        "L1_EM7_EMPTY": {
            "cut": 1,
            "enabled": true,
            "info": "prescale: 1.0"
        },
        "L1_EM7_FIRSTEMPTY": {
            "cut": 1,
            "enabled": true,
            "info": "prescale: 1.0"
        },
        "L1_EM7_MU8F": {
            "cut": -1,
            "enabled": false,
            "info": "prescale: -1"
        },
        "L1_EM7_UNPAIRED_ISO": {
            "cut": -1,
            "enabled": false,
            "info": "prescale: -1"
        },
        "L1_EM8VH": {
            "cut": -1,
            "enabled": false,
            "info": "prescale: -1"
        },
        "L1_J100": {
            "cut": 1,
            "enabled": true,
            "info": "prescale: 1.0"
        },
        "L1_J100_FIRSTEMPTY": {
            "cut": -1,
            "enabled": false,
            "info": "prescale: -1"
        },
        "L1_J12": {
            "cut": -1,
            "enabled": false,
            "info": "prescale: -1"
        },
        "L1_J12_ABORTGAPNOTCALIB": {
            "cut": -1,
            "enabled": false,
            "info": "prescale: -1"
        },
        "L1_J12_BGRP12": {
            "cut": -1,
            "enabled": false,
            "info": "prescale: -1"
        },
        "L1_J12_EMPTY": {
            "cut": 1,
            "enabled": true,
            "info": "prescale: 1.0"
        },
        "L1_J12_FIRSTEMPTY": {
            "cut": 1,
            "enabled": true,
            "info": "prescale: 1.0"
        },
        "L1_J12_UNPAIREDB1": {
            "cut": -1,
            "enabled": false,
            "info": "prescale: -1"
        },
        "L1_J12_UNPAIREDB2": {
            "cut": -1,
            "enabled": false,
            "info": "prescale: -1"
        },
        "L1_J12_UNPAIRED_ISO": {
            "cut": -1,
            "enabled": false,
            "info": "prescale: -1"
        },
        "L1_J12_UNPAIRED_NONISO": {
            "cut": -1,
            "enabled": false,
            "info": "prescale: -1"
        },
        "L1_J15": {
            "cut": 1,
            "enabled": true,
            "info": "prescale: 1.0"
        },
        "L1_J15p31ETA49": {
            "cut": 1,
            "enabled": true,
            "info": "prescale: 1.0"
        },
        "L1_J15p31ETA49_UNPAIRED_ISO": {
            "cut": -1,
            "enabled": false,
            "info": "prescale: -1"
        },
        "L1_J20": {
            "cut": 1,
            "enabled": true,
            "info": "prescale: 1.0"
        },
        "L1_J20p31ETA49": {
            "cut": -1,
            "enabled": false,
            "info": "prescale: -1"
        },
        "L1_J25": {
            "cut": -1,
            "enabled": false,
            "info": "prescale: -1"
        },
        "L1_J25p0ETA23_2J15p31ETA49": {
            "cut": -1,
            "enabled": false,
            "info": "prescale: -1"
        },
        "L1_J30": {
            "cut": -1,
            "enabled": false,
            "info": "prescale: -1"
        },
        "L1_J30_EMPTY": {
            "cut": 1,
            "enabled": true,
            "info": "prescale: 1.0"
        },
        "L1_J30_FIRSTEMPTY": {
            "cut": 1,
            "enabled": true,
            "info": "prescale: 1.0"
        },
        "L1_J30p31ETA49": {
            "cut": 1,
            "enabled": true,
            "info": "prescale: 1.0"
        },
        "L1_J30p31ETA49_EMPTY": {
            "cut": 1,
            "enabled": true,
            "info": "prescale: 1.0"
        },
        "L1_J30p31ETA49_UNPAIRED_ISO": {
            "cut": -1,
            "enabled": false,
            "info": "prescale: -1"
        },
        "L1_J30p31ETA49_UNPAIRED_NONISO": {
            "cut": -1,
            "enabled": false,
            "info": "prescale: -1"
        },
        "L1_J40": {
            "cut": -1,
            "enabled": false,
            "info": "prescale: -1"
        },
        "L1_J400": {
            "cut": -1,
            "enabled": false,
            "info": "prescale: -1"
        },
        "L1_J400_LAR": {
            "cut": -1,
            "enabled": false,
            "info": "prescale: -1"
        },
        "L1_J40_XE50": {
            "cut": 1,
            "enabled": true,
            "info": "prescale: 1.0"
        },
        "L1_J40_XE60": {
            "cut": 1,
            "enabled": true,
            "info": "prescale: 1.0"
        },
        "L1_J40p0ETA25_2J15p31ETA49": {
            "cut": -1,
            "enabled": false,
            "info": "prescale: -1"
        },
        "L1_J40p0ETA25_2J25_J20p31ETA49": {
            "cut": -1,
            "enabled": false,
            "info": "prescale: -1"
        },
        "L1_J45p0ETA21_3J15p0ETA25": {
            "cut": -1,
            "enabled": false,
            "info": "prescale: -1"
        },
        "L1_J50": {
            "cut": -1,
            "enabled": false,
            "info": "prescale: -1"
        },
        "L1_J50_2J40p0ETA25_3J15p0ETA25": {
            "cut": -1,
            "enabled": false,
            "info": "prescale: -1"
        },
        "L1_J50_ABORTGAPNOTCALIB": {
            "cut": -1,
            "enabled": false,
            "info": "prescale: -1"
        },
        "L1_J50_UNPAIRED_ISO": {
            "cut": -1,
            "enabled": false,
            "info": "prescale: -1"
        },
        "L1_J50_UNPAIRED_NONISO": {
            "cut": -1,
            "enabled": false,
            "info": "prescale: -1"
        },
        "L1_J50p31ETA49": {
            "cut": -1,
            "enabled": false,
            "info": "prescale: -1"
        },
        "L1_J75": {
            "cut": 1,
            "enabled": true,
            "info": "prescale: 1.0"
        },
        "L1_J75p31ETA49": {
            "cut": 1,
            "enabled": true,
            "info": "prescale: 1.0"
        },
        "L1_J85": {
            "cut": -1,
            "enabled": false,
            "info": "prescale: -1"
        },
        "L1_J85_3J30": {
            "cut": -1,
            "enabled": false,
            "info": "prescale: -1"
        },
        "L1_MBTSA0": {
            "cut": -1,
            "enabled": false,
            "info": "prescale: -1"
        },
        "L1_MBTSA1": {
            "cut": -1,
            "enabled": false,
            "info": "prescale: -1"
        },
        "L1_MBTSA10": {
            "cut": -1,
            "enabled": false,
            "info": "prescale: -1"
        },
        "L1_MBTSA11": {
            "cut": -1,
            "enabled": false,
            "info": "prescale: -1"
        },
        "L1_MBTSA12": {
            "cut": -1,
            "enabled": false,
            "info": "prescale: -1"
        },
        "L1_MBTSA13": {
            "cut": -1,
            "enabled": false,
            "info": "prescale: -1"
        },
        "L1_MBTSA14": {
            "cut": -1,
            "enabled": false,
            "info": "prescale: -1"
        },
        "L1_MBTSA15": {
            "cut": -1,
            "enabled": false,
            "info": "prescale: -1"
        },
        "L1_MBTSA2": {
            "cut": -1,
            "enabled": false,
            "info": "prescale: -1"
        },
        "L1_MBTSA3": {
            "cut": -1,
            "enabled": false,
            "info": "prescale: -1"
        },
        "L1_MBTSA4": {
            "cut": -1,
            "enabled": false,
            "info": "prescale: -1"
        },
        "L1_MBTSA5": {
            "cut": -1,
            "enabled": false,
            "info": "prescale: -1"
        },
        "L1_MBTSA6": {
            "cut": -1,
            "enabled": false,
            "info": "prescale: -1"
        },
        "L1_MBTSA7": {
            "cut": -1,
            "enabled": false,
            "info": "prescale: -1"
        },
        "L1_MBTSA8": {
            "cut": -1,
            "enabled": false,
            "info": "prescale: -1"
        },
        "L1_MBTSA9": {
            "cut": -1,
            "enabled": false,
            "info": "prescale: -1"
        },
        "L1_MBTSC0": {
            "cut": -1,
            "enabled": false,
            "info": "prescale: -1"
        },
        "L1_MBTSC1": {
            "cut": -1,
            "enabled": false,
            "info": "prescale: -1"
        },
        "L1_MBTSC10": {
            "cut": -1,
            "enabled": false,
            "info": "prescale: -1"
        },
        "L1_MBTSC11": {
            "cut": -1,
            "enabled": false,
            "info": "prescale: -1"
        },
        "L1_MBTSC12": {
            "cut": -1,
            "enabled": false,
            "info": "prescale: -1"
        },
        "L1_MBTSC13": {
            "cut": -1,
            "enabled": false,
            "info": "prescale: -1"
        },
        "L1_MBTSC14": {
            "cut": -1,
            "enabled": false,
            "info": "prescale: -1"
        },
        "L1_MBTSC15": {
            "cut": -1,
            "enabled": false,
            "info": "prescale: -1"
        },
        "L1_MBTSC2": {
            "cut": -1,
            "enabled": false,
            "info": "prescale: -1"
        },
        "L1_MBTSC3": {
            "cut": -1,
            "enabled": false,
            "info": "prescale: -1"
        },
        "L1_MBTSC4": {
            "cut": -1,
            "enabled": false,
            "info": "prescale: -1"
        },
        "L1_MBTSC5": {
            "cut": -1,
            "enabled": false,
            "info": "prescale: -1"
        },
        "L1_MBTSC6": {
            "cut": -1,
            "enabled": false,
            "info": "prescale: -1"
        },
        "L1_MBTSC7": {
            "cut": -1,
            "enabled": false,
            "info": "prescale: -1"
        },
        "L1_MBTSC8": {
            "cut": -1,
            "enabled": false,
            "info": "prescale: -1"
        },
        "L1_MBTSC9": {
            "cut": -1,
            "enabled": false,
            "info": "prescale: -1"
        },
        "L1_MBTS_1": {
            "cut": -1,
            "enabled": false,
            "info": "prescale: -1"
        },
        "L1_MBTS_1_1": {
            "cut": -1,
            "enabled": false,
            "info": "prescale: -1"
        },
        "L1_MBTS_1_1_EMPTY": {
            "cut": 1,
            "enabled": true,
            "info": "prescale: 1.0"
        },
        "L1_MBTS_1_1_UNPAIRED_ISO": {
            "cut": -1,
            "enabled": false,
            "info": "prescale: -1"
        },
        "L1_MBTS_1_A": {
            "cut": -1,
            "enabled": false,
            "info": "prescale: -1"
        },
        "L1_MBTS_1_A_EMPTY": {
            "cut": -1,
            "enabled": false,
            "info": "prescale: -1"
        },
        "L1_MBTS_1_C": {
            "cut": -1,
            "enabled": false,
            "info": "prescale: -1"
        },
        "L1_MBTS_1_C_EMPTY": {
            "cut": -1,
            "enabled": false,
            "info": "prescale: -1"
        },
        "L1_MBTS_1_EMPTY": {
            "cut": 1,
            "enabled": true,
            "info": "prescale: 1.0"
        },
        "L1_MBTS_1_UNPAIRED_ISO": {
            "cut": -1,
            "enabled": false,
            "info": "prescale: -1"
        },
        "L1_MBTS_2": {
            "cut": -1,
            "enabled": false,
            "info": "prescale: -1"
        },
        "L1_MBTS_2_EMPTY": {
            "cut": 1,
            "enabled": true,
            "info": "prescale: 1.0"
        },
        "L1_MBTS_2_UNPAIRED_ISO": {
            "cut": -1,
            "enabled": false,
            "info": "prescale: -1"
        },
        "L1_MBTS_4_A": {
            "cut": -1,
            "enabled": false,
            "info": "prescale: -1"
        },
        "L1_MBTS_4_C": {
            "cut": -1,
            "enabled": false,
            "info": "prescale: -1"
        },
        "L1_MBTS_A": {
            "cut": -1,
            "enabled": false,
            "info": "prescale: -1"
        },
        "L1_MBTS_C": {
            "cut": -1,
            "enabled": false,
            "info": "prescale: -1"
        },
        "L1_MU10BO": {
            "cut": -1,
            "enabled": false,
            "info": "prescale: -1"
        },
        "L1_MU10BOM": {
            "cut": -1,
            "enabled": false,
            "info": "prescale: -1"
        },
        "L1_MU12BOM": {
            "cut": -1,
            "enabled": false,
            "info": "prescale: -1"
        },
        "L1_MU14FCH": {
            "cut": -1,
            "enabled": false,
            "info": "prescale: -1"
        },
        "L1_MU14FCHR": {
            "cut": -1,
            "enabled": false,
            "info": "prescale: -1"
        },
        "L1_MU14FCH_EMPTY": {
            "cut": -1,
            "enabled": false,
            "info": "prescale: -1"
        },
        "L1_MU14FCH_J40": {
            "cut": -1,
            "enabled": false,
            "info": "prescale: -1"
        },
        "L1_MU14FCH_UNPAIRED_ISO": {
            "cut": -1,
            "enabled": false,
            "info": "prescale: -1"
        },
        "L1_MU14FCH_XE30": {
            "cut": -1,
            "enabled": false,
            "info": "prescale: -1"
        },
        "L1_MU15VFCH": {
            "cut": -1,
            "enabled": false,
            "info": "prescale: -1"
        },
        "L1_MU3V": {
            "cut": -1,
            "enabled": false,
            "info": "prescale: -1"
        },
        "L1_MU3VF": {
            "cut": -1,
            "enabled": false,
            "info": "prescale: -1"
        },
        "L1_MU3V_EMPTY": {
            "cut": -1,
            "enabled": false,
            "info": "prescale: -1"
        },
        "L1_MU3V_FIRSTEMPTY": {
            "cut": -1,
            "enabled": false,
            "info": "prescale: -1"
        },
        "L1_MU3V_UNPAIRED_ISO": {
            "cut": -1,
            "enabled": false,
            "info": "prescale: -1"
        },
        "L1_MU4BOM": {
            "cut": -1,
            "enabled": false,
            "info": "prescale: -1"
        },
        "L1_MU5VF": {
            "cut": -1,
            "enabled": false,
            "info": "prescale: -1"
        },
        "L1_MU5VF_AFP_A_AND_C": {
            "cut": -1,
            "enabled": false,
            "info": "prescale: -1"
        },
        "L1_MU5VF_AFP_A_OR_C": {
            "cut": -1,
            "enabled": false,
            "info": "prescale: -1"
        },
        "L1_MU5VF_EMPTY": {
            "cut": -1,
            "enabled": false,
            "info": "prescale: -1"
        },
        "L1_MU8F": {
            "cut": -1,
            "enabled": false,
            "info": "prescale: -1"
        },
        "L1_MU8FC": {
            "cut": -1,
            "enabled": false,
            "info": "prescale: -1"
        },
        "L1_MU8F_2J15_J20": {
            "cut": -1,
            "enabled": false,
            "info": "prescale: -1"
        },
        "L1_MU8F_2J20": {
            "cut": -1,
            "enabled": false,
            "info": "prescale: -1"
        },
        "L1_MU8F_3J20": {
            "cut": -1,
            "enabled": false,
            "info": "prescale: -1"
        },
        "L1_MU8F_TAU12IM": {
            "cut": -1,
            "enabled": false,
            "info": "prescale: -1"
        },
        "L1_MU8F_TAU12IM_3J12": {
            "cut": -1,
            "enabled": false,
            "info": "prescale: -1"
        },
        "L1_MU8F_TAU12IM_J25_2J12": {
            "cut": -1,
            "enabled": false,
            "info": "prescale: -1"
        },
        "L1_MU8F_TAU12IM_XE35": {
            "cut": -1,
            "enabled": false,
            "info": "prescale: -1"
        },
        "L1_MU8F_TAU20IM": {
            "cut": -1,
            "enabled": false,
            "info": "prescale: -1"
        },
        "L1_MU8F_TAU20IM_J25_2J20": {
            "cut": -1,
            "enabled": false,
            "info": "prescale: -1"
        },
        "L1_MU8VF": {
            "cut": -1,
            "enabled": false,
            "info": "prescale: -1"
        },
        "L1_MU8VFC": {
            "cut": -1,
            "enabled": false,
            "info": "prescale: -1"
        },
        "L1_MU8VF_EMPTY": {
            "cut": -1,
            "enabled": false,
            "info": "prescale: -1"
        },
        "L1_RD0_ABORTGAPNOTCALIB": {
            "cut": -1,
            "enabled": false,
            "info": "prescale: -1"
        },
        "L1_RD0_BGRP11": {
            "cut": -1,
            "enabled": false,
            "info": "prescale: -1"
        },
        "L1_RD0_BGRP7": {
            "cut": -1,
            "enabled": false,
            "info": "prescale: -1"
        },
        "L1_RD0_EMPTY": {
            "cut": 16777212,
            "enabled": true,
            "info": "prescale: 3898990.0"
        },
        "L1_RD0_FILLED": {
            "cut": 16777173,
            "enabled": true,
            "info": "prescale: 389899.0"
        },
        "L1_RD0_FIRSTEMPTY": {
            "cut": 16777173,
            "enabled": true,
            "info": "prescale: 389899.0"
        },
        "L1_RD0_UNPAIRED_ISO": {
            "cut": -1,
            "enabled": false,
            "info": "prescale: -1"
        },
        "L1_RD1_EMPTY": {
            "cut": 16777214,
            "enabled": true,
            "info": "prescale: 7797980.0"
        },
        "L1_RD2_EMPTY": {
            "cut": -1,
            "enabled": false,
            "info": "prescale: -1"
        },
        "L1_RD2_FILLED": {
            "cut": -1,
            "enabled": false,
            "info": "prescale: -1"
        },
        "L1_RD3_EMPTY": {
            "cut": -1,
            "enabled": false,
            "info": "prescale: -1"
        },
        "L1_RD3_FILLED": {
            "cut": -1,
            "enabled": false,
            "info": "prescale: -1"
        },
        "L1_TAU100": {
            "cut": -1,
            "enabled": false,
            "info": "prescale: -1"
        },
        "L1_TAU12IM": {
            "cut": -1,
            "enabled": false,
            "info": "prescale: -1"
        },
        "L1_TAU20IM": {
            "cut": -1,
            "enabled": false,
            "info": "prescale: -1"
        },
        "L1_TAU20IM_2J20_XE45": {
            "cut": -1,
            "enabled": false,
            "info": "prescale: -1"
        },
        "L1_TAU20IM_2J20_XE50": {
            "cut": -1,
            "enabled": false,
            "info": "prescale: -1"
        },
        "L1_TAU20IM_2TAU12IM": {
            "cut": -1,
            "enabled": false,
            "info": "prescale: -1"
        },
        "L1_TAU20IM_2TAU12IM_4J12p0ETA25": {
            "cut": -1,
            "enabled": false,
            "info": "prescale: -1"
        },
        "L1_TAU20IM_2TAU12IM_J25_2J20_3J12": {
            "cut": -1,
            "enabled": false,
            "info": "prescale: -1"
        },
        "L1_TAU20IM_2TAU12IM_XE35": {
            "cut": -1,
            "enabled": false,
            "info": "prescale: -1"
        },
        "L1_TAU25IM_2TAU20IM_2J25_3J20": {
            "cut": -1,
            "enabled": false,
            "info": "prescale: -1"
        },
        "L1_TAU40": {
            "cut": -1,
            "enabled": false,
            "info": "prescale: -1"
        },
        "L1_TAU40_2TAU12IM_XE40": {
            "cut": -1,
            "enabled": false,
            "info": "prescale: -1"
        },
        "L1_TAU40_EMPTY": {
            "cut": -1,
            "enabled": false,
            "info": "prescale: -1"
        },
        "L1_TAU40_UNPAIRED_ISO": {
            "cut": -1,
            "enabled": false,
            "info": "prescale: -1"
        },
        "L1_TAU60": {
            "cut": -1,
            "enabled": false,
            "info": "prescale: -1"
        },
        "L1_TAU60_2TAU40": {
            "cut": -1,
            "enabled": false,
            "info": "prescale: -1"
        },
        "L1_TAU8": {
            "cut": -1,
            "enabled": false,
            "info": "prescale: -1"
        },
        "L1_TAU8_EMPTY": {
            "cut": 1,
            "enabled": true,
            "info": "prescale: 1.0"
        },
        "L1_TAU8_FIRSTEMPTY": {
            "cut": -1,
            "enabled": false,
            "info": "prescale: -1"
        },
        "L1_TAU8_UNPAIRED_ISO": {
            "cut": -1,
            "enabled": false,
            "info": "prescale: -1"
        },
        "L1_TGC_BURST": {
            "cut": -1,
            "enabled": false,
            "info": "prescale: -1"
        },
        "L1_TRT_EMPTY": {
            "cut": -1,
            "enabled": false,
            "info": "prescale: -1"
        },
        "L1_TRT_FILLED": {
            "cut": -1,
            "enabled": false,
            "info": "prescale: -1"
        },
        "L1_XE30": {
            "cut": -1,
            "enabled": false,
            "info": "prescale: -1"
        },
        "L1_XE300": {
            "cut": -1,
            "enabled": false,
            "info": "prescale: -1"
        },
        "L1_XE35": {
            "cut": -1,
            "enabled": false,
            "info": "prescale: -1"
        },
        "L1_XE40": {
            "cut": -1,
            "enabled": false,
            "info": "prescale: -1"
        },
        "L1_XE45": {
            "cut": -1,
            "enabled": false,
            "info": "prescale: -1"
        },
        "L1_XE50": {
            "cut": -1,
            "enabled": false,
            "info": "prescale: -1"
        },
        "L1_XE55": {
            "cut": -1,
            "enabled": false,
            "info": "prescale: -1"
        },
        "L1_XE60": {
            "cut": 1,
            "enabled": true,
            "info": "prescale: 1.0"
        },
        "L1_ZB": {
            "cut": -1,
            "enabled": false,
            "info": "prescale: -1"
        },
        "L1_ZDC_A": {
            "cut": -1,
            "enabled": false,
            "info": "prescale: -1"
        },
        "L1_ZDC_AND": {
            "cut": -1,
            "enabled": false,
            "info": "prescale: -1"
        },
        "L1_ZDC_C": {
            "cut": -1,
            "enabled": false,
            "info": "prescale: -1"
        }
    }
}