** Defect LAR_FCALC_NOISEBURST** 
In LB 113 - 114 with comment: LAR_EMECC_NOISEBURST R 113 154 167 169 173 177 182 184 191-192 212 227 230 245 307 374 388 428 433 452 467 472 506 515 517 # Between 1 and 1000 events flagged as LArNoisyRO_Std in EndCapC/physics_Main - Cleaned by time veto LAR_HECC_NOISEBURST R 113 154 1. NOT RECOVERABLE.
In LB 154 - 155 with comment: LAR_EMECC_NOISEBURST R 113 154 167 169 173 177 182 184 191-192 212 227 230 245 307 374 388 428 433 452 467 472 506 515 517 # Between 1 and 1000 events flagged as LArNoisyRO_Std in EndCapC/physics_Main - Cleaned by time veto LAR_HECC_NOISEBURST R 113 154 1. NOT RECOVERABLE.
In LB 167 - 168 with comment: LAR_EMECC_NOISEBURST R 113 154 167 169 173 177 182 184 191-192 212 227 230 245 307 374 388 428 433 452 467 472 506 515 517 # Between 1 and 1000 events flagged as LArNoisyRO_Std in EndCapC/physics_Main - Cleaned by time veto LAR_HECC_NOISEBURST R 113 154 1. NOT RECOVERABLE.
In LB 169 - 170 with comment: LAR_EMECC_NOISEBURST R 113 154 167 169 173 177 182 184 191-192 212 227 230 245 307 374 388 428 433 452 467 472 506 515 517 # Between 1 and 1000 events flagged as LArNoisyRO_Std in EndCapC/physics_Main - Cleaned by time veto LAR_HECC_NOISEBURST R 113 154 1. NOT RECOVERABLE.
In LB 173 - 174 with comment: LAR_EMECC_NOISEBURST R 113 154 167 169 173 177 182 184 191-192 212 227 230 245 307 374 388 428 433 452 467 472 506 515 517 # Between 1 and 1000 events flagged as LArNoisyRO_Std in EndCapC/physics_Main - Cleaned by time veto LAR_HECC_NOISEBURST R 113 154 1. NOT RECOVERABLE.
In LB 177 - 178 with comment: LAR_EMECC_NOISEBURST R 113 154 167 169 173 177 182 184 191-192 212 227 230 245 307 374 388 428 433 452 467 472 506 515 517 # Between 1 and 1000 events flagged as LArNoisyRO_Std in EndCapC/physics_Main - Cleaned by time veto LAR_HECC_NOISEBURST R 113 154 1. NOT RECOVERABLE.
In LB 182 - 183 with comment: LAR_EMECC_NOISEBURST R 113 154 167 169 173 177 182 184 191-192 212 227 230 245 307 374 388 428 433 452 467 472 506 515 517 # Between 1 and 1000 events flagged as LArNoisyRO_Std in EndCapC/physics_Main - Cleaned by time veto LAR_HECC_NOISEBURST R 113 154 1. NOT RECOVERABLE.
In LB 184 - 185 with comment: LAR_EMECC_NOISEBURST R 113 154 167 169 173 177 182 184 191-192 212 227 230 245 307 374 388 428 433 452 467 472 506 515 517 # Between 1 and 1000 events flagged as LArNoisyRO_Std in EndCapC/physics_Main - Cleaned by time veto LAR_HECC_NOISEBURST R 113 154 1. NOT RECOVERABLE.
In LB 191 - 193 with comment: LAR_EMECC_NOISEBURST R 113 154 167 169 173 177 182 184 191-192 212 227 230 245 307 374 388 428 433 452 467 472 506 515 517 # Between 1 and 1000 events flagged as LArNoisyRO_Std in EndCapC/physics_Main - Cleaned by time veto LAR_HECC_NOISEBURST R 113 154 1. NOT RECOVERABLE.
In LB 212 - 213 with comment: LAR_EMECC_NOISEBURST R 113 154 167 169 173 177 182 184 191-192 212 227 230 245 307 374 388 428 433 452 467 472 506 515 517 # Between 1 and 1000 events flagged as LArNoisyRO_Std in EndCapC/physics_Main - Cleaned by time veto LAR_HECC_NOISEBURST R 113 154 1. NOT RECOVERABLE.
In LB 227 - 228 with comment: LAR_EMECC_NOISEBURST R 113 154 167 169 173 177 182 184 191-192 212 227 230 245 307 374 388 428 433 452 467 472 506 515 517 # Between 1 and 1000 events flagged as LArNoisyRO_Std in EndCapC/physics_Main - Cleaned by time veto LAR_HECC_NOISEBURST R 113 154 1. NOT RECOVERABLE.
In LB 230 - 231 with comment: LAR_EMECC_NOISEBURST R 113 154 167 169 173 177 182 184 191-192 212 227 230 245 307 374 388 428 433 452 467 472 506 515 517 # Between 1 and 1000 events flagged as LArNoisyRO_Std in EndCapC/physics_Main - Cleaned by time veto LAR_HECC_NOISEBURST R 113 154 1. NOT RECOVERABLE.
In LB 245 - 246 with comment: LAR_EMECC_NOISEBURST R 113 154 167 169 173 177 182 184 191-192 212 227 230 245 307 374 388 428 433 452 467 472 506 515 517 # Between 1 and 1000 events flagged as LArNoisyRO_Std in EndCapC/physics_Main - Cleaned by time veto LAR_HECC_NOISEBURST R 113 154 1. NOT RECOVERABLE.
In LB 307 - 308 with comment: LAR_EMECC_NOISEBURST R 113 154 167 169 173 177 182 184 191-192 212 227 230 245 307 374 388 428 433 452 467 472 506 515 517 # Between 1 and 1000 events flagged as LArNoisyRO_Std in EndCapC/physics_Main - Cleaned by time veto LAR_HECC_NOISEBURST R 113 154 1. NOT RECOVERABLE.
In LB 374 - 375 with comment: LAR_EMECC_NOISEBURST R 113 154 167 169 173 177 182 184 191-192 212 227 230 245 307 374 388 428 433 452 467 472 506 515 517 # Between 1 and 1000 events flagged as LArNoisyRO_Std in EndCapC/physics_Main - Cleaned by time veto LAR_HECC_NOISEBURST R 113 154 1. NOT RECOVERABLE.
In LB 388 - 389 with comment: LAR_EMECC_NOISEBURST R 113 154 167 169 173 177 182 184 191-192 212 227 230 245 307 374 388 428 433 452 467 472 506 515 517 # Between 1 and 1000 events flagged as LArNoisyRO_Std in EndCapC/physics_Main - Cleaned by time veto LAR_HECC_NOISEBURST R 113 154 1. NOT RECOVERABLE.
In LB 428 - 429 with comment: LAR_EMECC_NOISEBURST R 113 154 167 169 173 177 182 184 191-192 212 227 230 245 307 374 388 428 433 452 467 472 506 515 517 # Between 1 and 1000 events flagged as LArNoisyRO_Std in EndCapC/physics_Main - Cleaned by time veto LAR_HECC_NOISEBURST R 113 154 1. NOT RECOVERABLE.
In LB 433 - 434 with comment: LAR_EMECC_NOISEBURST R 113 154 167 169 173 177 182 184 191-192 212 227 230 245 307 374 388 428 433 452 467 472 506 515 517 # Between 1 and 1000 events flagged as LArNoisyRO_Std in EndCapC/physics_Main - Cleaned by time veto LAR_HECC_NOISEBURST R 113 154 1. NOT RECOVERABLE.
In LB 452 - 453 with comment: LAR_EMECC_NOISEBURST R 113 154 167 169 173 177 182 184 191-192 212 227 230 245 307 374 388 428 433 452 467 472 506 515 517 # Between 1 and 1000 events flagged as LArNoisyRO_Std in EndCapC/physics_Main - Cleaned by time veto LAR_HECC_NOISEBURST R 113 154 1. NOT RECOVERABLE.
In LB 467 - 468 with comment: LAR_EMECC_NOISEBURST R 113 154 167 169 173 177 182 184 191-192 212 227 230 245 307 374 388 428 433 452 467 472 506 515 517 # Between 1 and 1000 events flagged as LArNoisyRO_Std in EndCapC/physics_Main - Cleaned by time veto LAR_HECC_NOISEBURST R 113 154 1. NOT RECOVERABLE.
In LB 472 - 473 with comment: LAR_EMECC_NOISEBURST R 113 154 167 169 173 177 182 184 191-192 212 227 230 245 307 374 388 428 433 452 467 472 506 515 517 # Between 1 and 1000 events flagged as LArNoisyRO_Std in EndCapC/physics_Main - Cleaned by time veto LAR_HECC_NOISEBURST R 113 154 1. NOT RECOVERABLE.
In LB 506 - 507 with comment: LAR_EMECC_NOISEBURST R 113 154 167 169 173 177 182 184 191-192 212 227 230 245 307 374 388 428 433 452 467 472 506 515 517 # Between 1 and 1000 events flagged as LArNoisyRO_Std in EndCapC/physics_Main - Cleaned by time veto LAR_HECC_NOISEBURST R 113 154 1. NOT RECOVERABLE.
In LB 515 - 516 with comment: LAR_EMECC_NOISEBURST R 113 154 167 169 173 177 182 184 191-192 212 227 230 245 307 374 388 428 433 452 467 472 506 515 517 # Between 1 and 1000 events flagged as LArNoisyRO_Std in EndCapC/physics_Main - Cleaned by time veto LAR_HECC_NOISEBURST R 113 154 1. NOT RECOVERABLE.
In LB 517 - 518 with comment: LAR_EMECC_NOISEBURST R 113 154 167 169 173 177 182 184 191-192 212 227 230 245 307 374 388 428 433 452 467 472 506 515 517 # Between 1 and 1000 events flagged as LArNoisyRO_Std in EndCapC/physics_Main - Cleaned by time veto LAR_HECC_NOISEBURST R 113 154 1. NOT RECOVERABLE.
** Defect LAR_HECA_NOISEBURST** 
In LB 112 - 113 with comment: LAR_EMECA_NOISEBURST R 112 114 119 121-122 149 178 186 206 224 247 280 398 403 416 433 460 500 # Between 1 and 1000 events flagged as LArNoisyRO_Std in EndCapA/physics_Main - Cleaned by time veto LAR_HECA_NOISEBURST R 112 114 119 121-122 149 178 186 206 2. NOT RECOVERABLE.
In LB 114 - 115 with comment: LAR_EMECA_NOISEBURST R 112 114 119 121-122 149 178 186 206 224 247 280 398 403 416 433 460 500 # Between 1 and 1000 events flagged as LArNoisyRO_Std in EndCapA/physics_Main - Cleaned by time veto LAR_HECA_NOISEBURST R 112 114 119 121-122 149 178 186 206 2. NOT RECOVERABLE.
In LB 119 - 120 with comment: LAR_EMECA_NOISEBURST R 112 114 119 121-122 149 178 186 206 224 247 280 398 403 416 433 460 500 # Between 1 and 1000 events flagged as LArNoisyRO_Std in EndCapA/physics_Main - Cleaned by time veto LAR_HECA_NOISEBURST R 112 114 119 121-122 149 178 186 206 2. NOT RECOVERABLE.
In LB 121 - 123 with comment: LAR_EMECA_NOISEBURST R 112 114 119 121-122 149 178 186 206 224 247 280 398 403 416 433 460 500 # Between 1 and 1000 events flagged as LArNoisyRO_Std in EndCapA/physics_Main - Cleaned by time veto LAR_HECA_NOISEBURST R 112 114 119 121-122 149 178 186 206 2. NOT RECOVERABLE.
In LB 149 - 150 with comment: LAR_EMECA_NOISEBURST R 112 114 119 121-122 149 178 186 206 224 247 280 398 403 416 433 460 500 # Between 1 and 1000 events flagged as LArNoisyRO_Std in EndCapA/physics_Main - Cleaned by time veto LAR_HECA_NOISEBURST R 112 114 119 121-122 149 178 186 206 2. NOT RECOVERABLE.
In LB 178 - 179 with comment: LAR_EMECA_NOISEBURST R 112 114 119 121-122 149 178 186 206 224 247 280 398 403 416 433 460 500 # Between 1 and 1000 events flagged as LArNoisyRO_Std in EndCapA/physics_Main - Cleaned by time veto LAR_HECA_NOISEBURST R 112 114 119 121-122 149 178 186 206 2. NOT RECOVERABLE.
In LB 186 - 187 with comment: LAR_EMECA_NOISEBURST R 112 114 119 121-122 149 178 186 206 224 247 280 398 403 416 433 460 500 # Between 1 and 1000 events flagged as LArNoisyRO_Std in EndCapA/physics_Main - Cleaned by time veto LAR_HECA_NOISEBURST R 112 114 119 121-122 149 178 186 206 2. NOT RECOVERABLE.
In LB 206 - 207 with comment: LAR_EMECA_NOISEBURST R 112 114 119 121-122 149 178 186 206 224 247 280 398 403 416 433 460 500 # Between 1 and 1000 events flagged as LArNoisyRO_Std in EndCapA/physics_Main - Cleaned by time veto LAR_HECA_NOISEBURST R 112 114 119 121-122 149 178 186 206 2. NOT RECOVERABLE.
In LB 224 - 225 with comment: LAR_EMECA_NOISEBURST R 112 114 119 121-122 149 178 186 206 224 247 280 398 403 416 433 460 500 # Between 1 and 1000 events flagged as LArNoisyRO_Std in EndCapA/physics_Main - Cleaned by time veto LAR_HECA_NOISEBURST R 112 114 119 121-122 149 178 186 206 2. NOT RECOVERABLE.
In LB 247 - 248 with comment: LAR_EMECA_NOISEBURST R 112 114 119 121-122 149 178 186 206 224 247 280 398 403 416 433 460 500 # Between 1 and 1000 events flagged as LArNoisyRO_Std in EndCapA/physics_Main - Cleaned by time veto LAR_HECA_NOISEBURST R 112 114 119 121-122 149 178 186 206 2. NOT RECOVERABLE.
In LB 280 - 281 with comment: LAR_EMECA_NOISEBURST R 112 114 119 121-122 149 178 186 206 224 247 280 398 403 416 433 460 500 # Between 1 and 1000 events flagged as LArNoisyRO_Std in EndCapA/physics_Main - Cleaned by time veto LAR_HECA_NOISEBURST R 112 114 119 121-122 149 178 186 206 2. NOT RECOVERABLE.
In LB 398 - 399 with comment: LAR_EMECA_NOISEBURST R 112 114 119 121-122 149 178 186 206 224 247 280 398 403 416 433 460 500 # Between 1 and 1000 events flagged as LArNoisyRO_Std in EndCapA/physics_Main - Cleaned by time veto LAR_HECA_NOISEBURST R 112 114 119 121-122 149 178 186 206 2. NOT RECOVERABLE.
In LB 403 - 404 with comment: LAR_EMECA_NOISEBURST R 112 114 119 121-122 149 178 186 206 224 247 280 398 403 416 433 460 500 # Between 1 and 1000 events flagged as LArNoisyRO_Std in EndCapA/physics_Main - Cleaned by time veto LAR_HECA_NOISEBURST R 112 114 119 121-122 149 178 186 206 2. NOT RECOVERABLE.
In LB 416 - 417 with comment: LAR_EMECA_NOISEBURST R 112 114 119 121-122 149 178 186 206 224 247 280 398 403 416 433 460 500 # Between 1 and 1000 events flagged as LArNoisyRO_Std in EndCapA/physics_Main - Cleaned by time veto LAR_HECA_NOISEBURST R 112 114 119 121-122 149 178 186 206 2. NOT RECOVERABLE.
In LB 433 - 434 with comment: LAR_EMECA_NOISEBURST R 112 114 119 121-122 149 178 186 206 224 247 280 398 403 416 433 460 500 # Between 1 and 1000 events flagged as LArNoisyRO_Std in EndCapA/physics_Main - Cleaned by time veto LAR_HECA_NOISEBURST R 112 114 119 121-122 149 178 186 206 2. NOT RECOVERABLE.
In LB 460 - 461 with comment: LAR_EMECA_NOISEBURST R 112 114 119 121-122 149 178 186 206 224 247 280 398 403 416 433 460 500 # Between 1 and 1000 events flagged as LArNoisyRO_Std in EndCapA/physics_Main - Cleaned by time veto LAR_HECA_NOISEBURST R 112 114 119 121-122 149 178 186 206 2. NOT RECOVERABLE.
In LB 500 - 501 with comment: LAR_EMECA_NOISEBURST R 112 114 119 121-122 149 178 186 206 224 247 280 398 403 416 433 460 500 # Between 1 and 1000 events flagged as LArNoisyRO_Std in EndCapA/physics_Main - Cleaned by time veto LAR_HECA_NOISEBURST R 112 114 119 121-122 149 178 186 206 2. NOT RECOVERABLE.
** Defect LAR_HECC_NOISEBURST** 
In LB 113 - 114 with comment: LAR_EMECC_NOISEBURST R 113 154 167 169 173 177 182 184 191-192 212 227 230 245 307 374 388 428 433 452 467 472 506 515 517 # Between 1 and 1000 events flagged as LArNoisyRO_Std in EndCapC/physics_Main - Cleaned by time veto LAR_HECC_NOISEBURST R 113 154 1. NOT RECOVERABLE.
In LB 154 - 155 with comment: LAR_EMECC_NOISEBURST R 113 154 167 169 173 177 182 184 191-192 212 227 230 245 307 374 388 428 433 452 467 472 506 515 517 # Between 1 and 1000 events flagged as LArNoisyRO_Std in EndCapC/physics_Main - Cleaned by time veto LAR_HECC_NOISEBURST R 113 154 1. NOT RECOVERABLE.
In LB 167 - 168 with comment: LAR_EMECC_NOISEBURST R 113 154 167 169 173 177 182 184 191-192 212 227 230 245 307 374 388 428 433 452 467 472 506 515 517 # Between 1 and 1000 events flagged as LArNoisyRO_Std in EndCapC/physics_Main - Cleaned by time veto LAR_HECC_NOISEBURST R 113 154 1. NOT RECOVERABLE.
In LB 169 - 170 with comment: LAR_EMECC_NOISEBURST R 113 154 167 169 173 177 182 184 191-192 212 227 230 245 307 374 388 428 433 452 467 472 506 515 517 # Between 1 and 1000 events flagged as LArNoisyRO_Std in EndCapC/physics_Main - Cleaned by time veto LAR_HECC_NOISEBURST R 113 154 1. NOT RECOVERABLE.
In LB 173 - 174 with comment: LAR_EMECC_NOISEBURST R 113 154 167 169 173 177 182 184 191-192 212 227 230 245 307 374 388 428 433 452 467 472 506 515 517 # Between 1 and 1000 events flagged as LArNoisyRO_Std in EndCapC/physics_Main - Cleaned by time veto LAR_HECC_NOISEBURST R 113 154 1. NOT RECOVERABLE.
In LB 177 - 178 with comment: LAR_EMECC_NOISEBURST R 113 154 167 169 173 177 182 184 191-192 212 227 230 245 307 374 388 428 433 452 467 472 506 515 517 # Between 1 and 1000 events flagged as LArNoisyRO_Std in EndCapC/physics_Main - Cleaned by time veto LAR_HECC_NOISEBURST R 113 154 1. NOT RECOVERABLE.
In LB 182 - 183 with comment: LAR_EMECC_NOISEBURST R 113 154 167 169 173 177 182 184 191-192 212 227 230 245 307 374 388 428 433 452 467 472 506 515 517 # Between 1 and 1000 events flagged as LArNoisyRO_Std in EndCapC/physics_Main - Cleaned by time veto LAR_HECC_NOISEBURST R 113 154 1. NOT RECOVERABLE.
In LB 184 - 185 with comment: LAR_EMECC_NOISEBURST R 113 154 167 169 173 177 182 184 191-192 212 227 230 245 307 374 388 428 433 452 467 472 506 515 517 # Between 1 and 1000 events flagged as LArNoisyRO_Std in EndCapC/physics_Main - Cleaned by time veto LAR_HECC_NOISEBURST R 113 154 1. NOT RECOVERABLE.
In LB 191 - 193 with comment: LAR_EMECC_NOISEBURST R 113 154 167 169 173 177 182 184 191-192 212 227 230 245 307 374 388 428 433 452 467 472 506 515 517 # Between 1 and 1000 events flagged as LArNoisyRO_Std in EndCapC/physics_Main - Cleaned by time veto LAR_HECC_NOISEBURST R 113 154 1. NOT RECOVERABLE.
In LB 212 - 213 with comment: LAR_EMECC_NOISEBURST R 113 154 167 169 173 177 182 184 191-192 212 227 230 245 307 374 388 428 433 452 467 472 506 515 517 # Between 1 and 1000 events flagged as LArNoisyRO_Std in EndCapC/physics_Main - Cleaned by time veto LAR_HECC_NOISEBURST R 113 154 1. NOT RECOVERABLE.
In LB 227 - 228 with comment: LAR_EMECC_NOISEBURST R 113 154 167 169 173 177 182 184 191-192 212 227 230 245 307 374 388 428 433 452 467 472 506 515 517 # Between 1 and 1000 events flagged as LArNoisyRO_Std in EndCapC/physics_Main - Cleaned by time veto LAR_HECC_NOISEBURST R 113 154 1. NOT RECOVERABLE.
In LB 230 - 231 with comment: LAR_EMECC_NOISEBURST R 113 154 167 169 173 177 182 184 191-192 212 227 230 245 307 374 388 428 433 452 467 472 506 515 517 # Between 1 and 1000 events flagged as LArNoisyRO_Std in EndCapC/physics_Main - Cleaned by time veto LAR_HECC_NOISEBURST R 113 154 1. NOT RECOVERABLE.
In LB 245 - 246 with comment: LAR_EMECC_NOISEBURST R 113 154 167 169 173 177 182 184 191-192 212 227 230 245 307 374 388 428 433 452 467 472 506 515 517 # Between 1 and 1000 events flagged as LArNoisyRO_Std in EndCapC/physics_Main - Cleaned by time veto LAR_HECC_NOISEBURST R 113 154 1. NOT RECOVERABLE.
In LB 307 - 308 with comment: LAR_EMECC_NOISEBURST R 113 154 167 169 173 177 182 184 191-192 212 227 230 245 307 374 388 428 433 452 467 472 506 515 517 # Between 1 and 1000 events flagged as LArNoisyRO_Std in EndCapC/physics_Main - Cleaned by time veto LAR_HECC_NOISEBURST R 113 154 1. NOT RECOVERABLE.
In LB 374 - 375 with comment: LAR_EMECC_NOISEBURST R 113 154 167 169 173 177 182 184 191-192 212 227 230 245 307 374 388 428 433 452 467 472 506 515 517 # Between 1 and 1000 events flagged as LArNoisyRO_Std in EndCapC/physics_Main - Cleaned by time veto LAR_HECC_NOISEBURST R 113 154 1. NOT RECOVERABLE.
In LB 388 - 389 with comment: LAR_EMECC_NOISEBURST R 113 154 167 169 173 177 182 184 191-192 212 227 230 245 307 374 388 428 433 452 467 472 506 515 517 # Between 1 and 1000 events flagged as LArNoisyRO_Std in EndCapC/physics_Main - Cleaned by time veto LAR_HECC_NOISEBURST R 113 154 1. NOT RECOVERABLE.
In LB 428 - 429 with comment: LAR_EMECC_NOISEBURST R 113 154 167 169 173 177 182 184 191-192 212 227 230 245 307 374 388 428 433 452 467 472 506 515 517 # Between 1 and 1000 events flagged as LArNoisyRO_Std in EndCapC/physics_Main - Cleaned by time veto LAR_HECC_NOISEBURST R 113 154 1. NOT RECOVERABLE.
In LB 433 - 434 with comment: LAR_EMECC_NOISEBURST R 113 154 167 169 173 177 182 184 191-192 212 227 230 245 307 374 388 428 433 452 467 472 506 515 517 # Between 1 and 1000 events flagged as LArNoisyRO_Std in EndCapC/physics_Main - Cleaned by time veto LAR_HECC_NOISEBURST R 113 154 1. NOT RECOVERABLE.
In LB 452 - 453 with comment: LAR_EMECC_NOISEBURST R 113 154 167 169 173 177 182 184 191-192 212 227 230 245 307 374 388 428 433 452 467 472 506 515 517 # Between 1 and 1000 events flagged as LArNoisyRO_Std in EndCapC/physics_Main - Cleaned by time veto LAR_HECC_NOISEBURST R 113 154 1. NOT RECOVERABLE.
In LB 467 - 468 with comment: LAR_EMECC_NOISEBURST R 113 154 167 169 173 177 182 184 191-192 212 227 230 245 307 374 388 428 433 452 467 472 506 515 517 # Between 1 and 1000 events flagged as LArNoisyRO_Std in EndCapC/physics_Main - Cleaned by time veto LAR_HECC_NOISEBURST R 113 154 1. NOT RECOVERABLE.
In LB 472 - 473 with comment: LAR_EMECC_NOISEBURST R 113 154 167 169 173 177 182 184 191-192 212 227 230 245 307 374 388 428 433 452 467 472 506 515 517 # Between 1 and 1000 events flagged as LArNoisyRO_Std in EndCapC/physics_Main - Cleaned by time veto LAR_HECC_NOISEBURST R 113 154 1. NOT RECOVERABLE.
In LB 506 - 507 with comment: LAR_EMECC_NOISEBURST R 113 154 167 169 173 177 182 184 191-192 212 227 230 245 307 374 388 428 433 452 467 472 506 515 517 # Between 1 and 1000 events flagged as LArNoisyRO_Std in EndCapC/physics_Main - Cleaned by time veto LAR_HECC_NOISEBURST R 113 154 1. NOT RECOVERABLE.
In LB 515 - 516 with comment: LAR_EMECC_NOISEBURST R 113 154 167 169 173 177 182 184 191-192 212 227 230 245 307 374 388 428 433 452 467 472 506 515 517 # Between 1 and 1000 events flagged as LArNoisyRO_Std in EndCapC/physics_Main - Cleaned by time veto LAR_HECC_NOISEBURST R 113 154 1. NOT RECOVERABLE.
In LB 517 - 518 with comment: LAR_EMECC_NOISEBURST R 113 154 167 169 173 177 182 184 191-192 212 227 230 245 307 374 388 428 433 452 467 472 506 515 517 # Between 1 and 1000 events flagged as LArNoisyRO_Std in EndCapC/physics_Main - Cleaned by time veto LAR_HECC_NOISEBURST R 113 154 1. NOT RECOVERABLE.
** Defect LAR_UNCHECKED_FINAL** 
In LB 1 - 533 with comment: Automatically set. RECOVERABLE.
** Defect LAR_EMECC_NOISEBURST** 
In LB 113 - 114 with comment: LAR_EMECC_NOISEBURST R 113 154 167 169 173 177 182 184 191-192 212 227 230 245 307 374 388 428 433 452 467 472 506 515 517 # Between 1 and 1000 events flagged as LArNoisyRO_Std in EndCapC/physics_Main - Cleaned by time veto LAR_HECC_NOISEBURST R 113 154 1. NOT RECOVERABLE.
In LB 154 - 155 with comment: LAR_EMECC_NOISEBURST R 113 154 167 169 173 177 182 184 191-192 212 227 230 245 307 374 388 428 433 452 467 472 506 515 517 # Between 1 and 1000 events flagged as LArNoisyRO_Std in EndCapC/physics_Main - Cleaned by time veto LAR_HECC_NOISEBURST R 113 154 1. NOT RECOVERABLE.
In LB 167 - 168 with comment: LAR_EMECC_NOISEBURST R 113 154 167 169 173 177 182 184 191-192 212 227 230 245 307 374 388 428 433 452 467 472 506 515 517 # Between 1 and 1000 events flagged as LArNoisyRO_Std in EndCapC/physics_Main - Cleaned by time veto LAR_HECC_NOISEBURST R 113 154 1. NOT RECOVERABLE.
In LB 169 - 170 with comment: LAR_EMECC_NOISEBURST R 113 154 167 169 173 177 182 184 191-192 212 227 230 245 307 374 388 428 433 452 467 472 506 515 517 # Between 1 and 1000 events flagged as LArNoisyRO_Std in EndCapC/physics_Main - Cleaned by time veto LAR_HECC_NOISEBURST R 113 154 1. NOT RECOVERABLE.
In LB 173 - 174 with comment: LAR_EMECC_NOISEBURST R 113 154 167 169 173 177 182 184 191-192 212 227 230 245 307 374 388 428 433 452 467 472 506 515 517 # Between 1 and 1000 events flagged as LArNoisyRO_Std in EndCapC/physics_Main - Cleaned by time veto LAR_HECC_NOISEBURST R 113 154 1. NOT RECOVERABLE.
In LB 177 - 178 with comment: LAR_EMECC_NOISEBURST R 113 154 167 169 173 177 182 184 191-192 212 227 230 245 307 374 388 428 433 452 467 472 506 515 517 # Between 1 and 1000 events flagged as LArNoisyRO_Std in EndCapC/physics_Main - Cleaned by time veto LAR_HECC_NOISEBURST R 113 154 1. NOT RECOVERABLE.
In LB 182 - 183 with comment: LAR_EMECC_NOISEBURST R 113 154 167 169 173 177 182 184 191-192 212 227 230 245 307 374 388 428 433 452 467 472 506 515 517 # Between 1 and 1000 events flagged as LArNoisyRO_Std in EndCapC/physics_Main - Cleaned by time veto LAR_HECC_NOISEBURST R 113 154 1. NOT RECOVERABLE.
In LB 184 - 185 with comment: LAR_EMECC_NOISEBURST R 113 154 167 169 173 177 182 184 191-192 212 227 230 245 307 374 388 428 433 452 467 472 506 515 517 # Between 1 and 1000 events flagged as LArNoisyRO_Std in EndCapC/physics_Main - Cleaned by time veto LAR_HECC_NOISEBURST R 113 154 1. NOT RECOVERABLE.
In LB 191 - 193 with comment: LAR_EMECC_NOISEBURST R 113 154 167 169 173 177 182 184 191-192 212 227 230 245 307 374 388 428 433 452 467 472 506 515 517 # Between 1 and 1000 events flagged as LArNoisyRO_Std in EndCapC/physics_Main - Cleaned by time veto LAR_HECC_NOISEBURST R 113 154 1. NOT RECOVERABLE.
In LB 212 - 213 with comment: LAR_EMECC_NOISEBURST R 113 154 167 169 173 177 182 184 191-192 212 227 230 245 307 374 388 428 433 452 467 472 506 515 517 # Between 1 and 1000 events flagged as LArNoisyRO_Std in EndCapC/physics_Main - Cleaned by time veto LAR_HECC_NOISEBURST R 113 154 1. NOT RECOVERABLE.
In LB 227 - 228 with comment: LAR_EMECC_NOISEBURST R 113 154 167 169 173 177 182 184 191-192 212 227 230 245 307 374 388 428 433 452 467 472 506 515 517 # Between 1 and 1000 events flagged as LArNoisyRO_Std in EndCapC/physics_Main - Cleaned by time veto LAR_HECC_NOISEBURST R 113 154 1. NOT RECOVERABLE.
In LB 230 - 231 with comment: LAR_EMECC_NOISEBURST R 113 154 167 169 173 177 182 184 191-192 212 227 230 245 307 374 388 428 433 452 467 472 506 515 517 # Between 1 and 1000 events flagged as LArNoisyRO_Std in EndCapC/physics_Main - Cleaned by time veto LAR_HECC_NOISEBURST R 113 154 1. NOT RECOVERABLE.
In LB 245 - 246 with comment: LAR_EMECC_NOISEBURST R 113 154 167 169 173 177 182 184 191-192 212 227 230 245 307 374 388 428 433 452 467 472 506 515 517 # Between 1 and 1000 events flagged as LArNoisyRO_Std in EndCapC/physics_Main - Cleaned by time veto LAR_HECC_NOISEBURST R 113 154 1. NOT RECOVERABLE.
In LB 307 - 308 with comment: LAR_EMECC_NOISEBURST R 113 154 167 169 173 177 182 184 191-192 212 227 230 245 307 374 388 428 433 452 467 472 506 515 517 # Between 1 and 1000 events flagged as LArNoisyRO_Std in EndCapC/physics_Main - Cleaned by time veto LAR_HECC_NOISEBURST R 113 154 1. NOT RECOVERABLE.
In LB 374 - 375 with comment: LAR_EMECC_NOISEBURST R 113 154 167 169 173 177 182 184 191-192 212 227 230 245 307 374 388 428 433 452 467 472 506 515 517 # Between 1 and 1000 events flagged as LArNoisyRO_Std in EndCapC/physics_Main - Cleaned by time veto LAR_HECC_NOISEBURST R 113 154 1. NOT RECOVERABLE.
In LB 388 - 389 with comment: LAR_EMECC_NOISEBURST R 113 154 167 169 173 177 182 184 191-192 212 227 230 245 307 374 388 428 433 452 467 472 506 515 517 # Between 1 and 1000 events flagged as LArNoisyRO_Std in EndCapC/physics_Main - Cleaned by time veto LAR_HECC_NOISEBURST R 113 154 1. NOT RECOVERABLE.
In LB 428 - 429 with comment: LAR_EMECC_NOISEBURST R 113 154 167 169 173 177 182 184 191-192 212 227 230 245 307 374 388 428 433 452 467 472 506 515 517 # Between 1 and 1000 events flagged as LArNoisyRO_Std in EndCapC/physics_Main - Cleaned by time veto LAR_HECC_NOISEBURST R 113 154 1. NOT RECOVERABLE.
In LB 433 - 434 with comment: LAR_EMECC_NOISEBURST R 113 154 167 169 173 177 182 184 191-192 212 227 230 245 307 374 388 428 433 452 467 472 506 515 517 # Between 1 and 1000 events flagged as LArNoisyRO_Std in EndCapC/physics_Main - Cleaned by time veto LAR_HECC_NOISEBURST R 113 154 1. NOT RECOVERABLE.
In LB 452 - 453 with comment: LAR_EMECC_NOISEBURST R 113 154 167 169 173 177 182 184 191-192 212 227 230 245 307 374 388 428 433 452 467 472 506 515 517 # Between 1 and 1000 events flagged as LArNoisyRO_Std in EndCapC/physics_Main - Cleaned by time veto LAR_HECC_NOISEBURST R 113 154 1. NOT RECOVERABLE.
In LB 467 - 468 with comment: LAR_EMECC_NOISEBURST R 113 154 167 169 173 177 182 184 191-192 212 227 230 245 307 374 388 428 433 452 467 472 506 515 517 # Between 1 and 1000 events flagged as LArNoisyRO_Std in EndCapC/physics_Main - Cleaned by time veto LAR_HECC_NOISEBURST R 113 154 1. NOT RECOVERABLE.
In LB 472 - 473 with comment: LAR_EMECC_NOISEBURST R 113 154 167 169 173 177 182 184 191-192 212 227 230 245 307 374 388 428 433 452 467 472 506 515 517 # Between 1 and 1000 events flagged as LArNoisyRO_Std in EndCapC/physics_Main - Cleaned by time veto LAR_HECC_NOISEBURST R 113 154 1. NOT RECOVERABLE.
In LB 506 - 507 with comment: LAR_EMECC_NOISEBURST R 113 154 167 169 173 177 182 184 191-192 212 227 230 245 307 374 388 428 433 452 467 472 506 515 517 # Between 1 and 1000 events flagged as LArNoisyRO_Std in EndCapC/physics_Main - Cleaned by time veto LAR_HECC_NOISEBURST R 113 154 1. NOT RECOVERABLE.
In LB 515 - 516 with comment: LAR_EMECC_NOISEBURST R 113 154 167 169 173 177 182 184 191-192 212 227 230 245 307 374 388 428 433 452 467 472 506 515 517 # Between 1 and 1000 events flagged as LArNoisyRO_Std in EndCapC/physics_Main - Cleaned by time veto LAR_HECC_NOISEBURST R 113 154 1. NOT RECOVERABLE.
In LB 517 - 518 with comment: LAR_EMECC_NOISEBURST R 113 154 167 169 173 177 182 184 191-192 212 227 230 245 307 374 388 428 433 452 467 472 506 515 517 # Between 1 and 1000 events flagged as LArNoisyRO_Std in EndCapC/physics_Main - Cleaned by time veto LAR_HECC_NOISEBURST R 113 154 1. NOT RECOVERABLE.
** Defect LAR_EMECA_NOISEBURST** 
In LB 112 - 113 with comment: LAR_EMECA_NOISEBURST R 112 114 119 121-122 149 178 186 206 224 247 280 398 403 416 433 460 500 # Between 1 and 1000 events flagged as LArNoisyRO_Std in EndCapA/physics_Main - Cleaned by time veto LAR_HECA_NOISEBURST R 112 114 119 121-122 149 178 186 206 2. NOT RECOVERABLE.
In LB 114 - 115 with comment: LAR_EMECA_NOISEBURST R 112 114 119 121-122 149 178 186 206 224 247 280 398 403 416 433 460 500 # Between 1 and 1000 events flagged as LArNoisyRO_Std in EndCapA/physics_Main - Cleaned by time veto LAR_HECA_NOISEBURST R 112 114 119 121-122 149 178 186 206 2. NOT RECOVERABLE.
In LB 119 - 120 with comment: LAR_EMECA_NOISEBURST R 112 114 119 121-122 149 178 186 206 224 247 280 398 403 416 433 460 500 # Between 1 and 1000 events flagged as LArNoisyRO_Std in EndCapA/physics_Main - Cleaned by time veto LAR_HECA_NOISEBURST R 112 114 119 121-122 149 178 186 206 2. NOT RECOVERABLE.
In LB 121 - 123 with comment: LAR_EMECA_NOISEBURST R 112 114 119 121-122 149 178 186 206 224 247 280 398 403 416 433 460 500 # Between 1 and 1000 events flagged as LArNoisyRO_Std in EndCapA/physics_Main - Cleaned by time veto LAR_HECA_NOISEBURST R 112 114 119 121-122 149 178 186 206 2. NOT RECOVERABLE.
In LB 149 - 150 with comment: LAR_EMECA_NOISEBURST R 112 114 119 121-122 149 178 186 206 224 247 280 398 403 416 433 460 500 # Between 1 and 1000 events flagged as LArNoisyRO_Std in EndCapA/physics_Main - Cleaned by time veto LAR_HECA_NOISEBURST R 112 114 119 121-122 149 178 186 206 2. NOT RECOVERABLE.
In LB 178 - 179 with comment: LAR_EMECA_NOISEBURST R 112 114 119 121-122 149 178 186 206 224 247 280 398 403 416 433 460 500 # Between 1 and 1000 events flagged as LArNoisyRO_Std in EndCapA/physics_Main - Cleaned by time veto LAR_HECA_NOISEBURST R 112 114 119 121-122 149 178 186 206 2. NOT RECOVERABLE.
In LB 186 - 187 with comment: LAR_EMECA_NOISEBURST R 112 114 119 121-122 149 178 186 206 224 247 280 398 403 416 433 460 500 # Between 1 and 1000 events flagged as LArNoisyRO_Std in EndCapA/physics_Main - Cleaned by time veto LAR_HECA_NOISEBURST R 112 114 119 121-122 149 178 186 206 2. NOT RECOVERABLE.
In LB 206 - 207 with comment: LAR_EMECA_NOISEBURST R 112 114 119 121-122 149 178 186 206 224 247 280 398 403 416 433 460 500 # Between 1 and 1000 events flagged as LArNoisyRO_Std in EndCapA/physics_Main - Cleaned by time veto LAR_HECA_NOISEBURST R 112 114 119 121-122 149 178 186 206 2. NOT RECOVERABLE.
In LB 224 - 225 with comment: LAR_EMECA_NOISEBURST R 112 114 119 121-122 149 178 186 206 224 247 280 398 403 416 433 460 500 # Between 1 and 1000 events flagged as LArNoisyRO_Std in EndCapA/physics_Main - Cleaned by time veto LAR_HECA_NOISEBURST R 112 114 119 121-122 149 178 186 206 2. NOT RECOVERABLE.
In LB 247 - 248 with comment: LAR_EMECA_NOISEBURST R 112 114 119 121-122 149 178 186 206 224 247 280 398 403 416 433 460 500 # Between 1 and 1000 events flagged as LArNoisyRO_Std in EndCapA/physics_Main - Cleaned by time veto LAR_HECA_NOISEBURST R 112 114 119 121-122 149 178 186 206 2. NOT RECOVERABLE.
In LB 280 - 281 with comment: LAR_EMECA_NOISEBURST R 112 114 119 121-122 149 178 186 206 224 247 280 398 403 416 433 460 500 # Between 1 and 1000 events flagged as LArNoisyRO_Std in EndCapA/physics_Main - Cleaned by time veto LAR_HECA_NOISEBURST R 112 114 119 121-122 149 178 186 206 2. NOT RECOVERABLE.
In LB 398 - 399 with comment: LAR_EMECA_NOISEBURST R 112 114 119 121-122 149 178 186 206 224 247 280 398 403 416 433 460 500 # Between 1 and 1000 events flagged as LArNoisyRO_Std in EndCapA/physics_Main - Cleaned by time veto LAR_HECA_NOISEBURST R 112 114 119 121-122 149 178 186 206 2. NOT RECOVERABLE.
In LB 403 - 404 with comment: LAR_EMECA_NOISEBURST R 112 114 119 121-122 149 178 186 206 224 247 280 398 403 416 433 460 500 # Between 1 and 1000 events flagged as LArNoisyRO_Std in EndCapA/physics_Main - Cleaned by time veto LAR_HECA_NOISEBURST R 112 114 119 121-122 149 178 186 206 2. NOT RECOVERABLE.
In LB 416 - 417 with comment: LAR_EMECA_NOISEBURST R 112 114 119 121-122 149 178 186 206 224 247 280 398 403 416 433 460 500 # Between 1 and 1000 events flagged as LArNoisyRO_Std in EndCapA/physics_Main - Cleaned by time veto LAR_HECA_NOISEBURST R 112 114 119 121-122 149 178 186 206 2. NOT RECOVERABLE.
In LB 433 - 434 with comment: LAR_EMECA_NOISEBURST R 112 114 119 121-122 149 178 186 206 224 247 280 398 403 416 433 460 500 # Between 1 and 1000 events flagged as LArNoisyRO_Std in EndCapA/physics_Main - Cleaned by time veto LAR_HECA_NOISEBURST R 112 114 119 121-122 149 178 186 206 2. NOT RECOVERABLE.
In LB 460 - 461 with comment: LAR_EMECA_NOISEBURST R 112 114 119 121-122 149 178 186 206 224 247 280 398 403 416 433 460 500 # Between 1 and 1000 events flagged as LArNoisyRO_Std in EndCapA/physics_Main - Cleaned by time veto LAR_HECA_NOISEBURST R 112 114 119 121-122 149 178 186 206 2. NOT RECOVERABLE.
In LB 500 - 501 with comment: LAR_EMECA_NOISEBURST R 112 114 119 121-122 149 178 186 206 224 247 280 398 403 416 433 460 500 # Between 1 and 1000 events flagged as LArNoisyRO_Std in EndCapA/physics_Main - Cleaned by time veto LAR_HECA_NOISEBURST R 112 114 119 121-122 149 178 186 206 2. NOT RECOVERABLE.
** Defect LAR_FCALA_NOISEBURST** 
In LB 112 - 113 with comment: LAR_EMECA_NOISEBURST R 112 114 119 121-122 149 178 186 206 224 247 280 398 403 416 433 460 500 # Between 1 and 1000 events flagged as LArNoisyRO_Std in EndCapA/physics_Main - Cleaned by time veto LAR_HECA_NOISEBURST R 112 114 119 121-122 149 178 186 206 2. NOT RECOVERABLE.
In LB 114 - 115 with comment: LAR_EMECA_NOISEBURST R 112 114 119 121-122 149 178 186 206 224 247 280 398 403 416 433 460 500 # Between 1 and 1000 events flagged as LArNoisyRO_Std in EndCapA/physics_Main - Cleaned by time veto LAR_HECA_NOISEBURST R 112 114 119 121-122 149 178 186 206 2. NOT RECOVERABLE.
In LB 119 - 120 with comment: LAR_EMECA_NOISEBURST R 112 114 119 121-122 149 178 186 206 224 247 280 398 403 416 433 460 500 # Between 1 and 1000 events flagged as LArNoisyRO_Std in EndCapA/physics_Main - Cleaned by time veto LAR_HECA_NOISEBURST R 112 114 119 121-122 149 178 186 206 2. NOT RECOVERABLE.
In LB 121 - 123 with comment: LAR_EMECA_NOISEBURST R 112 114 119 121-122 149 178 186 206 224 247 280 398 403 416 433 460 500 # Between 1 and 1000 events flagged as LArNoisyRO_Std in EndCapA/physics_Main - Cleaned by time veto LAR_HECA_NOISEBURST R 112 114 119 121-122 149 178 186 206 2. NOT RECOVERABLE.
In LB 149 - 150 with comment: LAR_EMECA_NOISEBURST R 112 114 119 121-122 149 178 186 206 224 247 280 398 403 416 433 460 500 # Between 1 and 1000 events flagged as LArNoisyRO_Std in EndCapA/physics_Main - Cleaned by time veto LAR_HECA_NOISEBURST R 112 114 119 121-122 149 178 186 206 2. NOT RECOVERABLE.
In LB 178 - 179 with comment: LAR_EMECA_NOISEBURST R 112 114 119 121-122 149 178 186 206 224 247 280 398 403 416 433 460 500 # Between 1 and 1000 events flagged as LArNoisyRO_Std in EndCapA/physics_Main - Cleaned by time veto LAR_HECA_NOISEBURST R 112 114 119 121-122 149 178 186 206 2. NOT RECOVERABLE.
In LB 186 - 187 with comment: LAR_EMECA_NOISEBURST R 112 114 119 121-122 149 178 186 206 224 247 280 398 403 416 433 460 500 # Between 1 and 1000 events flagged as LArNoisyRO_Std in EndCapA/physics_Main - Cleaned by time veto LAR_HECA_NOISEBURST R 112 114 119 121-122 149 178 186 206 2. NOT RECOVERABLE.
In LB 206 - 207 with comment: LAR_EMECA_NOISEBURST R 112 114 119 121-122 149 178 186 206 224 247 280 398 403 416 433 460 500 # Between 1 and 1000 events flagged as LArNoisyRO_Std in EndCapA/physics_Main - Cleaned by time veto LAR_HECA_NOISEBURST R 112 114 119 121-122 149 178 186 206 2. NOT RECOVERABLE.
In LB 224 - 225 with comment: LAR_EMECA_NOISEBURST R 112 114 119 121-122 149 178 186 206 224 247 280 398 403 416 433 460 500 # Between 1 and 1000 events flagged as LArNoisyRO_Std in EndCapA/physics_Main - Cleaned by time veto LAR_HECA_NOISEBURST R 112 114 119 121-122 149 178 186 206 2. NOT RECOVERABLE.
In LB 247 - 248 with comment: LAR_EMECA_NOISEBURST R 112 114 119 121-122 149 178 186 206 224 247 280 398 403 416 433 460 500 # Between 1 and 1000 events flagged as LArNoisyRO_Std in EndCapA/physics_Main - Cleaned by time veto LAR_HECA_NOISEBURST R 112 114 119 121-122 149 178 186 206 2. NOT RECOVERABLE.
In LB 280 - 281 with comment: LAR_EMECA_NOISEBURST R 112 114 119 121-122 149 178 186 206 224 247 280 398 403 416 433 460 500 # Between 1 and 1000 events flagged as LArNoisyRO_Std in EndCapA/physics_Main - Cleaned by time veto LAR_HECA_NOISEBURST R 112 114 119 121-122 149 178 186 206 2. NOT RECOVERABLE.
In LB 398 - 399 with comment: LAR_EMECA_NOISEBURST R 112 114 119 121-122 149 178 186 206 224 247 280 398 403 416 433 460 500 # Between 1 and 1000 events flagged as LArNoisyRO_Std in EndCapA/physics_Main - Cleaned by time veto LAR_HECA_NOISEBURST R 112 114 119 121-122 149 178 186 206 2. NOT RECOVERABLE.
In LB 403 - 404 with comment: LAR_EMECA_NOISEBURST R 112 114 119 121-122 149 178 186 206 224 247 280 398 403 416 433 460 500 # Between 1 and 1000 events flagged as LArNoisyRO_Std in EndCapA/physics_Main - Cleaned by time veto LAR_HECA_NOISEBURST R 112 114 119 121-122 149 178 186 206 2. NOT RECOVERABLE.
In LB 416 - 417 with comment: LAR_EMECA_NOISEBURST R 112 114 119 121-122 149 178 186 206 224 247 280 398 403 416 433 460 500 # Between 1 and 1000 events flagged as LArNoisyRO_Std in EndCapA/physics_Main - Cleaned by time veto LAR_HECA_NOISEBURST R 112 114 119 121-122 149 178 186 206 2. NOT RECOVERABLE.
In LB 433 - 434 with comment: LAR_EMECA_NOISEBURST R 112 114 119 121-122 149 178 186 206 224 247 280 398 403 416 433 460 500 # Between 1 and 1000 events flagged as LArNoisyRO_Std in EndCapA/physics_Main - Cleaned by time veto LAR_HECA_NOISEBURST R 112 114 119 121-122 149 178 186 206 2. NOT RECOVERABLE.
In LB 460 - 461 with comment: LAR_EMECA_NOISEBURST R 112 114 119 121-122 149 178 186 206 224 247 280 398 403 416 433 460 500 # Between 1 and 1000 events flagged as LArNoisyRO_Std in EndCapA/physics_Main - Cleaned by time veto LAR_HECA_NOISEBURST R 112 114 119 121-122 149 178 186 206 2. NOT RECOVERABLE.
In LB 500 - 501 with comment: LAR_EMECA_NOISEBURST R 112 114 119 121-122 149 178 186 206 224 247 280 398 403 416 433 460 500 # Between 1 and 1000 events flagged as LArNoisyRO_Std in EndCapA/physics_Main - Cleaned by time veto LAR_HECA_NOISEBURST R 112 114 119 121-122 149 178 186 206 2. NOT RECOVERABLE.
** Defect LAR_DATACORRUPT** 
In LB 154 - 155 with comment: LAR_DATACORRUPT Y 154 173 212 230 374 515 # Between 1 % and 99 % corruption yield - Recoverable a priori. RECOVERABLE.
In LB 173 - 174 with comment: LAR_DATACORRUPT Y 154 173 212 230 374 515 # Between 1 % and 99 % corruption yield - Recoverable a priori. RECOVERABLE.
In LB 212 - 213 with comment: LAR_DATACORRUPT Y 154 173 212 230 374 515 # Between 1 % and 99 % corruption yield - Recoverable a priori. RECOVERABLE.
In LB 230 - 231 with comment: LAR_DATACORRUPT Y 154 173 212 230 374 515 # Between 1 % and 99 % corruption yield - Recoverable a priori. RECOVERABLE.
In LB 374 - 375 with comment: LAR_DATACORRUPT Y 154 173 212 230 374 515 # Between 1 % and 99 % corruption yield - Recoverable a priori. RECOVERABLE.
In LB 515 - 516 with comment: LAR_DATACORRUPT Y 154 173 212 230 374 515 # Between 1 % and 99 % corruption yield - Recoverable a priori. RECOVERABLE.
