Discussed in https://its.cern.ch/jira/browse/ATLLARSWDPQ-792

** Defect LAR_FCALC_NOISEBURST(INTOLERABLE) **
Affecting 110 LBs: 224, 225, 241, 242, 281, 282, 283, 284, 285, 286, 311, 312, 385, 386, 397, 398, 448, 449, 457, 458, 461, 462, 473, 474, 491, 492, 493, 507, 508, 514, 515, 521, 522, 528, 529, 535, 536, 556, 557, 600, 601, 621, 622, 668, 669, 683, 684, 687, 688, 695, 696, 700, 701, 713, 714, 741, 742, 743, 744, 814, 815, 821, 822, 828, 829, 866, 867, 898, 899, 909, 910, 913, 914, 920, 921, 933, 934, 935, 954, 955, 987, 988, 990, 991, 996, 997, 1047, 1048, 1080, 1081, 1083, 1084, 1087, 1088, 1095, 1096, 1108, 1109, 1115, 1116, 1118, 1119, 1124, 1125, 1148, 1149, 1151, 1152, 1196, 1197 (0 recoverable) 
** Defect LAR_HECA_NOISEBURST(INTOLERABLE) **
Affecting 273 LBs: 135, 136, 138, 139, 211, 212, 231, 232, 238, 239, 240, 248, 249, 250, 254, 255, 258, 259, 262, 263, 264, 265, 267, 268, 273, 274, 306, 307, 315, 316, 317, 318, 319, 320, 323, 324, 327, 328, 334, 335, 346, 347, 372, 373, 374, 404, 405, 406, 409, 410, 411, 426, 427, 428, 429, 434, 435, 437, 438, 439, 440, 441, 444, 445, 447, 448, 453, 454, 457, 458, 459, 460, 461, 463, 464, 465, 466, 467, 471, 472, 474, 475, 478, 479, 484, 485, 495, 496, 497, 498, 508, 509, 510, 512, 513, 514, 529, 530, 548, 549, 551, 552, 553, 554, 555, 556, 561, 562, 569, 570, 574, 575, 580, 581, 593, 594, 595, 596, 597, 598, 603, 604, 605, 610, 611, 614, 615, 620, 621, 628, 629, 634, 635, 653, 654, 656, 657, 664, 665, 666, 667, 670, 671, 672, 673, 677, 678, 689, 690, 691, 695, 696, 702, 703, 713, 714, 717, 718, 719, 720, 721, 722, 723, 724, 735, 736, 737, 753, 754, 762, 763, 767, 768, 782, 783, 787, 788, 797, 798, 802, 803, 804, 809, 810, 812, 813, 814, 828, 829, 835, 836, 837, 856, 857, 858, 878, 879, 880, 881, 895, 896, 900, 901, 905, 906, 907, 908, 932, 933, 951, 952, 954, 955, 957, 958, 959, 961, 962, 972, 973, 976, 977, 993, 994, 995, 996, 1004, 1005, 1023, 1024, 1035, 1036, 1037, 1043, 1044, 1060, 1061, 1068, 1069, 1075, 1076, 1083, 1084, 1085, 1098, 1099, 1100, 1101, 1127, 1128, 1131, 1132, 1134, 1135, 1148, 1149, 1152, 1153, 1154, 1155, 1156, 1162, 1163, 1184, 1185, 1207, 1208, 1221, 1222, 1226, 1227, 1239, 1240 (0 recoverable) 
** Defect LAR_HECC_NOISEBURST(INTOLERABLE) **
Affecting 110 LBs: 224, 225, 241, 242, 281, 282, 283, 284, 285, 286, 311, 312, 385, 386, 397, 398, 448, 449, 457, 458, 461, 462, 473, 474, 491, 492, 493, 507, 508, 514, 515, 521, 522, 528, 529, 535, 536, 556, 557, 600, 601, 621, 622, 668, 669, 683, 684, 687, 688, 695, 696, 700, 701, 713, 714, 741, 742, 743, 744, 814, 815, 821, 822, 828, 829, 866, 867, 898, 899, 909, 910, 913, 914, 920, 921, 933, 934, 935, 954, 955, 987, 988, 990, 991, 996, 997, 1047, 1048, 1080, 1081, 1083, 1084, 1087, 1088, 1095, 1096, 1108, 1109, 1115, 1116, 1118, 1119, 1124, 1125, 1148, 1149, 1151, 1152, 1196, 1197 (0 recoverable) 
** Defect LAR_HECA_SEVNOISEBURST **
Affecting 9 LBs: 482, 483, 484, 853, 854, 921, 922, 955, 956 (0 recoverable) 
** Defect LAR_FCALA_NOISEBURST(INTOLERABLE) **
Affecting 273 LBs: 135, 136, 138, 139, 211, 212, 231, 232, 238, 239, 240, 248, 249, 250, 254, 255, 258, 259, 262, 263, 264, 265, 267, 268, 273, 274, 306, 307, 315, 316, 317, 318, 319, 320, 323, 324, 327, 328, 334, 335, 346, 347, 372, 373, 374, 404, 405, 406, 409, 410, 411, 426, 427, 428, 429, 434, 435, 437, 438, 439, 440, 441, 444, 445, 447, 448, 453, 454, 457, 458, 459, 460, 461, 463, 464, 465, 466, 467, 471, 472, 474, 475, 478, 479, 484, 485, 495, 496, 497, 498, 508, 509, 510, 512, 513, 514, 529, 530, 548, 549, 551, 552, 553, 554, 555, 556, 561, 562, 569, 570, 574, 575, 580, 581, 593, 594, 595, 596, 597, 598, 603, 604, 605, 610, 611, 614, 615, 620, 621, 628, 629, 634, 635, 653, 654, 656, 657, 664, 665, 666, 667, 670, 671, 672, 673, 677, 678, 689, 690, 691, 695, 696, 702, 703, 713, 714, 717, 718, 719, 720, 721, 722, 723, 724, 735, 736, 737, 753, 754, 762, 763, 767, 768, 782, 783, 787, 788, 797, 798, 802, 803, 804, 809, 810, 812, 813, 814, 828, 829, 835, 836, 837, 856, 857, 858, 878, 879, 880, 881, 895, 896, 900, 901, 905, 906, 907, 908, 932, 933, 951, 952, 954, 955, 957, 958, 959, 961, 962, 972, 973, 976, 977, 993, 994, 995, 996, 1004, 1005, 1023, 1024, 1035, 1036, 1037, 1043, 1044, 1060, 1061, 1068, 1069, 1075, 1076, 1083, 1084, 1085, 1098, 1099, 1100, 1101, 1127, 1128, 1131, 1132, 1134, 1135, 1148, 1149, 1152, 1153, 1154, 1155, 1156, 1162, 1163, 1184, 1185, 1207, 1208, 1221, 1222, 1226, 1227, 1239, 1240 (0 recoverable) 
** Defect LAR_EMECA_SEVNOISEBURST **
Affecting 9 LBs: 482, 483, 484, 853, 854, 921, 922, 955, 956 (0 recoverable) 
** Defect LAR_EMBA_NOISEBURST(INTOLERABLE) **
Affecting 2 LBs: 528, 529 (0 recoverable) 
** Defect LAR_EMECC_NOISEBURST(INTOLERABLE) **
Affecting 110 LBs: 224, 225, 241, 242, 281, 282, 283, 284, 285, 286, 311, 312, 385, 386, 397, 398, 448, 449, 457, 458, 461, 462, 473, 474, 491, 492, 493, 507, 508, 514, 515, 521, 522, 528, 529, 535, 536, 556, 557, 600, 601, 621, 622, 668, 669, 683, 684, 687, 688, 695, 696, 700, 701, 713, 714, 741, 742, 743, 744, 814, 815, 821, 822, 828, 829, 866, 867, 898, 899, 909, 910, 913, 914, 920, 921, 933, 934, 935, 954, 955, 987, 988, 990, 991, 996, 997, 1047, 1048, 1080, 1081, 1083, 1084, 1087, 1088, 1095, 1096, 1108, 1109, 1115, 1116, 1118, 1119, 1124, 1125, 1148, 1149, 1151, 1152, 1196, 1197 (0 recoverable) 
** Defect LAR_EMECA_NOISEBURST(INTOLERABLE) **
Affecting 273 LBs: 135, 136, 138, 139, 211, 212, 231, 232, 238, 239, 240, 248, 249, 250, 254, 255, 258, 259, 262, 263, 264, 265, 267, 268, 273, 274, 306, 307, 315, 316, 317, 318, 319, 320, 323, 324, 327, 328, 334, 335, 346, 347, 372, 373, 374, 404, 405, 406, 409, 410, 411, 426, 427, 428, 429, 434, 435, 437, 438, 439, 440, 441, 444, 445, 447, 448, 453, 454, 457, 458, 459, 460, 461, 463, 464, 465, 466, 467, 471, 472, 474, 475, 478, 479, 484, 485, 495, 496, 497, 498, 508, 509, 510, 512, 513, 514, 529, 530, 548, 549, 551, 552, 553, 554, 555, 556, 561, 562, 569, 570, 574, 575, 580, 581, 593, 594, 595, 596, 597, 598, 603, 604, 605, 610, 611, 614, 615, 620, 621, 628, 629, 634, 635, 653, 654, 656, 657, 664, 665, 666, 667, 670, 671, 672, 673, 677, 678, 689, 690, 691, 695, 696, 702, 703, 713, 714, 717, 718, 719, 720, 721, 722, 723, 724, 735, 736, 737, 753, 754, 762, 763, 767, 768, 782, 783, 787, 788, 797, 798, 802, 803, 804, 809, 810, 812, 813, 814, 828, 829, 835, 836, 837, 856, 857, 858, 878, 879, 880, 881, 895, 896, 900, 901, 905, 906, 907, 908, 932, 933, 951, 952, 954, 955, 957, 958, 959, 961, 962, 972, 973, 976, 977, 993, 994, 995, 996, 1004, 1005, 1023, 1024, 1035, 1036, 1037, 1043, 1044, 1060, 1061, 1068, 1069, 1075, 1076, 1083, 1084, 1085, 1098, 1099, 1100, 1101, 1127, 1128, 1131, 1132, 1134, 1135, 1148, 1149, 1152, 1153, 1154, 1155, 1156, 1162, 1163, 1184, 1185, 1207, 1208, 1221, 1222, 1226, 1227, 1239, 1240 (0 recoverable) 
** Defect LAR_FCALA_SEVNOISEBURST **
Affecting 9 LBs: 482, 483, 484, 853, 854, 921, 922, 955, 956 (0 recoverable) 
