Run,Jira,Express,Express Noisy Cells,Bulk,Bulk Noisy Cells,Defects {\textcolor{red}{(intol.)}},Notes
439798,ATLLARSWDPQ-792,YES,149 SBN - 24 HNHG,YES,25 SBN - 3 HNHG,LAR_FCALC_NOISEBURST (110 LBs) - LAR_HECA_NOISEBURST (278 LBs) - LAR_HECC_NOISEBURST (110 LBs) - {textcolor{red}{LAR_HECA_SEVNOISEBURST (9 LBs)}} - LAR_FCALA_NOISEBURST (278 LBs) - {textcolor{red}{LAR_EMECA_SEVNOISEBURST (9 LBs)}} - LAR_EMBA_NOISEBURST (2 LBs) - LAR_EMECC_NOISEBURST (110 LBs) - LAR_EMECA_NOISEBURST (278 LBs) - {textcolor{red}{LAR_FCALA_SEVNOISEBURST (9 LBs)}},Noise/data corruption found offline: 11 Veto Ranges with 29 events. 66 isolated events. a total of 11 corruption periods. Lumi loss due to corruption: 84.21 nb-1 / 761196.80 nb-1 . Some EVs identified offline: 22 noisy periods. 164 Mini noise periods. Lumi loss due to NB: 0.41 nb-1 / 761196.80 nb-1 (0.00 per-mil). Lumi loss due to MNB: 2.11 nb-1 / 761196.80 nb-1 (0.00 per-mil). 
439927,ATLLARSWDPQ-801,YES,98 SBN - 15 HNHG,YES,17 SBN - 0 HNHG,LAR_FCALC_NOISEBURST (110 LBs) - LAR_HECA_NOISEBURST (222 LBs) - LAR_HECC_NOISEBURST (110 LBs) - {textcolor{red}{LAR_HECA_SEVNOISEBURST (2 LBs)}} - LAR_FCALA_NOISEBURST (222 LBs) - {textcolor{red}{LAR_EMECA_SEVNOISEBURST (2 LBs)}} - LAR_EMECC_NOISEBURST (110 LBs) - LAR_EMECA_NOISEBURST (222 LBs) - {textcolor{red}{LAR_FCALA_SEVNOISEBURST (2 LBs)}},Noise/data corruption found offline: 15 Veto Ranges with 34 events. 52 isolated events. a total of 15 corruption periods. Lumi loss due to corruption: 135.32 nb-1 / 523574.59 nb-1 . Some EVs identified offline: 14 noisy periods. 337 Mini noise periods. Lumi loss due to NB: 0.26 nb-1 / 523574.59 nb-1 (0.00 per-mil). Lumi loss due to MNB: 6.18 nb-1 / 523574.59 nb-1 (0.01 per-mil). 
440101,ATLLARSWDPQ-804,YES,0 SBN - 2 HNHG,NO,-,LAR_FCALC_NOISEBURST (11 LBs) - LAR_HECA_NOISEBURST (10 LBs) - LAR_HECC_NOISEBURST (11 LBs) - LAR_FCALA_NOISEBURST (10 LBs) - LAR_EMECC_NOISEBURST (11 LBs) - LAR_EMECA_NOISEBURST (10 LBs),-
440117,ATLLARSWDPQ-805,YES,1 SBN - 3 HNHG,NO,-,{textcolor{red}{LAR_HECC_SEVNOISEBURST (500 LBs)}} - {textcolor{red}{LAR_FCALC_SEVNOISEBURST (500 LBs)}} - {textcolor{red}{LAR_EMECC_SEVNOISEBURST (500 LBs)}} - {textcolor{red}{LAR_HECA_SEVNOISEBURST (500 LBs)}} - {textcolor{red}{LAR_EMECA_SEVNOISEBURST (500 LBs)}} - {textcolor{red}{LAR_FCALA_SEVNOISEBURST (500 LBs)}},Some EVs identified offline: 5 noisy periods. Lumi loss due to NB: 0.00 nb-1 / 0.00 nb-1 (0.00 per-mil). 
440199,ATLLARSWDPQ-810,YES,-,YES,19 SBN - 3 HNHG,LAR_FCALC_NOISEBURST (138 LBs) - LAR_HECC_NOISEBURST (138 LBs) - LAR_FCALA_NOISEBURST (171 LBs) - LAR_HECA_NOISEBURST (171 LBs) - LAR_EMBA_NOISEBURST (2 LBs) - LAR_EMECC_NOISEBURST (138 LBs) - LAR_EMECA_NOISEBURST (171 LBs),Noise/data corruption found offline: 10 Veto Ranges with 20 events. 35 isolated events. a total of 10 corruption periods. Lumi loss due to corruption: 82.56 nb-1 / 762615.20 nb-1 . Some EVs identified offline: 9 noisy periods. 275 Mini noise periods. Lumi loss due to NB: 0.16 nb-1 / 762615.20 nb-1 (0.00 per-mil). Lumi loss due to MNB: 4.98 nb-1 / 762615.20 nb-1 (0.01 per-mil). 
