Run,Jira,Express,Express Noisy Cells,Bulk,Bulk Noisy Cells,Defects {\textcolor{red}{(intol.)}},Notes
438481,ATLLARSWDPQ-751,YES,47 SBN - 7 HNHG,YES,16 SBN - 1 HNHG,LAR_FCALC_NOISEBURST (165 LBs) - LAR_HECA_NOISEBURST (522 LBs) - LAR_HECC_NOISEBURST (165 LBs) - {textcolor{red}{LAR_HECA_SEVNOISEBURST (4 LBs)}} - LAR_FCALA_NOISEBURST (522 LBs) - {textcolor{red}{LAR_EMECA_SEVNOISEBURST (4 LBs)}} - LAR_EMBA_NOISEBURST (2 LBs) - LAR_EMECC_NOISEBURST (165 LBs) - LAR_EMECA_NOISEBURST (522 LBs) - {textcolor{red}{LAR_FCALA_SEVNOISEBURST (4 LBs)}},Noise/data corruption found offline: 28 Veto Ranges with 4766 events. 63 isolated events. a total of 28 corruption periods. Lumi loss due to corruption: 276.39 nb-1 / 805805.55 nb-1 . Some EVs identified offline: 16 noisy periods. 40 Mini noise periods. Lumi loss due to NB: 0.24 nb-1 / 805805.55 nb-1 (0.00 per-mil). Lumi loss due to MNB: 0.58 nb-1 / 805805.55 nb-1 (0.00 per-mil). 
438502,ATLLARSWDPQ-763,YES,62 SBN - 5 HNHG,YES,4 SBN - 1 HNHG,LAR_FCALC_NOISEBURST (134 LBs) - LAR_HECA_NOISEBURST (322 LBs) - LAR_HECC_NOISEBURST (134 LBs) - {textcolor{red}{LAR_HECA_SEVNOISEBURST (2 LBs)}} - LAR_FCALA_NOISEBURST (322 LBs) - {textcolor{red}{LAR_EMECA_SEVNOISEBURST (2 LBs)}} - LAR_EMBA_NOISEBURST (4 LBs) - LAR_EMECC_NOISEBURST (134 LBs) - LAR_EMECA_NOISEBURST (322 LBs) - {textcolor{red}{LAR_FCALA_SEVNOISEBURST (2 LBs)}},Noise/data corruption found offline: 14 Veto Ranges with 3869 events. 41 isolated events. a total of 14 corruption periods. Lumi loss due to corruption: 166.14 nb-1 / 740952.33 nb-1 . Some EVs identified offline: 13 noisy periods. 275 Mini noise periods. Lumi loss due to NB: 0.22 nb-1 / 740952.33 nb-1 (0.00 per-mil). Lumi loss due to MNB: 4.60 nb-1 / 740952.33 nb-1 (0.01 per-mil). 
438532,ATLLARSWDPQ-764,YES,117 SBN - 17 HNHG,YES,12 SBN - 3 HNHG,LAR_FCALC_NOISEBURST (89 LBs) - LAR_HECA_NOISEBURST (321 LBs) - {textcolor{red}{LAR_HECC_SEVNOISEBURST (2 LBs)}} - {textcolor{red}{LAR_FCALC_SEVNOISEBURST (2 LBs)}} - LAR_HECC_NOISEBURST (89 LBs) - LAR_EMECC_HVNONNOM_CORRECTED (47 LBs) - {textcolor{red}{LAR_EMECC_SEVNOISEBURST (2 LBs)}} - LAR_FCALA_NOISEBURST (321 LBs) - {textcolor{red}{LAR_EMECC_HVTRIP (3 LBs)}} - LAR_EMBA_NOISEBURST (4 LBs) - LAR_EMECC_NOISEBURST (89 LBs) - LAR_EMECA_NOISEBURST (321 LBs) - LAR_EMBC_NOISEBURST (4 LBs),Noise/data corruption found offline: 11 Veto Ranges with 27 events. 38 isolated events. a total of 11 corruption periods. Lumi loss due to corruption: 99.01 nb-1 / 515381.59 nb-1 . Some EVs identified offline: 17 noisy periods. 230 Mini noise periods. Lumi loss due to NB: 0.31 nb-1 / 515381.59 nb-1 (0.00 per-mil). Lumi loss due to MNB: 4.11 nb-1 / 515381.59 nb-1 (0.01 per-mil). 
438638,ATLLARSWDPQ-765,YES,145 SBN - 17 HNHG,YES,20 SBN - 1 HNHG,LAR_FCALC_NOISEBURST (102 LBs) - LAR_HECA_NOISEBURST (257 LBs) - LAR_HECC_NOISEBURST (102 LBs) - LAR_FCALA_NOISEBURST (257 LBs) - LAR_EMECC_NOISEBURST (102 LBs) - LAR_EMECA_NOISEBURST (257 LBs) - {textcolor{red}{LAR_DATACORRUPT (2 LBs)}},Noise/data corruption found offline: 17 Veto Ranges with 5580 events. 55 isolated events. a total of 17 corruption periods. Lumi loss due to corruption: 212.83 nb-1 / 601363.55 nb-1 . Some EVs identified offline: 12 noisy periods. 178 Mini noise periods. Lumi loss due to NB: 0.21 nb-1 / 601363.55 nb-1 (0.00 per-mil). Lumi loss due to MNB: 2.92 nb-1 / 601363.55 nb-1 (0.00 per-mil). 
438737,ATLLARSWDPQ-768,YES,70 SBN - 7 HNHG,YES,11 SBN - 3 HNHG,LAR_FCALC_NOISEBURST (77 LBs) - LAR_HECA_NOISEBURST (107 LBs) - LAR_HECC_NOISEBURST (77 LBs) - {textcolor{red}{LAR_HECA_SEVNOISEBURST (6 LBs)}} - LAR_FCALA_NOISEBURST (107 LBs) - {textcolor{red}{LAR_EMECA_SEVNOISEBURST (6 LBs)}} - LAR_EMBA_NOISEBURST (2 LBs) - LAR_EMECC_NOISEBURST (77 LBs) - LAR_EMECA_NOISEBURST (107 LBs) - {textcolor{red}{LAR_FCALA_SEVNOISEBURST (6 LBs)}},Noise/data corruption found offline: 7 Veto Ranges with 15 events. 26 isolated events. a total of 7 corruption periods. Lumi loss due to corruption: 64.13 nb-1 / 387382.17 nb-1 . Some EVs identified offline: 10 noisy periods. 119 Mini noise periods. Lumi loss due to NB: 0.19 nb-1 / 387382.17 nb-1 (0.00 per-mil). Lumi loss due to MNB: 2.19 nb-1 / 387382.17 nb-1 (0.01 per-mil). 
438786,ATLLARSWDPQ-770,YES,40 SBN - 3 HNHG,YES,5 SBN - 3 HNHG,LAR_FCALC_NOISEBURST (98 LBs) - LAR_HECA_NOISEBURST (265 LBs) - LAR_HECC_NOISEBURST (98 LBs) - {textcolor{red}{LAR_HECA_SEVNOISEBURST (2 LBs)}} - LAR_FCALA_NOISEBURST (265 LBs) - {textcolor{red}{LAR_EMECA_SEVNOISEBURST (2 LBs)}} - LAR_EMBA_NOISEBURST (2 LBs) - LAR_EMECC_NOISEBURST (98 LBs) - LAR_EMECA_NOISEBURST (265 LBs) - {textcolor{red}{LAR_FCALA_SEVNOISEBURST (2 LBs)}},Noise/data corruption found offline: 17 Veto Ranges with 698 events. 44 isolated events. a total of 17 corruption periods. Lumi loss due to corruption: 157.30 nb-1 / 524321.47 nb-1 . Some EVs identified offline: 8 noisy periods. 19 Mini noise periods. Lumi loss due to NB: 0.14 nb-1 / 524321.47 nb-1 (0.00 per-mil). Lumi loss due to MNB: 0.35 nb-1 / 524321.47 nb-1 (0.00 per-mil). 
