Discussed in https://its.cern.ch/jira/browse/ATLLARSWDPQ-1361

** Defect LAR_EMBA_NOISEBURST **
Affecting 2 LBs: 1428, 1429 (0 recoverable) 
** Defect LAR_EMBC_HVTRIP(INTOLERABLE) **
Affecting 2 LBs: 1428, 1429 (0 recoverable) 
** Defect LAR_EMBC_NOISEBURST **
Affecting 2 LBs: 1428, 1429 (0 recoverable) 
** Defect LAR_EMBC_HVRAMPUP **
Affecting 3 LBs: 1428, 1429, 1430 (0 recoverable) 
** Defect LAR_HECA_SEVNOISEBURST(INTOLERABLE) **
Affecting 2 LBs: 1360, 1361 (2 recoverable) 
** Defect LAR_HECA_NOISEBURST **
Affecting 298 LBs: 242, 243, 285, 286, 298, 299, 322, 323, 325, 326, 328, 329, 330, 336, 337, 373, 374, 378, 379, 380, 381, 387, 388, 392, 393, 411, 412, 420, 421, 423, 424, 434, 435, 436, 437, 440, 441, 442, 443, 444, 473, 474, 480, 481, 499, 500, 511, 512, 515, 516, 524, 525, 527, 528, 530, 531, 537, 538, 540, 541, 548, 549, 550, 551, 565, 566, 576, 577, 580, 581, 596, 597, 598, 599, 605, 606, 612, 613, 614, 615, 637, 638, 639, 640, 644, 645, 649, 650, 657, 658, 659, 660, 661, 662, 663, 664, 665, 667, 668, 673, 674, 682, 683, 685, 686, 694, 695, 696, 697, 699, 700, 707, 708, 710, 711, 715, 716, 717, 721, 722, 723, 734, 735, 744, 745, 746, 758, 759, 761, 762, 764, 765, 768, 769, 771, 772, 796, 797, 798, 799, 800, 801, 813, 814, 816, 817, 823, 824, 825, 846, 847, 848, 850, 851, 856, 857, 865, 866, 868, 869, 871, 872, 880, 881, 892, 893, 894, 895, 900, 901, 902, 903, 917, 918, 924, 925, 926, 927, 935, 936, 942, 943, 951, 952, 953, 954, 967, 968, 972, 973, 974, 980, 981, 990, 991, 1008, 1009, 1010, 1020, 1021, 1023, 1024, 1025, 1030, 1031, 1042, 1043, 1049, 1050, 1054, 1055, 1057, 1058, 1065, 1066, 1077, 1078, 1084, 1085, 1086, 1104, 1105, 1117, 1118, 1119, 1120, 1121, 1122, 1123, 1124, 1125, 1126, 1143, 1144, 1145, 1164, 1165, 1177, 1178, 1189, 1190, 1217, 1218, 1220, 1221, 1225, 1226, 1232, 1233, 1235, 1236, 1247, 1248, 1250, 1251, 1254, 1255, 1258, 1259, 1274, 1275, 1277, 1278, 1279, 1280, 1290, 1291, 1292, 1293, 1304, 1305, 1308, 1309, 1316, 1317, 1338, 1339, 1342, 1343, 1344, 1348, 1349, 1367, 1368, 1393, 1394, 1415, 1416, 1450, 1451, 1478, 1479, 1483, 1484, 1496, 1497, 1502, 1503 (0 recoverable) 
** Defect LAR_HECC_NOISEBURST **
Affecting 130 LBs: 235, 236, 237, 240, 241, 307, 308, 309, 325, 326, 331, 332, 344, 345, 377, 378, 413, 414, 416, 417, 422, 423, 424, 425, 435, 436, 461, 462, 499, 500, 506, 507, 559, 560, 561, 562, 574, 575, 576, 588, 589, 597, 598, 600, 601, 618, 619, 640, 641, 667, 668, 693, 694, 711, 712, 742, 743, 761, 762, 782, 783, 796, 797, 810, 811, 818, 819, 829, 830, 841, 842, 891, 892, 908, 909, 955, 956, 966, 967, 970, 971, 976, 977, 1000, 1001, 1006, 1007, 1026, 1027, 1076, 1077, 1084, 1085, 1102, 1103, 1104, 1105, 1106, 1123, 1124, 1140, 1141, 1150, 1151, 1189, 1190, 1197, 1198, 1267, 1268, 1290, 1291, 1318, 1319, 1320, 1324, 1325, 1400, 1401, 1410, 1411, 1462, 1463, 1477, 1478, 1479, 1481, 1482, 1504, 1505 (0 recoverable) 
** Defect LAR_EMECA_SEVNOISEBURST(INTOLERABLE) **
Affecting 2 LBs: 1360, 1361 (2 recoverable) 
** Defect LAR_EMECA_NOISEBURST **
Affecting 298 LBs: 242, 243, 285, 286, 298, 299, 322, 323, 325, 326, 328, 329, 330, 336, 337, 373, 374, 378, 379, 380, 381, 387, 388, 392, 393, 411, 412, 420, 421, 423, 424, 434, 435, 436, 437, 440, 441, 442, 443, 444, 473, 474, 480, 481, 499, 500, 511, 512, 515, 516, 524, 525, 527, 528, 530, 531, 537, 538, 540, 541, 548, 549, 550, 551, 565, 566, 576, 577, 580, 581, 596, 597, 598, 599, 605, 606, 612, 613, 614, 615, 637, 638, 639, 640, 644, 645, 649, 650, 657, 658, 659, 660, 661, 662, 663, 664, 665, 667, 668, 673, 674, 682, 683, 685, 686, 694, 695, 696, 697, 699, 700, 707, 708, 710, 711, 715, 716, 717, 721, 722, 723, 734, 735, 744, 745, 746, 758, 759, 761, 762, 764, 765, 768, 769, 771, 772, 796, 797, 798, 799, 800, 801, 813, 814, 816, 817, 823, 824, 825, 846, 847, 848, 850, 851, 856, 857, 865, 866, 868, 869, 871, 872, 880, 881, 892, 893, 894, 895, 900, 901, 902, 903, 917, 918, 924, 925, 926, 927, 935, 936, 942, 943, 951, 952, 953, 954, 967, 968, 972, 973, 974, 980, 981, 990, 991, 1008, 1009, 1010, 1020, 1021, 1023, 1024, 1025, 1030, 1031, 1042, 1043, 1049, 1050, 1054, 1055, 1057, 1058, 1065, 1066, 1077, 1078, 1084, 1085, 1086, 1104, 1105, 1117, 1118, 1119, 1120, 1121, 1122, 1123, 1124, 1125, 1126, 1143, 1144, 1145, 1164, 1165, 1177, 1178, 1189, 1190, 1217, 1218, 1220, 1221, 1225, 1226, 1232, 1233, 1235, 1236, 1247, 1248, 1250, 1251, 1254, 1255, 1258, 1259, 1274, 1275, 1277, 1278, 1279, 1280, 1290, 1291, 1292, 1293, 1304, 1305, 1308, 1309, 1316, 1317, 1338, 1339, 1342, 1343, 1344, 1348, 1349, 1367, 1368, 1393, 1394, 1415, 1416, 1450, 1451, 1478, 1479, 1483, 1484, 1496, 1497, 1502, 1503 (0 recoverable) 
** Defect LAR_EMECC_NOISEBURST **
Affecting 130 LBs: 235, 236, 237, 240, 241, 307, 308, 309, 325, 326, 331, 332, 344, 345, 377, 378, 413, 414, 416, 417, 422, 423, 424, 425, 435, 436, 461, 462, 499, 500, 506, 507, 559, 560, 561, 562, 574, 575, 576, 588, 589, 597, 598, 600, 601, 618, 619, 640, 641, 667, 668, 693, 694, 711, 712, 742, 743, 761, 762, 782, 783, 796, 797, 810, 811, 818, 819, 829, 830, 841, 842, 891, 892, 908, 909, 955, 956, 966, 967, 970, 971, 976, 977, 1000, 1001, 1006, 1007, 1026, 1027, 1076, 1077, 1084, 1085, 1102, 1103, 1104, 1105, 1106, 1123, 1124, 1140, 1141, 1150, 1151, 1189, 1190, 1197, 1198, 1267, 1268, 1290, 1291, 1318, 1319, 1320, 1324, 1325, 1400, 1401, 1410, 1411, 1462, 1463, 1477, 1478, 1479, 1481, 1482, 1504, 1505 (0 recoverable) 
** Defect LAR_FCALA_SEVNOISEBURST(INTOLERABLE) **
Affecting 2 LBs: 1360, 1361 (2 recoverable) 
** Defect LAR_FCALA_NOISEBURST **
Affecting 298 LBs: 242, 243, 285, 286, 298, 299, 322, 323, 325, 326, 328, 329, 330, 336, 337, 373, 374, 378, 379, 380, 381, 387, 388, 392, 393, 411, 412, 420, 421, 423, 424, 434, 435, 436, 437, 440, 441, 442, 443, 444, 473, 474, 480, 481, 499, 500, 511, 512, 515, 516, 524, 525, 527, 528, 530, 531, 537, 538, 540, 541, 548, 549, 550, 551, 565, 566, 576, 577, 580, 581, 596, 597, 598, 599, 605, 606, 612, 613, 614, 615, 637, 638, 639, 640, 644, 645, 649, 650, 657, 658, 659, 660, 661, 662, 663, 664, 665, 667, 668, 673, 674, 682, 683, 685, 686, 694, 695, 696, 697, 699, 700, 707, 708, 710, 711, 715, 716, 717, 721, 722, 723, 734, 735, 744, 745, 746, 758, 759, 761, 762, 764, 765, 768, 769, 771, 772, 796, 797, 798, 799, 800, 801, 813, 814, 816, 817, 823, 824, 825, 846, 847, 848, 850, 851, 856, 857, 865, 866, 868, 869, 871, 872, 880, 881, 892, 893, 894, 895, 900, 901, 902, 903, 917, 918, 924, 925, 926, 927, 935, 936, 942, 943, 951, 952, 953, 954, 967, 968, 972, 973, 974, 980, 981, 990, 991, 1008, 1009, 1010, 1020, 1021, 1023, 1024, 1025, 1030, 1031, 1042, 1043, 1049, 1050, 1054, 1055, 1057, 1058, 1065, 1066, 1077, 1078, 1084, 1085, 1086, 1104, 1105, 1117, 1118, 1119, 1120, 1121, 1122, 1123, 1124, 1125, 1126, 1143, 1144, 1145, 1164, 1165, 1177, 1178, 1189, 1190, 1217, 1218, 1220, 1221, 1225, 1226, 1232, 1233, 1235, 1236, 1247, 1248, 1250, 1251, 1254, 1255, 1258, 1259, 1274, 1275, 1277, 1278, 1279, 1280, 1290, 1291, 1292, 1293, 1304, 1305, 1308, 1309, 1316, 1317, 1338, 1339, 1342, 1343, 1344, 1348, 1349, 1367, 1368, 1393, 1394, 1415, 1416, 1450, 1451, 1478, 1479, 1483, 1484, 1496, 1497, 1502, 1503 (0 recoverable) 
** Defect LAR_FCALC_NOISEBURST **
Affecting 130 LBs: 235, 236, 237, 240, 241, 307, 308, 309, 325, 326, 331, 332, 344, 345, 377, 378, 413, 414, 416, 417, 422, 423, 424, 425, 435, 436, 461, 462, 499, 500, 506, 507, 559, 560, 561, 562, 574, 575, 576, 588, 589, 597, 598, 600, 601, 618, 619, 640, 641, 667, 668, 693, 694, 711, 712, 742, 743, 761, 762, 782, 783, 796, 797, 810, 811, 818, 819, 829, 830, 841, 842, 891, 892, 908, 909, 955, 956, 966, 967, 970, 971, 976, 977, 1000, 1001, 1006, 1007, 1026, 1027, 1076, 1077, 1084, 1085, 1102, 1103, 1104, 1105, 1106, 1123, 1124, 1140, 1141, 1150, 1151, 1189, 1190, 1197, 1198, 1267, 1268, 1290, 1291, 1318, 1319, 1320, 1324, 1325, 1400, 1401, 1410, 1411, 1462, 1463, 1477, 1478, 1479, 1481, 1482, 1504, 1505 (0 recoverable) 
** Defect LAR_DATACORRUPT(INTOLERABLE) **
Affecting 4 LBs: 696, 697, 1102, 1103 (4 recoverable) 
