0 0 0 1 282 0 maskedOSUM  # 0x38023400 -> 0x2d60143d H09L
0 0 8 1 266 0 maskedOSUM  # 0x38421400 -> 0x2d60041d H05L
0 0 8 1 267 0 maskedOSUM  # 0x38421600 -> 0x2d60041f H05L
0 0 10 1 206 0 maskedOSUM  # 0x38519c00 -> 0x2d403a15 H04L
0 0 10 1 261 0 maskedOSUM OffAmplitude  # 0x38520a00 -> 0x2d440017 H04L
0 0 16 1 182 0 maskedOSUM OffAmplitude  # 0x38816c00 -> 0x2d40227d H01L
0 0 16 1 186 0 maskedOSUM OffAmplitude  # 0x38817400 -> 0x2d40267d H01L
0 0 16 1 190 0 maskedOSUM OffAmplitude  # 0x38817c00 -> 0x2d402a7d H01L
0 0 16 1 194 0 maskedOSUM OffAmplitude  # 0x38818400 -> 0x2d402e7d H01L
0 0 19 1 167 0 maskedOSUM NonLinearRamp  # 0x38994e00 -> 0x2d401273 H15R
0 0 23 1 96 0 maskedOSUM  # 0x38b8c000 -> 0x2d204261 H13R
0 1 2 1 52 0 maskedOSUM  # 0x39106800 -> 0x2da01609 I02L
0 1 6 1 4 0 maskedOSUM  # 0x39300800 -> 0x2d800419 I04L
0 1 6 1 52 0 maskedOSUM  # 0x39306800 -> 0x2da01619 I04L
0 1 12 1 3 0 maskedOSUM OffAmplitude  # 0x39600600 -> 0x2d800233 I07L
0 1 12 1 18 0 maskedOSUM OffAmplitude  # 0x39602400 -> 0x2d801231 I07L
0 1 14 1 52 0 maskedOSUM  # 0x39706800 -> 0x2da01639 I08L
0 1 15 1 271 0 maskedOSUM  # 0x397a1e00 -> 0x2de0083f I09R
0 1 21 1 145 0 maskedOSUM OffAmplitude  # 0x39a92200 -> 0x2da40257 I12R
0 1 21 1 147 0 maskedOSUM OffAmplitude  # 0x39a92600 -> 0x2da40457 I12R
0 1 21 1 261 0 maskedOSUM OffAmplitude  # 0x39aa0a00 -> 0x2dc40057 I12R
0 1 22 1 258 0 maskedOSUM OffAmplitude  # 0x39b20400 -> 0x2dc06e59 I12L
0 1 24 1 4 0 maskedOSUM  # 0x39c00800 -> 0x2d800461 I13L
0 1 24 1 52 0 maskedOSUM  # 0x39c06800 -> 0x2da01661 I13L
0 1 25 1 142 0 maskedOSUM OffAmplitude  # 0x39c91c00 -> 0x2da40065 I14R
0 1 25 1 260 0 maskedOSUM OffAmplitude  # 0x39ca0800 -> 0x2dc40065 I14R
0 1 26 1 68 0 maskedOSUM  # 0x39d08800 -> 0x2da02669 I14L
1 0 2 2 130 0 maskedOSUM  # 0x3a150400 -> 0x2cc45425 C06R
1 0 3 1 18 0 maskedOSUM  # 0x3a182400 -> 0x30052800 C06H
1 0 3 1 19 0 maskedOSUM  # 0x3a182600 -> 0x30053800 C06H
1 0 3 1 20 0 maskedOSUM  # 0x3a182800 -> 0x30054800 C06H
1 0 3 1 21 0 maskedOSUM  # 0x3a182a00 -> 0x30055800 C06H
1 0 3 1 23 0 maskedOSUM  # 0x3a182e00 -> 0x30057800 C06H
1 0 3 1 37 0 maskedOSUM  # 0x3a184a00 -> 0x30095800 C06H
1 0 3 1 61 0 maskedOSUM OffAmplitude  # 0x3a187a00 -> 0x300dd800 C06H
1 0 4 1 115 0 maskedOSUM OffAmplitude  # 0x3a20e600 -> 0x2cb00c2f C05R
1 0 6 1 155 0 maskedOSUM  # 0x3a313600 -> 0x34137000 C04R
1 0 6 1 188 0 maskedOSUM  # 0x3a317800 -> 0x34179000 C04R
1 0 7 1 284 0 maskedOSUM OffAmplitude  # 0x3a3a3800 -> 0x2ce00419 C03R
1 0 10 1 24 0 maskedOSUM  # 0x3a503000 -> 0x30048800 C02H
1 0 12 1 0 0 maskedOSUM OffAmplitude  # 0x3a600000 -> 0x2c800201 C01L
1 0 12 1 1 0 maskedOSUM  # 0x3a600200 -> 0x2c800203 C01L
1 0 12 1 4 0 maskedOSUM  # 0x3a600800 -> 0x2c800401 C01L
1 0 12 1 5 0 maskedOSUM  # 0x3a600a00 -> 0x2c800403 C01L
1 0 15 1 161 0 maskedOSUM OffAmplitude  # 0x3a794200 -> 0x2cc40663 C12L
1 0 15 1 163 0 maskedOSUM OffAmplitude  # 0x3a794600 -> 0x2cc40667 C12L
1 0 15 1 176 0 maskedOSUM OffAmplitude  # 0x3a796000 -> 0x2cc40861 C12L
1 0 15 1 209 0 maskedOSUM OffAmplitude  # 0x3a79a200 -> 0x2cc40c63 C12L
1 0 15 1 211 0 maskedOSUM OffAmplitude  # 0x3a79a600 -> 0x2cc40c67 C12L
1 0 15 1 213 0 maskedOSUM OffAmplitude  # 0x3a79aa00 -> 0x2cc40c6b C12L
1 0 16 1 140 0 maskedOSUM OffOFCs  # 0x3a811800 -> 0x3023c800 C12H
1 0 16 1 156 0 maskedOSUM OffOFCs  # 0x3a813800 -> 0x3027c800 C12H
1 0 18 1 2 0 maskedOSUM OffAmplitude  # 0x3a900400 -> 0x2c800265 C11L
1 0 18 1 3 0 maskedOSUM OffAmplitude  # 0x3a900600 -> 0x2c800267 C11L
1 0 18 1 88 0 maskedOSUM  # 0x3a90b000 -> 0x2cb00061 C11L
1 0 18 1 92 0 maskedOSUM  # 0x3a90b800 -> 0x2cb00261 C11L
1 0 18 1 100 0 maskedOSUM  # 0x3a90c800 -> 0x2cb00661 C11L
1 0 18 1 117 0 maskedOSUM  # 0x3a90ea00 -> 0x2cb00e63 C11L
1 0 18 1 137 0 maskedOSUM  # 0x3a911200 -> 0x2cb01863 C11L
1 0 18 1 141 0 maskedOSUM  # 0x3a911a00 -> 0x2cb01a63 C11L
1 0 18 1 149 0 maskedOSUM  # 0x3a912a00 -> 0x2cb01e63 C11L
1 0 21 1 17 0 maskedOSUM  # 0x3aa82200 -> 0x2ca00043 C09L
1 0 21 1 96 0 maskedOSUM  # 0x3aa8c000 -> 0x2cc00041 C09L
1 0 21 1 97 0 maskedOSUM  # 0x3aa8c200 -> 0x2cc00043 C09L
1 0 22 1 166 0 maskedOSUM  # 0x3ab14c00 -> 0x30416800 C09H
1 0 22 1 167 0 maskedOSUM  # 0x3ab14e00 -> 0x30417800 C09H
1 1 2 1 24 0 maskedOSUM OffAmplitude  # 0x3b103000 -> 0x2e200011 A02L
1 1 2 1 25 0 maskedOSUM OffAmplitude  # 0x3b103200 -> 0x2e200013 A02L
1 1 2 2 80 0 maskedOSUM  # 0x3b14a000 -> 0x2e601201 A02R
1 1 3 1 26 0 maskedOSUM OffAmplitude  # 0x3b183400 -> 0x3204a800 A02H
1 1 5 1 191 0 maskedOSUM OffAmplitude  # 0x3b297e00 -> 0x2e44201f A03L
1 1 6 1 180 0 maskedOSUM  # 0x3b316800 -> 0x36169000 A04R
1 1 6 1 188 0 maskedOSUM  # 0x3b317800 -> 0x36179000 A04R
1 1 6 2 9 0 maskedOSUM  # 0x3b341200 -> 0x36813000 A04L
1 1 6 2 115 0 maskedOSUM  # 0x3b34e600 -> 0x368e7000 A04L
1 1 6 2 145 0 maskedOSUM  # 0x3b352200 -> 0x37023000 A04L
1 1 6 2 149 0 maskedOSUM  # 0x3b352a00 -> 0x3702b000 A04L
1 1 6 2 151 0 maskedOSUM  # 0x3b352e00 -> 0x3702f000 A04L
1 1 6 2 158 0 maskedOSUM  # 0x3b353c00 -> 0x3703d000 A04L
1 1 6 2 188 0 maskedOSUM  # 0x3b357800 -> 0x37079000 A04L
1 1 10 1 5 0 maskedOSUM OffAmplitude  # 0x3b500a00 -> 0x32015800 A06H
1 1 10 1 187 0 maskedOSUM  # 0x3b517600 -> 0x324cb800 A06H
1 1 14 1 251 0 maskedOSUM NonLinearRamp  # 0x3b71f600 -> 0x2e443e4f A08L
1 1 14 1 255 0 maskedOSUM NonLinearRamp  # 0x3b71fe00 -> 0x2e44404f A08L
1 1 14 1 259 0 maskedOSUM NonLinearRamp  # 0x3b720600 -> 0x2e44424f A08L
1 1 16 1 101 0 maskedOSUM NonLinearRamp  # 0x3b80ca00 -> 0x321a5800 A09H
1 1 21 1 39 0 maskedOSUM OffAmplitude  # 0x3ba84e00 -> 0x2e28006f A12L
1 1 22 1 4 0 maskedOSUM OffAmplitude  # 0x3bb00800 -> 0x32034800 A12H
1 1 22 1 20 0 maskedOSUM OffAmplitude  # 0x3bb02800 -> 0x32074800 A12H
1 1 17 1 274 0 OffAmplitude  # 0x3b8a2400 -> 0x2e444a55 A10R
0 0 5 1 10 0 DeformedPulse OffScale  # 0x38281400 -> 0x2d000a29 H06R
0 0 5 1 12 0 DeformedPulse OffScale  # 0x38281800 -> 0x2d000c29 H06R
0 0 5 1 14 0 DeformedPulse OffScale  # 0x38281c00 -> 0x2d000e29 H06R
0 0 5 1 180 0 ADCJump  # 0x38296800 -> 0x2d402029 H06R
0 0 5 1 182 0 ADCJump  # 0x38296c00 -> 0x2d402229 H06R
0 0 5 1 184 0 ADCJump  # 0x38297000 -> 0x2d402429 H06R
0 0 5 1 186 0 ADCJump  # 0x38297400 -> 0x2d402629 H06R
0 0 23 1 236 0 ADCJump  # 0x38b9d800 -> 0x2d405861 H13R
0 1 4 1 196 0 ADCJump  # 0x39218800 -> 0x2dc03011 I03L
0 1 30 1 149 0 ADCJump  # 0x39f12a00 -> 0x2dc0007b I16L
1 0 3 1 32 0 OffOFCs  # 0x3a184000 -> 0x30090800 C06H
1 0 3 1 51 0 OffOFCs  # 0x3a186600 -> 0x300d3800 C06H
1 0 7 1 10 0 deadCalib  # 0x3a381400 -> 0x2ca8081d C03R
1 0 7 1 11 0 deadCalib  # 0x3a381600 -> 0x2ca8081f C03R
1 0 7 1 14 0 deadCalib  # 0x3a381c00 -> 0x2ca80a1d C03R
1 0 7 1 15 0 deadCalib  # 0x3a381e00 -> 0x2ca80a1f C03R
1 0 7 1 18 0 deadCalib  # 0x3a382400 -> 0x2ca80c1d C03R
1 0 7 1 19 0 deadCalib  # 0x3a382600 -> 0x2ca80c1f C03R
1 0 7 1 22 0 deadCalib  # 0x3a382c00 -> 0x2ca80e1d C03R
1 0 7 1 23 0 deadCalib  # 0x3a382e00 -> 0x2ca80e1f C03R
1 0 7 1 26 0 deadCalib  # 0x3a383400 -> 0x2ca8101d C03R
1 0 7 1 27 0 deadCalib  # 0x3a383600 -> 0x2ca8101f C03R
1 0 7 1 30 0 deadCalib  # 0x3a383c00 -> 0x2ca8121d C03R
1 0 7 1 31 0 deadCalib  # 0x3a383e00 -> 0x2ca8121f C03R
1 0 7 1 34 0 deadCalib  # 0x3a384400 -> 0x2ca8141d C03R
1 0 7 1 35 0 deadCalib  # 0x3a384600 -> 0x2ca8141f C03R
1 0 7 1 38 0 deadCalib  # 0x3a384c00 -> 0x2ca8161d C03R
1 0 7 1 39 0 deadCalib  # 0x3a384e00 -> 0x2ca8161f C03R
1 0 8 1 152 0 deadCalib  # 0x3a413000 -> 0x2cc40e11 C03L
1 0 8 1 153 0 deadCalib  # 0x3a413200 -> 0x2cc40e13 C03L
1 0 8 1 160 0 deadCalib  # 0x3a414000 -> 0x2cc41211 C03L
1 0 8 1 161 0 deadCalib  # 0x3a414200 -> 0x2cc41213 C03L
1 0 24 1 168 0 deadCalib  # 0x3ac15000 -> 0x2cc41641 C08L
1 0 24 1 169 0 deadCalib  # 0x3ac15200 -> 0x2cc41643 C08L
1 0 24 1 176 0 deadCalib  # 0x3ac16000 -> 0x2cc41a41 C08L
1 0 24 1 177 0 deadCalib  # 0x3ac16200 -> 0x2cc41a43 C08L
1 1 20 1 10 0 deadCalib  # 0x3ba01400 -> 0x2e28086d A11L
1 1 20 1 11 0 deadCalib  # 0x3ba01600 -> 0x2e28086f A11L
1 1 20 1 14 0 deadCalib  # 0x3ba01c00 -> 0x2e280a6d A11L
1 1 20 1 15 0 deadCalib  # 0x3ba01e00 -> 0x2e280a6f A11L
1 1 20 1 18 0 deadCalib  # 0x3ba02400 -> 0x2e280c6d A11L
1 1 20 1 19 0 deadCalib  # 0x3ba02600 -> 0x2e280c6f A11L
1 1 20 1 22 0 deadCalib  # 0x3ba02c00 -> 0x2e280e6d A11L
1 1 20 1 23 0 deadCalib  # 0x3ba02e00 -> 0x2e280e6f A11L
1 1 20 1 26 0 deadCalib  # 0x3ba03400 -> 0x2e28106d A11L
1 1 20 1 27 0 deadCalib  # 0x3ba03600 -> 0x2e28106f A11L
1 1 20 1 30 0 deadCalib  # 0x3ba03c00 -> 0x2e28126d A11L
1 1 20 1 31 0 deadCalib  # 0x3ba03e00 -> 0x2e28126f A11L
1 1 20 1 34 0 deadCalib  # 0x3ba04400 -> 0x2e28146d A11L
1 1 20 1 35 0 deadCalib  # 0x3ba04600 -> 0x2e28146f A11L
1 1 20 1 38 0 deadCalib  # 0x3ba04c00 -> 0x2e28166d A11L
1 1 20 1 39 0 deadCalib  # 0x3ba04e00 -> 0x2e28166f A11L
