== Missing EVs for run 437623 (Sat, 22 Oct 2022 13:18:25 +0200) ==

Found a total of 1 Mini noise periods, covering a total of 0.00 seconds
Lumi loss due to mini-noise-bursts: 0.00 nb-1 out of 3719.33 nb-1 (0.00 per-mil)
Overall Lumi loss is 0.0020285034031921386 by 0.00100085 s of veto length


