Discussed in https://its.cern.ch/jira/browse/ATLLARSWDPQ-1392

** Defect LAR_EMBC_NOISEBURST **
Affecting 2 LBs: 635, 636 (0 recoverable) 
** Defect LAR_HECA_SEVNOISEBURST(INTOLERABLE) **
Affecting 86 LBs: 734, 735, 748, 749, 750, 751, 752, 760, 761, 773, 774, 788, 789, 799, 800, 804, 805, 813, 814, 815, 816, 829, 830, 831, 836, 837, 849, 850, 851, 852, 854, 855, 867, 868, 885, 886, 887, 888, 889, 890, 891, 916, 917, 938, 939, 966, 967, 968, 989, 990, 1007, 1008, 1009, 1010, 1037, 1038, 1039, 1055, 1056, 1101, 1102, 1108, 1109, 1112, 1113, 1123, 1124, 1125, 1137, 1138, 1143, 1144, 1148, 1149, 1150, 1151, 1152, 1163, 1164, 1165, 1183, 1184, 1194, 1195, 1214, 1215 (86 recoverable) 
** Defect LAR_HECA_NOISEBURST **
Affecting 206 LBs: 178, 179, 219, 220, 222, 223, 224, 226, 227, 249, 250, 251, 252, 253, 263, 264, 265, 286, 287, 296, 297, 303, 304, 334, 335, 336, 342, 343, 344, 345, 347, 348, 350, 351, 357, 358, 369, 370, 372, 373, 379, 380, 382, 383, 386, 387, 419, 420, 445, 446, 448, 449, 450, 451, 455, 456, 470, 471, 472, 473, 475, 476, 482, 483, 484, 487, 488, 496, 497, 501, 502, 521, 522, 523, 524, 542, 543, 544, 545, 546, 548, 549, 552, 553, 554, 555, 570, 571, 572, 573, 574, 576, 577, 578, 579, 581, 582, 583, 584, 585, 586, 597, 598, 599, 610, 611, 612, 613, 614, 615, 631, 632, 637, 638, 643, 644, 645, 646, 653, 654, 656, 657, 668, 669, 672, 673, 674, 679, 680, 689, 690, 692, 693, 707, 708, 718, 719, 725, 726, 729, 730, 732, 733, 742, 743, 770, 771, 780, 781, 782, 805, 806, 810, 811, 812, 813, 820, 821, 838, 839, 847, 848, 860, 861, 868, 869, 894, 895, 909, 910, 911, 913, 914, 956, 957, 973, 974, 987, 988, 989, 1001, 1002, 1017, 1018, 1032, 1033, 1059, 1060, 1084, 1085, 1088, 1089, 1109, 1110, 1111, 1112, 1136, 1137, 1173, 1174, 1199, 1200, 1201, 1202, 1216, 1217 (0 recoverable) 
** Defect LAR_HECC_SEVNOISEBURST(INTOLERABLE) **
Affecting 44 LBs: 738, 739, 763, 764, 794, 795, 805, 806, 809, 810, 832, 833, 837, 838, 841, 842, 860, 861, 889, 890, 906, 907, 917, 918, 947, 948, 953, 954, 975, 976, 992, 993, 1015, 1016, 1087, 1088, 1166, 1167, 1168, 1169, 1170, 1171, 1200, 1201 (44 recoverable) 
** Defect LAR_HECC_NOISEBURST **
Affecting 131 LBs: 238, 239, 261, 262, 264, 265, 266, 267, 268, 282, 283, 286, 287, 295, 296, 298, 299, 301, 302, 303, 347, 348, 373, 374, 392, 393, 406, 407, 420, 421, 444, 445, 497, 498, 509, 510, 521, 522, 528, 529, 573, 574, 583, 584, 592, 593, 594, 608, 609, 610, 612, 613, 614, 616, 617, 618, 619, 628, 629, 632, 633, 636, 637, 641, 642, 643, 673, 674, 675, 694, 695, 704, 705, 707, 708, 713, 714, 715, 716, 717, 721, 722, 729, 730, 732, 733, 760, 761, 773, 774, 778, 779, 819, 820, 848, 849, 850, 867, 868, 872, 873, 907, 908, 984, 985, 999, 1000, 1006, 1007, 1021, 1022, 1034, 1035, 1067, 1068, 1097, 1098, 1103, 1104, 1118, 1119, 1126, 1127, 1177, 1178, 1180, 1181, 1183, 1184, 1193, 1194 (0 recoverable) 
** Defect LAR_EMECA_SEVNOISEBURST(INTOLERABLE) **
Affecting 86 LBs: 734, 735, 748, 749, 750, 751, 752, 760, 761, 773, 774, 788, 789, 799, 800, 804, 805, 813, 814, 815, 816, 829, 830, 831, 836, 837, 849, 850, 851, 852, 854, 855, 867, 868, 885, 886, 887, 888, 889, 890, 891, 916, 917, 938, 939, 966, 967, 968, 989, 990, 1007, 1008, 1009, 1010, 1037, 1038, 1039, 1055, 1056, 1101, 1102, 1108, 1109, 1112, 1113, 1123, 1124, 1125, 1137, 1138, 1143, 1144, 1148, 1149, 1150, 1151, 1152, 1163, 1164, 1165, 1183, 1184, 1194, 1195, 1214, 1215 (86 recoverable) 
** Defect LAR_EMECA_NOISEBURST **
Affecting 206 LBs: 178, 179, 219, 220, 222, 223, 224, 226, 227, 249, 250, 251, 252, 253, 263, 264, 265, 286, 287, 296, 297, 303, 304, 334, 335, 336, 342, 343, 344, 345, 347, 348, 350, 351, 357, 358, 369, 370, 372, 373, 379, 380, 382, 383, 386, 387, 419, 420, 445, 446, 448, 449, 450, 451, 455, 456, 470, 471, 472, 473, 475, 476, 482, 483, 484, 487, 488, 496, 497, 501, 502, 521, 522, 523, 524, 542, 543, 544, 545, 546, 548, 549, 552, 553, 554, 555, 570, 571, 572, 573, 574, 576, 577, 578, 579, 581, 582, 583, 584, 585, 586, 597, 598, 599, 610, 611, 612, 613, 614, 615, 631, 632, 637, 638, 643, 644, 645, 646, 653, 654, 656, 657, 668, 669, 672, 673, 674, 679, 680, 689, 690, 692, 693, 707, 708, 718, 719, 725, 726, 729, 730, 732, 733, 742, 743, 770, 771, 780, 781, 782, 805, 806, 810, 811, 812, 813, 820, 821, 838, 839, 847, 848, 860, 861, 868, 869, 894, 895, 909, 910, 911, 913, 914, 956, 957, 973, 974, 987, 988, 989, 1001, 1002, 1017, 1018, 1032, 1033, 1059, 1060, 1084, 1085, 1088, 1089, 1109, 1110, 1111, 1112, 1136, 1137, 1173, 1174, 1199, 1200, 1201, 1202, 1216, 1217 (0 recoverable) 
** Defect LAR_EMECC_SEVNOISEBURST(INTOLERABLE) **
Affecting 44 LBs: 738, 739, 763, 764, 794, 795, 805, 806, 809, 810, 832, 833, 837, 838, 841, 842, 860, 861, 889, 890, 906, 907, 917, 918, 947, 948, 953, 954, 975, 976, 992, 993, 1015, 1016, 1087, 1088, 1166, 1167, 1168, 1169, 1170, 1171, 1200, 1201 (44 recoverable) 
** Defect LAR_EMECC_NOISEBURST **
Affecting 131 LBs: 238, 239, 261, 262, 264, 265, 266, 267, 268, 282, 283, 286, 287, 295, 296, 298, 299, 301, 302, 303, 347, 348, 373, 374, 392, 393, 406, 407, 420, 421, 444, 445, 497, 498, 509, 510, 521, 522, 528, 529, 573, 574, 583, 584, 592, 593, 594, 608, 609, 610, 612, 613, 614, 616, 617, 618, 619, 628, 629, 632, 633, 636, 637, 641, 642, 643, 673, 674, 675, 694, 695, 704, 705, 707, 708, 713, 714, 715, 716, 717, 721, 722, 729, 730, 732, 733, 760, 761, 773, 774, 778, 779, 819, 820, 848, 849, 850, 867, 868, 872, 873, 907, 908, 984, 985, 999, 1000, 1006, 1007, 1021, 1022, 1034, 1035, 1067, 1068, 1097, 1098, 1103, 1104, 1118, 1119, 1126, 1127, 1177, 1178, 1180, 1181, 1183, 1184, 1193, 1194 (0 recoverable) 
** Defect LAR_FCALA_SEVNOISEBURST(INTOLERABLE) **
Affecting 86 LBs: 734, 735, 748, 749, 750, 751, 752, 760, 761, 773, 774, 788, 789, 799, 800, 804, 805, 813, 814, 815, 816, 829, 830, 831, 836, 837, 849, 850, 851, 852, 854, 855, 867, 868, 885, 886, 887, 888, 889, 890, 891, 916, 917, 938, 939, 966, 967, 968, 989, 990, 1007, 1008, 1009, 1010, 1037, 1038, 1039, 1055, 1056, 1101, 1102, 1108, 1109, 1112, 1113, 1123, 1124, 1125, 1137, 1138, 1143, 1144, 1148, 1149, 1150, 1151, 1152, 1163, 1164, 1165, 1183, 1184, 1194, 1195, 1214, 1215 (86 recoverable) 
** Defect LAR_FCALA_NOISEBURST **
Affecting 206 LBs: 178, 179, 219, 220, 222, 223, 224, 226, 227, 249, 250, 251, 252, 253, 263, 264, 265, 286, 287, 296, 297, 303, 304, 334, 335, 336, 342, 343, 344, 345, 347, 348, 350, 351, 357, 358, 369, 370, 372, 373, 379, 380, 382, 383, 386, 387, 419, 420, 445, 446, 448, 449, 450, 451, 455, 456, 470, 471, 472, 473, 475, 476, 482, 483, 484, 487, 488, 496, 497, 501, 502, 521, 522, 523, 524, 542, 543, 544, 545, 546, 548, 549, 552, 553, 554, 555, 570, 571, 572, 573, 574, 576, 577, 578, 579, 581, 582, 583, 584, 585, 586, 597, 598, 599, 610, 611, 612, 613, 614, 615, 631, 632, 637, 638, 643, 644, 645, 646, 653, 654, 656, 657, 668, 669, 672, 673, 674, 679, 680, 689, 690, 692, 693, 707, 708, 718, 719, 725, 726, 729, 730, 732, 733, 742, 743, 770, 771, 780, 781, 782, 805, 806, 810, 811, 812, 813, 820, 821, 838, 839, 847, 848, 860, 861, 868, 869, 894, 895, 909, 910, 911, 913, 914, 956, 957, 973, 974, 987, 988, 989, 1001, 1002, 1017, 1018, 1032, 1033, 1059, 1060, 1084, 1085, 1088, 1089, 1109, 1110, 1111, 1112, 1136, 1137, 1173, 1174, 1199, 1200, 1201, 1202, 1216, 1217 (0 recoverable) 
** Defect LAR_FCALC_SEVNOISEBURST(INTOLERABLE) **
Affecting 44 LBs: 738, 739, 763, 764, 794, 795, 805, 806, 809, 810, 832, 833, 837, 838, 841, 842, 860, 861, 889, 890, 906, 907, 917, 918, 947, 948, 953, 954, 975, 976, 992, 993, 1015, 1016, 1087, 1088, 1166, 1167, 1168, 1169, 1170, 1171, 1200, 1201 (44 recoverable) 
** Defect LAR_FCALC_NOISEBURST **
Affecting 131 LBs: 238, 239, 261, 262, 264, 265, 266, 267, 268, 282, 283, 286, 287, 295, 296, 298, 299, 301, 302, 303, 347, 348, 373, 374, 392, 393, 406, 407, 420, 421, 444, 445, 497, 498, 509, 510, 521, 522, 528, 529, 573, 574, 583, 584, 592, 593, 594, 608, 609, 610, 612, 613, 614, 616, 617, 618, 619, 628, 629, 632, 633, 636, 637, 641, 642, 643, 673, 674, 675, 694, 695, 704, 705, 707, 708, 713, 714, 715, 716, 717, 721, 722, 729, 730, 732, 733, 760, 761, 773, 774, 778, 779, 819, 820, 848, 849, 850, 867, 868, 872, 873, 907, 908, 984, 985, 999, 1000, 1006, 1007, 1021, 1022, 1034, 1035, 1067, 1068, 1097, 1098, 1103, 1104, 1118, 1119, 1126, 1127, 1177, 1178, 1180, 1181, 1183, 1184, 1193, 1194 (0 recoverable) 
