Run,Jira,Express,Express Noisy Cells,Bulk,Bulk Noisy Cells,Defects {\textcolor{red}{(intol.)}},Notes
451140,=HYPERLINK("https://its.cern.ch/jira/projects/ATLLARSWDPQ/issues/ATLLARSWDPQ-1107"),"ATLLARSWDPQ-1107"),{textcolor{orange}cmark},-,NO,-,(Run consists of 1090 LBs),Some EVs identified offline: 1575 noisy periods. 1204 Mini noise periods. Lumi loss due to NB: 9.92 nb-1 / 255571.84 nb-1 (0.04 per-mil). Lumi loss due to MNB: 7.20 nb-1 / 255571.84 nb-1 (0.03 per-mil). 
451295,=HYPERLINK("https://its.cern.ch/jira/projects/ATLLARSWDPQ/issues/ATLLARSWDPQ-1109"),"ATLLARSWDPQ-1109"),NO,-,NO,-,(Run consists of 1460 LBs),Some EVs identified offline: 344 noisy periods. 1678 Mini noise periods. Lumi loss due to NB: 2.13 nb-1 / 204805.21 nb-1 (0.01 per-mil). Lumi loss due to MNB: 12.84 nb-1 / 204805.21 nb-1 (0.06 per-mil). 
451543,=HYPERLINK("https://its.cern.ch/jira/projects/ATLLARSWDPQ/issues/ATLLARSWDPQ-1113"),"ATLLARSWDPQ-1113"),NO,-,NO,-,(Run consists of 955 LBs),Some EVs identified offline: 155 noisy periods. 453 Mini noise periods. Lumi loss due to NB: 0.45 nb-1 / 59238.87 nb-1 (0.01 per-mil). Lumi loss due to MNB: 1.40 nb-1 / 59238.87 nb-1 (0.02 per-mil). 
451557,=HYPERLINK("https://its.cern.ch/jira/projects/ATLLARSWDPQ/issues/ATLLARSWDPQ-1114"),"ATLLARSWDPQ-1114"),NO,-,NO,-,(Run consists of 646 LBs),Some EVs identified offline: 100 noisy periods. 614 Mini noise periods. Lumi loss due to NB: 0.83 nb-1 / 88087.41 nb-1 (0.01 per-mil). Lumi loss due to MNB: 4.72 nb-1 / 88087.41 nb-1 (0.05 per-mil). 
451569,=HYPERLINK("https://its.cern.ch/jira/projects/ATLLARSWDPQ/issues/ATLLARSWDPQ-1115"),"ATLLARSWDPQ-1115"),NO,-,NO,-,(Run consists of 678 LBs),Some EVs identified offline: 754 noisy periods. 993 Mini noise periods. Lumi loss due to NB: 5.55 nb-1 / 131940.37 nb-1 (0.04 per-mil). Lumi loss due to MNB: 7.84 nb-1 / 131940.37 nb-1 (0.06 per-mil). 
451587,=HYPERLINK("https://its.cern.ch/jira/projects/ATLLARSWDPQ/issues/ATLLARSWDPQ-1116"),"ATLLARSWDPQ-1116"),NO,-,NO,-,(Run consists of 608 LBs),Some EVs identified offline: 2125 noisy periods. 434 Mini noise periods. Lumi loss due to NB: 20.05 nb-1 / 119776.69 nb-1 (0.17 per-mil). Lumi loss due to MNB: 4.16 nb-1 / 119776.69 nb-1 (0.03 per-mil). 
451595,=HYPERLINK("https://its.cern.ch/jira/projects/ATLLARSWDPQ/issues/ATLLARSWDPQ-1117"),"ATLLARSWDPQ-1117"),NO,-,NO,-,(Run consists of 1126 LBs),-
451611,=HYPERLINK("https://its.cern.ch/jira/projects/ATLLARSWDPQ/issues/ATLLARSWDPQ-1118"),"ATLLARSWDPQ-1118"),NO,-,NO,-,(Run consists of 1220 LBs),Some EVs identified offline: 231 noisy periods. 9 Mini noise periods. Lumi loss due to NB: 1.94 nb-1 / 317560.95 nb-1 (0.01 per-mil). Lumi loss due to MNB: 0.08 nb-1 / 317560.95 nb-1 (0.00 per-mil). 
451618,=HYPERLINK("https://its.cern.ch/jira/projects/ATLLARSWDPQ/issues/ATLLARSWDPQ-1120"),"ATLLARSWDPQ-1120"),NO,-,NO,-,(Run consists of 982 LBs),Some EVs identified offline: 197 noisy periods. 432 Mini noise periods. Lumi loss due to NB: 2.76 nb-1 / 351908.51 nb-1 (0.01 per-mil). Lumi loss due to MNB: 5.67 nb-1 / 351908.51 nb-1 (0.02 per-mil). 
